%!PS-Adobe-3.0 EPSF-3.0 
%%BoundingBox: 0 0 508 224
%%Pages: 0
%%Creator: LibreOffice 24.2
%%Title: none
%%CreationDate: none
%%LanguageLevel: 2
%%EndComments
%%BeginProlog
%%BeginResource: procset SDRes-Prolog 1.0 0
/b4_inc_state save def
/dict_count countdictstack def
/op_count count 1 sub def
userdict begin
0 setgray 0 setlinecap 1 setlinewidth 0 setlinejoin 10 setmiterlimit[] 0 setdash newpath
/languagelevel where {pop languagelevel 1 ne {false setstrokeadjust false setoverprint} if} if
/bdef {bind def} bind def
/c {setrgbcolor} bdef
/l {neg lineto} bdef
/rl {neg rlineto} bdef
/lc {setlinecap} bdef
/lj {setlinejoin} bdef
/lw {setlinewidth} bdef
/ml {setmiterlimit} bdef
/ld {setdash} bdef
/m {neg moveto} bdef
/ct {6 2 roll neg 6 2 roll neg 6 2 roll neg curveto} bdef
/r {rotate} bdef
/t {neg translate} bdef
/s {scale} bdef
/sw {show} bdef
/gs {gsave} bdef
/gr {grestore} bdef
/f {findfont dup length dict begin
{1 index /FID ne {def} {pop pop} ifelse} forall /Encoding ISOLatin1Encoding def
currentdict end /NFont exch definefont pop /NFont findfont} bdef
/p {closepath} bdef
/sf {scalefont setfont} bdef
/ef {eofill}bdef
/pc {closepath stroke}bdef
/ps {stroke}bdef
/pum {matrix currentmatrix}bdef
/pom {setmatrix}bdef
/bs {/aString exch def /nXOfs exch def /nWidth exch def currentpoint nXOfs 0 rmoveto pum nWidth aString stringwidth pop div 1 scale aString show pom moveto} bdef
%%EndResource
%%EndProlog
%%BeginSetup
%%EndSetup
%%Page: 1 1
%%BeginPageSetup
%%EndPageSetup
pum
0.02835 0.0284 s 
0 -7886 t
/tm matrix currentmatrix def
tm setmatrix
-13 -469 t 
1 1 s 
gs
1.000 1.000 1.000 c 8958 8341 m  0 8341 l  0 456 l  17915 456 l  17915 8341 l 
8958 8341 l  p ef
gr
gs
0 lw 1 lj 0.703 0.703 0.703 c 6716 7537 m  1990 7537 l  1990 1884 l  11442 1884 l 
11442 7537 l  6716 7537 l  pc
gr
gs
0 lw 1 lj 0.703 0.703 0.703 c 11442 7536 m  1990 7536 l  ps
gr
gs
0 lw 1 lj 0.703 0.703 0.703 c 11442 6970 m  1990 6970 l  ps
gr
gs
0 lw 1 lj 0.703 0.703 0.703 c 11442 6405 m  1990 6405 l  ps
gr
gs
0 lw 1 lj 0.703 0.703 0.703 c 11442 5839 m  1990 5839 l  ps
gr
gs
0 lw 1 lj 0.703 0.703 0.703 c 11442 5274 m  1990 5274 l  ps
gr
gs
0 lw 1 lj 0.703 0.703 0.703 c 11442 4709 m  1990 4709 l  ps
gr
gs
0 lw 1 lj 0.703 0.703 0.703 c 11442 4144 m  1990 4144 l  ps
gr
gs
0 lw 1 lj 0.703 0.703 0.703 c 11442 3579 m  1990 3579 l  ps
gr
gs
0 lw 1 lj 0.703 0.703 0.703 c 11442 3013 m  1990 3013 l  ps
gr
gs
0 lw 1 lj 0.703 0.703 0.703 c 11442 2448 m  1990 2448 l  ps
gr
gs
0 lw 1 lj 0.703 0.703 0.703 c 11442 1883 m  1990 1883 l  ps
gr
gs
0 lw 1 lj 0.703 0.703 0.703 c 1990 7686 m  1990 7536 l  ps
gr
gs
0 lw 1 lj 0.703 0.703 0.703 c 1990 7686 m  1990 7536 l  ps
gr
gs
0 lw 1 lj 0.703 0.703 0.703 c 2462 7686 m  2462 7536 l  ps
gr
gs
0 lw 1 lj 0.703 0.703 0.703 c 2462 7686 m  2462 7536 l  ps
gr
gs
0 lw 1 lj 0.703 0.703 0.703 c 2935 7686 m  2935 7536 l  ps
gr
gs
0 lw 1 lj 0.703 0.703 0.703 c 2935 7686 m  2935 7536 l  ps
gr
gs
0 lw 1 lj 0.703 0.703 0.703 c 3407 7686 m  3407 7536 l  ps
gr
gs
0 lw 1 lj 0.703 0.703 0.703 c 3407 7686 m  3407 7536 l  ps
gr
gs
0 lw 1 lj 0.703 0.703 0.703 c 3880 7686 m  3880 7536 l  ps
gr
gs
0 lw 1 lj 0.703 0.703 0.703 c 3880 7686 m  3880 7536 l  ps
gr
gs
0 lw 1 lj 0.703 0.703 0.703 c 4353 7686 m  4353 7536 l  ps
gr
gs
0 lw 1 lj 0.703 0.703 0.703 c 4353 7686 m  4353 7536 l  ps
gr
gs
0 lw 1 lj 0.703 0.703 0.703 c 4825 7686 m  4825 7536 l  ps
gr
gs
0 lw 1 lj 0.703 0.703 0.703 c 4825 7686 m  4825 7536 l  ps
gr
gs
0 lw 1 lj 0.703 0.703 0.703 c 5298 7686 m  5298 7536 l  ps
gr
gs
0 lw 1 lj 0.703 0.703 0.703 c 5298 7686 m  5298 7536 l  ps
gr
gs
0 lw 1 lj 0.703 0.703 0.703 c 5771 7686 m  5771 7536 l  ps
gr
gs
0 lw 1 lj 0.703 0.703 0.703 c 5771 7686 m  5771 7536 l  ps
gr
gs
0 lw 1 lj 0.703 0.703 0.703 c 6243 7686 m  6243 7536 l  ps
gr
gs
0 lw 1 lj 0.703 0.703 0.703 c 6243 7686 m  6243 7536 l  ps
gr
gs
0 lw 1 lj 0.703 0.703 0.703 c 6716 7686 m  6716 7536 l  ps
gr
gs
0 lw 1 lj 0.703 0.703 0.703 c 6716 7686 m  6716 7536 l  ps
gr
gs
0 lw 1 lj 0.703 0.703 0.703 c 7189 7686 m  7189 7536 l  ps
gr
gs
0 lw 1 lj 0.703 0.703 0.703 c 7189 7686 m  7189 7536 l  ps
gr
gs
0 lw 1 lj 0.703 0.703 0.703 c 7661 7686 m  7661 7536 l  ps
gr
gs
0 lw 1 lj 0.703 0.703 0.703 c 7661 7686 m  7661 7536 l  ps
gr
gs
0 lw 1 lj 0.703 0.703 0.703 c 8134 7686 m  8134 7536 l  ps
gr
gs
0 lw 1 lj 0.703 0.703 0.703 c 8134 7686 m  8134 7536 l  ps
gr
gs
0 lw 1 lj 0.703 0.703 0.703 c 8607 7686 m  8607 7536 l  ps
gr
gs
0 lw 1 lj 0.703 0.703 0.703 c 8607 7686 m  8607 7536 l  ps
gr
gs
0 lw 1 lj 0.703 0.703 0.703 c 9078 7686 m  9078 7536 l  ps
gr
gs
0 lw 1 lj 0.703 0.703 0.703 c 9078 7686 m  9078 7536 l  ps
gr
gs
0 lw 1 lj 0.703 0.703 0.703 c 9551 7686 m  9551 7536 l  ps
gr
gs
0 lw 1 lj 0.703 0.703 0.703 c 9551 7686 m  9551 7536 l  ps
gr
gs
0 lw 1 lj 0.703 0.703 0.703 c 10024 7686 m  10024 7536 l  ps
gr
gs
0 lw 1 lj 0.703 0.703 0.703 c 10024 7686 m  10024 7536 l  ps
gr
gs
0 lw 1 lj 0.703 0.703 0.703 c 10496 7686 m  10496 7536 l  ps
gr
gs
0 lw 1 lj 0.703 0.703 0.703 c 10496 7686 m  10496 7536 l  ps
gr
gs
0 lw 1 lj 0.703 0.703 0.703 c 10969 7686 m  10969 7536 l  ps
gr
gs
0 lw 1 lj 0.703 0.703 0.703 c 10969 7686 m  10969 7536 l  ps
gr
gs
0 lw 1 lj 0.703 0.703 0.703 c 11442 7686 m  11442 7536 l  ps
gr
gs
0 lw 1 lj 0.703 0.703 0.703 c 11442 7686 m  11442 7536 l  ps
gr
gs
0 lw 1 lj 0.703 0.703 0.703 c 1990 7536 m  11442 7536 l  ps
gr
gs
0 lw 1 lj 0.703 0.703 0.703 c 1840 7536 m  1990 7536 l  ps
gr
gs
0 lw 1 lj 0.703 0.703 0.703 c 1840 7536 m  1990 7536 l  ps
gr
gs
0 lw 1 lj 0.703 0.703 0.703 c 1840 6970 m  1990 6970 l  ps
gr
gs
0 lw 1 lj 0.703 0.703 0.703 c 1840 6970 m  1990 6970 l  ps
gr
gs
0 lw 1 lj 0.703 0.703 0.703 c 1840 6405 m  1990 6405 l  ps
gr
gs
0 lw 1 lj 0.703 0.703 0.703 c 1840 6405 m  1990 6405 l  ps
gr
gs
0 lw 1 lj 0.703 0.703 0.703 c 1840 5839 m  1990 5839 l  ps
gr
gs
0 lw 1 lj 0.703 0.703 0.703 c 1840 5839 m  1990 5839 l  ps
gr
gs
0 lw 1 lj 0.703 0.703 0.703 c 1840 5274 m  1990 5274 l  ps
gr
gs
0 lw 1 lj 0.703 0.703 0.703 c 1840 5274 m  1990 5274 l  ps
gr
gs
0 lw 1 lj 0.703 0.703 0.703 c 1840 4709 m  1990 4709 l  ps
gr
gs
0 lw 1 lj 0.703 0.703 0.703 c 1840 4709 m  1990 4709 l  ps
gr
gs
0 lw 1 lj 0.703 0.703 0.703 c 1840 4144 m  1990 4144 l  ps
gr
gs
0 lw 1 lj 0.703 0.703 0.703 c 1840 4144 m  1990 4144 l  ps
gr
gs
0 lw 1 lj 0.703 0.703 0.703 c 1840 3579 m  1990 3579 l  ps
gr
gs
0 lw 1 lj 0.703 0.703 0.703 c 1840 3579 m  1990 3579 l  ps
gr
gs
0 lw 1 lj 0.703 0.703 0.703 c 1840 3013 m  1990 3013 l  ps
gr
gs
0 lw 1 lj 0.703 0.703 0.703 c 1840 3013 m  1990 3013 l  ps
gr
gs
0 lw 1 lj 0.703 0.703 0.703 c 1840 2448 m  1990 2448 l  ps
gr
gs
0 lw 1 lj 0.703 0.703 0.703 c 1840 2448 m  1990 2448 l  ps
gr
gs
0 lw 1 lj 0.703 0.703 0.703 c 1840 1883 m  1990 1883 l  ps
gr
gs
0 lw 1 lj 0.703 0.703 0.703 c 1840 1883 m  1990 1883 l  ps
gr
gs
0 lw 1 lj 0.703 0.703 0.703 c 1990 7536 m  1990 1883 l  ps
gr
gs
79.99553 lw 1 lj 0.003 0.273 0.527 c 1990 6744 m  2462 6744 l  2935 6744 l 
3407 6518 l  3880 3579 l  4353 4482 l  4825 6179 l  5298 3918 l  5771 3918 l 
6243 2448 l  6716 2448 l  7189 3805 l  7661 3353 l  8134 3353 l  8607 3353 l 
9078 2561 l  9551 2222 l  10024 4031 l  10496 4031 l  10969 4031 l  11442 4031 l 
ps
gr
gs
0.003 0.273 0.527 c 1865 6619 m  1865 6869 l  2115 6869 l  2115 6619 l  1865 6619 l 
p ef
gr
gs
0 lw 1 lj 0.003 0.273 0.527 c 1865 6619 m  1865 6869 l  2115 6869 l  2115 6619 l 
1865 6619 l  pc
gr
gs
0.003 0.273 0.527 c 2337 6619 m  2337 6869 l  2587 6869 l  2587 6619 l  2337 6619 l 
p ef
gr
gs
0 lw 1 lj 0.003 0.273 0.527 c 2337 6619 m  2337 6869 l  2587 6869 l  2587 6619 l 
2337 6619 l  pc
gr
gs
0.003 0.273 0.527 c 2810 6619 m  2810 6869 l  3060 6869 l  3060 6619 l  2810 6619 l 
p ef
gr
gs
0 lw 1 lj 0.003 0.273 0.527 c 2810 6619 m  2810 6869 l  3060 6869 l  3060 6619 l 
2810 6619 l  pc
gr
gs
0.003 0.273 0.527 c 3282 6393 m  3282 6643 l  3532 6643 l  3532 6393 l  3282 6393 l 
p ef
gr
gs
0 lw 1 lj 0.003 0.273 0.527 c 3282 6393 m  3282 6643 l  3532 6643 l  3532 6393 l 
3282 6393 l  pc
gr
gs
0.003 0.273 0.527 c 3755 3454 m  3755 3704 l  4005 3704 l  4005 3454 l  3755 3454 l 
p ef
gr
gs
0 lw 1 lj 0.003 0.273 0.527 c 3755 3454 m  3755 3704 l  4005 3704 l  4005 3454 l 
3755 3454 l  pc
gr
gs
0.003 0.273 0.527 c 4228 4358 m  4228 4607 l  4478 4607 l  4478 4358 l  4228 4358 l 
p ef
gr
gs
0 lw 1 lj 0.003 0.273 0.527 c 4228 4358 m  4228 4607 l  4478 4607 l  4478 4358 l 
4228 4358 l  pc
gr
gs
0.003 0.273 0.527 c 4700 6054 m  4700 6304 l  4950 6304 l  4950 6054 l  4700 6054 l 
p ef
gr
gs
0 lw 1 lj 0.003 0.273 0.527 c 4700 6054 m  4700 6304 l  4950 6304 l  4950 6054 l 
4700 6054 l  pc
gr
gs
0.003 0.273 0.527 c 5173 3793 m  5173 4043 l  5423 4043 l  5423 3793 l  5173 3793 l 
p ef
gr
gs
0 lw 1 lj 0.003 0.273 0.527 c 5173 3793 m  5173 4043 l  5423 4043 l  5423 3793 l 
5173 3793 l  pc
gr
gs
0.003 0.273 0.527 c 5646 3793 m  5646 4043 l  5896 4043 l  5896 3793 l  5646 3793 l 
p ef
gr
gs
0 lw 1 lj 0.003 0.273 0.527 c 5646 3793 m  5646 4043 l  5896 4043 l  5896 3793 l 
5646 3793 l  pc
gr
gs
0.003 0.273 0.527 c 6118 2323 m  6118 2573 l  6368 2573 l  6368 2323 l  6118 2323 l 
p ef
gr
gs
0 lw 1 lj 0.003 0.273 0.527 c 6118 2323 m  6118 2573 l  6368 2573 l  6368 2323 l 
6118 2323 l  pc
gr
gs
0.003 0.273 0.527 c 6591 2323 m  6591 2573 l  6841 2573 l  6841 2323 l  6591 2323 l 
p ef
gr
gs
0 lw 1 lj 0.003 0.273 0.527 c 6591 2323 m  6591 2573 l  6841 2573 l  6841 2323 l 
6591 2323 l  pc
gr
gs
0.003 0.273 0.527 c 7064 3680 m  7064 3930 l  7314 3930 l  7314 3680 l  7064 3680 l 
p ef
gr
gs
0 lw 1 lj 0.003 0.273 0.527 c 7064 3680 m  7064 3930 l  7314 3930 l  7314 3680 l 
7064 3680 l  pc
gr
gs
0.003 0.273 0.527 c 7536 3228 m  7536 3478 l  7786 3478 l  7786 3228 l  7536 3228 l 
p ef
gr
gs
0 lw 1 lj 0.003 0.273 0.527 c 7536 3228 m  7536 3478 l  7786 3478 l  7786 3228 l 
7536 3228 l  pc
gr
gs
0.003 0.273 0.527 c 8009 3228 m  8009 3478 l  8259 3478 l  8259 3228 l  8009 3228 l 
p ef
gr
gs
0 lw 1 lj 0.003 0.273 0.527 c 8009 3228 m  8009 3478 l  8259 3478 l  8259 3228 l 
8009 3228 l  pc
gr
gs
0.003 0.273 0.527 c 8482 3228 m  8482 3478 l  8732 3478 l  8732 3228 l  8482 3228 l 
p ef
gr
gs
0 lw 1 lj 0.003 0.273 0.527 c 8482 3228 m  8482 3478 l  8732 3478 l  8732 3228 l 
8482 3228 l  pc
gr
gs
0.003 0.273 0.527 c 8954 2436 m  8954 2686 l  9203 2686 l  9203 2436 l  8954 2436 l 
p ef
gr
gs
0 lw 1 lj 0.003 0.273 0.527 c 8954 2436 m  8954 2686 l  9203 2686 l  9203 2436 l 
8954 2436 l  pc
gr
gs
0.003 0.273 0.527 c 9426 2097 m  9426 2347 l  9676 2347 l  9676 2097 l  9426 2097 l 
p ef
gr
gs
0 lw 1 lj 0.003 0.273 0.527 c 9426 2097 m  9426 2347 l  9676 2347 l  9676 2097 l 
9426 2097 l  pc
gr
gs
0.003 0.273 0.527 c 9899 3906 m  9899 4156 l  10149 4156 l  10149 3906 l 
9899 3906 l  p ef
gr
gs
0 lw 1 lj 0.003 0.273 0.527 c 9899 3906 m  9899 4156 l  10149 4156 l  10149 3906 l 
9899 3906 l  pc
gr
gs
0.003 0.273 0.527 c 10371 3906 m  10371 4156 l  10621 4156 l  10621 3906 l 
10371 3906 l  p ef
gr
gs
0 lw 1 lj 0.003 0.273 0.527 c 10371 3906 m  10371 4156 l  10621 4156 l  10621 3906 l 
10371 3906 l  pc
gr
gs
0.003 0.273 0.527 c 10844 3906 m  10844 4156 l  11094 4156 l  11094 3906 l 
10844 3906 l  p ef
gr
gs
0 lw 1 lj 0.003 0.273 0.527 c 10844 3906 m  10844 4156 l  11094 4156 l  11094 3906 l 
10844 3906 l  pc
gr
gs
0.003 0.273 0.527 c 11317 3906 m  11317 4156 l  11567 4156 l  11567 3906 l 
11317 3906 l  p ef
gr
gs
0 lw 1 lj 0.003 0.273 0.527 c 11317 3906 m  11317 4156 l  11567 4156 l  11567 3906 l 
11317 3906 l  pc
gr
gs
79.99553 lw 1 lj 1.000 0.261 0.058 c 1990 6857 m  2462 7196 l  2935 7536 l 
3407 5387 l  3880 5839 l  4353 5613 l  4825 3353 l  5298 4765 l  5771 4663 l 
6243 3296 l  6716 2731 l  7189 2572 l  7661 5104 l  8134 4822 l  8607 3805 l 
9078 6687 l  9551 7536 l  10024 7536 l  10496 7536 l  10969 7536 l  11442 7536 l 
ps
gr
gs
1.000 0.261 0.058 c 1865 6857 m  1990 6982 l  2115 6857 l  1990 6732 l  1865 6857 l 
p ef
gr
gs
0 lw 1 lj 1.000 0.261 0.058 c 1865 6857 m  1990 6982 l  2115 6857 l  1990 6732 l 
1865 6857 l  pc
gr
gs
1.000 0.261 0.058 c 2337 7196 m  2462 7321 l  2587 7196 l  2462 7071 l  2337 7196 l 
p ef
gr
gs
0 lw 1 lj 1.000 0.261 0.058 c 2337 7196 m  2462 7321 l  2587 7196 l  2462 7071 l 
2337 7196 l  pc
gr
gs
1.000 0.261 0.058 c 2810 7536 m  2935 7661 l  3060 7536 l  2935 7411 l  2810 7536 l 
p ef
gr
gs
0 lw 1 lj 1.000 0.261 0.058 c 2810 7536 m  2935 7661 l  3060 7536 l  2935 7411 l 
2810 7536 l  pc
gr
gs
1.000 0.261 0.058 c 3282 5387 m  3407 5512 l  3532 5387 l  3407 5262 l  3282 5387 l 
p ef
gr
gs
0 lw 1 lj 1.000 0.261 0.058 c 3282 5387 m  3407 5512 l  3532 5387 l  3407 5262 l 
3282 5387 l  pc
gr
gs
1.000 0.261 0.058 c 3755 5839 m  3880 5964 l  4005 5839 l  3880 5714 l  3755 5839 l 
p ef
gr
gs
0 lw 1 lj 1.000 0.261 0.058 c 3755 5839 m  3880 5964 l  4005 5839 l  3880 5714 l 
3755 5839 l  pc
gr
gs
1.000 0.261 0.058 c 4228 5613 m  4353 5738 l  4478 5613 l  4353 5488 l  4228 5613 l 
p ef
gr
gs
0 lw 1 lj 1.000 0.261 0.058 c 4228 5613 m  4353 5738 l  4478 5613 l  4353 5488 l 
4228 5613 l  pc
gr
gs
1.000 0.261 0.058 c 4700 3353 m  4825 3478 l  4950 3353 l  4825 3228 l  4700 3353 l 
p ef
gr
gs
0 lw 1 lj 1.000 0.261 0.058 c 4700 3353 m  4825 3478 l  4950 3353 l  4825 3228 l 
4700 3353 l  pc
gr
gs
1.000 0.261 0.058 c 5173 4765 m  5298 4890 l  5423 4765 l  5298 4640 l  5173 4765 l 
p ef
gr
gs
0 lw 1 lj 1.000 0.261 0.058 c 5173 4765 m  5298 4890 l  5423 4765 l  5298 4640 l 
5173 4765 l  pc
gr
gs
1.000 0.261 0.058 c 5646 4663 m  5771 4788 l  5896 4663 l  5771 4538 l  5646 4663 l 
p ef
gr
gs
0 lw 1 lj 1.000 0.261 0.058 c 5646 4663 m  5771 4788 l  5896 4663 l  5771 4538 l 
5646 4663 l  pc
gr
gs
1.000 0.261 0.058 c 6118 3296 m  6243 3421 l  6368 3296 l  6243 3171 l  6118 3296 l 
p ef
gr
gs
0 lw 1 lj 1.000 0.261 0.058 c 6118 3296 m  6243 3421 l  6368 3296 l  6243 3171 l 
6118 3296 l  pc
gr
gs
1.000 0.261 0.058 c 6591 2731 m  6716 2856 l  6841 2731 l  6716 2606 l  6591 2731 l 
p ef
gr
gs
0 lw 1 lj 1.000 0.261 0.058 c 6591 2731 m  6716 2856 l  6841 2731 l  6716 2606 l 
6591 2731 l  pc
gr
gs
1.000 0.261 0.058 c 7064 2572 m  7189 2697 l  7314 2572 l  7189 2447 l  7064 2572 l 
p ef
gr
gs
0 lw 1 lj 1.000 0.261 0.058 c 7064 2572 m  7189 2697 l  7314 2572 l  7189 2447 l 
7064 2572 l  pc
gr
gs
1.000 0.261 0.058 c 7536 5104 m  7661 5229 l  7786 5104 l  7661 4979 l  7536 5104 l 
p ef
gr
gs
0 lw 1 lj 1.000 0.261 0.058 c 7536 5104 m  7661 5229 l  7786 5104 l  7661 4979 l 
7536 5104 l  pc
gr
gs
1.000 0.261 0.058 c 8009 4822 m  8134 4947 l  8259 4822 l  8134 4697 l  8009 4822 l 
p ef
gr
gs
0 lw 1 lj 1.000 0.261 0.058 c 8009 4822 m  8134 4947 l  8259 4822 l  8134 4697 l 
8009 4822 l  pc
gr
gs
1.000 0.261 0.058 c 8482 3805 m  8607 3930 l  8732 3805 l  8607 3680 l  8482 3805 l 
p ef
gr
gs
0 lw 1 lj 1.000 0.261 0.058 c 8482 3805 m  8607 3930 l  8732 3805 l  8607 3680 l 
8482 3805 l  pc
gr
gs
1.000 0.261 0.058 c 8954 6687 m  9078 6812 l  9203 6687 l  9078 6562 l  8954 6687 l 
p ef
gr
gs
0 lw 1 lj 1.000 0.261 0.058 c 8954 6687 m  9078 6812 l  9203 6687 l  9078 6562 l 
8954 6687 l  pc
gr
gs
1.000 0.261 0.058 c 9426 7536 m  9551 7661 l  9676 7536 l  9551 7411 l  9426 7536 l 
p ef
gr
gs
0 lw 1 lj 1.000 0.261 0.058 c 9426 7536 m  9551 7661 l  9676 7536 l  9551 7411 l 
9426 7536 l  pc
gr
gs
1.000 0.261 0.058 c 9899 7536 m  10024 7661 l  10149 7536 l  10024 7411 l 
9899 7536 l  p ef
gr
gs
0 lw 1 lj 1.000 0.261 0.058 c 9899 7536 m  10024 7661 l  10149 7536 l  10024 7411 l 
9899 7536 l  pc
gr
gs
1.000 0.261 0.058 c 10371 7536 m  10496 7661 l  10621 7536 l  10496 7411 l 
10371 7536 l  p ef
gr
gs
0 lw 1 lj 1.000 0.261 0.058 c 10371 7536 m  10496 7661 l  10621 7536 l  10496 7411 l 
10371 7536 l  pc
gr
gs
1.000 0.261 0.058 c 10844 7536 m  10969 7661 l  11094 7536 l  10969 7411 l 
10844 7536 l  p ef
gr
gs
0 lw 1 lj 1.000 0.261 0.058 c 10844 7536 m  10969 7661 l  11094 7536 l  10969 7411 l 
10844 7536 l  pc
gr
gs
1.000 0.261 0.058 c 11317 7536 m  11442 7661 l  11567 7536 l  11442 7411 l 
11317 7536 l  p ef
gr
gs
0 lw 1 lj 1.000 0.261 0.058 c 11317 7536 m  11442 7661 l  11567 7536 l  11442 7411 l 
11317 7536 l  pc
gr
gs
51 lw 1 lc 1 lj [ 100.49439 99.49444 ] 0 ld
0.003 0.273 0.527 c 1990 4214 m  11442 4214 l  ps
gr
gs
51 lw 1 lc 1 lj [ 100.49439 99.49444 ] 0 ld
1.000 0.261 0.058 c 1990 5614 m  11442 5614 l  ps
gr
gs
tm setmatrix
-12.99927 -12.99835 t 
0.99994 0.99987 s 
pum
1897 7649 t
0.003 0.003 0.003 c 27 0 m  27 -26 l  89 -26 l  89 -213 l  34 -174 l  34 -204 l 
91 -243 l  120 -243 l  120 -26 l  179 -26 l  179 0 l  27 0 l  p ef
pom
gr
gs
tm setmatrix
-12.99927 -12.99835 t 
0.99994 0.99987 s 
pum
2369 7649 t
0.003 0.003 0.003 c 18 0 m  18 -22 l  24 -35 31 -47 39 -58 ct 48 -68 57 -77 66 -85 ct 
75 -94 84 -101 94 -109 ct 103 -116 111 -123 118 -130 ct 126 -137 132 -145 136 -152 ct 
141 -160 143 -169 143 -179 ct 143 -192 139 -203 131 -210 ct 123 -217 113 -221 99 -221 ct 
85 -221 74 -217 66 -210 ct 57 -203 52 -193 51 -180 ct 19 -183 l  21 -202 30 -218 44 -229 ct 
58 -241 76 -247 99 -247 ct 123 -247 142 -241 155 -229 ct 168 -218 175 -201 175 -180 ct 
175 -171 173 -161 168 -152 ct 164 -143 158 -133 149 -124 ct 141 -115 124 -100 100 -81 ct 
87 -70 77 -60 69 -51 ct 61 -43 55 -34 52 -26 ct 179 -26 l  179 0 l  18 0 l  p ef
pom
gr
gs
tm setmatrix
-12.99927 -12.99835 t 
0.99994 0.99987 s 
pum
2842 7649 t
0.003 0.003 0.003 c 181 -68 m  181 -45 174 -28 159 -16 ct 145 -3 125 3 98 3 ct 74 3 54 -3 40 -14 ct 
25 -25 16 -41 13 -63 ct 46 -66 l  50 -37 67 -23 98 -23 ct 114 -23 126 -27 135 -34 ct 
144 -42 149 -54 149 -69 ct 149 -82 143 -92 133 -100 ct 123 -107 108 -111 89 -111 ct 
72 -111 l  72 -138 l  89 -138 l  106 -138 119 -142 128 -149 ct 138 -156 142 -167 142 -180 ct 
142 -193 138 -203 131 -210 ct 123 -218 112 -221 97 -221 ct 83 -221 72 -218 64 -211 ct 
55 -204 50 -194 49 -182 ct 18 -184 l  20 -204 28 -219 42 -230 ct 57 -241 75 -247 97 -247 ct 
121 -247 140 -241 154 -230 ct 167 -219 174 -203 174 -183 ct 174 -167 170 -155 161 -145 ct 
152 -135 140 -129 123 -125 ct 123 -125 l  141 -123 156 -117 166 -106 ct 176 -96 181 -83 181 -68 ct 
p ef
pom
gr
gs
tm setmatrix
-12.99927 -12.99835 t 
0.99994 0.99987 s 
pum
3314 7649 t
0.003 0.003 0.003 c 152 -55 m  152 0 l  123 0 l  123 -55 l  8 -55 l  8 -79 l 
119 -243 l  152 -243 l  152 -79 l  186 -79 l  186 -55 l  152 -55 l  p
123 -208 m  122 -207 121 -204 118 -199 ct 115 -193 113 -190 111 -187 ct 49 -96 l 
39 -83 l  37 -79 l  123 -79 l  123 -208 l  p ef
pom
gr
gs
tm setmatrix
-12.99927 -12.99835 t 
0.99994 0.99987 s 
pum
3787 7649 t
0.003 0.003 0.003 c 182 -80 m  182 -54 174 -34 159 -19 ct 143 -4 122 3 95 3 ct 73 3 54 -2 41 -12 ct 
27 -22 18 -36 14 -55 ct 46 -58 l  52 -34 69 -22 96 -22 ct 113 -22 126 -27 135 -37 ct 
145 -47 149 -61 149 -79 ct 149 -94 145 -106 135 -116 ct 126 -125 113 -130 97 -130 ct 
88 -130 80 -129 73 -126 ct 66 -123 59 -119 52 -113 ct 21 -113 l  29 -243 l  167 -243 l 
167 -217 l  58 -217 l  53 -140 l  66 -150 83 -155 103 -155 ct 127 -155 146 -148 160 -134 ct 
174 -120 182 -102 182 -80 ct p ef
pom
gr
gs
tm setmatrix
-12.99927 -12.99835 t 
0.99994 0.99987 s 
pum
4260 7649 t
0.003 0.003 0.003 c 181 -80 m  181 -54 174 -34 160 -19 ct 146 -4 127 3 102 3 ct 
75 3 54 -7 40 -28 ct 25 -48 18 -77 18 -116 ct 18 -158 25 -191 41 -213 ct 56 -236 77 -247 105 -247 ct 
141 -247 165 -231 174 -198 ct 144 -192 l  138 -212 125 -222 104 -222 ct 87 -222 73 -214 63 -197 ct 
54 -181 49 -157 49 -126 ct 54 -136 62 -144 73 -150 ct 83 -155 95 -158 108 -158 ct 
130 -158 148 -151 161 -137 ct 174 -123 181 -104 181 -80 ct p
149 -79 m  149 -96 145 -110 136 -120 ct 128 -129 116 -134 100 -134 ct 86 -134 74 -130 65 -121 ct 
56 -113 52 -101 52 -86 ct 52 -67 57 -52 66 -40 ct 75 -28 87 -22 101 -22 ct 116 -22 128 -27 137 -37 ct 
145 -47 149 -61 149 -79 ct p ef
pom
gr
gs
tm setmatrix
-12.99927 -12.99835 t 
0.99994 0.99987 s 
pum
4732 7649 t
0.003 0.003 0.003 c 179 -218 m  154 -180 136 -151 126 -129 ct 116 -108 108 -86 103 -65 ct 
98 -45 95 -23 95 -1 ct 63 -1 l  63 -32 69 -64 83 -98 ct 96 -133 118 -172 149 -217 ct 
18 -217 l  18 -243 l  179 -243 l  179 -218 l  p ef
pom
gr
gs
tm setmatrix
-12.99927 -12.99835 t 
0.99994 0.99987 s 
pum
5205 7649 t
0.003 0.003 0.003 c 181 -68 m  181 -46 174 -28 160 -16 ct 145 -3 125 3 98 3 ct 72 3 52 -3 37 -15 ct 
23 -28 15 -45 15 -68 ct 15 -84 20 -97 29 -108 ct 38 -119 50 -125 64 -128 ct 64 -128 l 
51 -131 40 -138 32 -148 ct 25 -159 21 -171 21 -185 ct 21 -203 28 -218 42 -230 ct 
56 -241 74 -247 98 -247 ct 121 -247 140 -241 154 -230 ct 168 -219 175 -204 175 -184 ct 
175 -171 171 -158 163 -148 ct 156 -138 145 -131 132 -129 ct 132 -128 l  147 -125 159 -119 168 -108 ct 
177 -98 181 -84 181 -68 ct p
143 -183 m  143 -210 128 -224 98 -224 ct 83 -224 72 -220 64 -214 ct 57 -207 53 -196 53 -183 ct 
53 -169 57 -158 65 -151 ct 72 -144 84 -140 98 -140 ct 113 -140 124 -143 131 -150 ct 
139 -157 143 -168 143 -183 ct p
149 -71 m  149 -86 144 -98 135 -105 ct 126 -113 114 -117 98 -117 ct 82 -117 70 -113 61 -104 ct 
52 -96 47 -85 47 -70 ct 47 -37 64 -20 99 -20 ct 115 -20 128 -24 136 -32 ct 145 -41 149 -53 149 -71 ct 
p ef
pom
gr
gs
tm setmatrix
-12.99927 -12.99835 t 
0.99994 0.99987 s 
pum
5678 7649 t
0.003 0.003 0.003 c 180 -127 m  180 -85 172 -53 157 -31 ct 142 -8 120 3 92 3 ct 
73 3 58 -1 46 -9 ct 35 -17 26 -30 22 -48 ct 51 -52 l  57 -32 71 -22 92 -22 ct 110 -22 124 -30 134 -47 ct 
143 -63 148 -87 149 -118 ct 144 -107 136 -99 125 -93 ct 114 -87 102 -84 89 -84 ct 
67 -84 49 -91 36 -106 ct 23 -121 17 -141 17 -165 ct 17 -191 24 -211 38 -225 ct 
52 -240 72 -247 97 -247 ct 124 -247 145 -237 159 -217 ct 173 -197 180 -167 180 -127 ct 
p
146 -157 m  146 -176 141 -192 132 -204 ct 123 -216 111 -222 96 -222 ct 81 -222 70 -217 61 -207 ct 
52 -196 48 -183 48 -165 ct 48 -148 52 -134 61 -123 ct 70 -113 81 -108 96 -108 ct 
105 -108 113 -110 121 -114 ct 129 -118 135 -124 139 -131 ct 144 -139 146 -147 146 -157 ct 
p ef
pom
gr
gs
tm setmatrix
-12.99927 -12.99835 t 
0.99994 0.99987 s 
pum
6058 7649 t
0.003 0.003 0.003 c 27 0 m  27 -26 l  89 -26 l  89 -213 l  34 -174 l  34 -204 l 
91 -243 l  120 -243 l  120 -26 l  179 -26 l  179 0 l  27 0 l  p ef
368 -122 m  368 -81 360 -50 346 -29 ct 332 -8 311 3 283 3 ct 255 3 234 -8 220 -29 ct 
206 -50 199 -81 199 -122 ct 199 -164 206 -195 219 -216 ct 233 -237 254 -247 284 -247 ct 
312 -247 334 -236 347 -215 ct 361 -194 368 -163 368 -122 ct p
336 -122 m  336 -157 332 -182 324 -198 ct 316 -214 302 -222 284 -222 ct 265 -222 251 -214 243 -199 ct 
234 -183 230 -158 230 -122 ct 230 -88 234 -62 243 -46 ct 251 -30 265 -22 283 -22 ct 
301 -22 315 -31 323 -47 ct 332 -63 336 -88 336 -122 ct p ef
pom
gr
gs
tm setmatrix
-12.99927 -12.99835 t 
0.99994 0.99987 s 
pum
6531 7649 t
0.003 0.003 0.003 c 27 0 m  27 -26 l  89 -26 l  89 -213 l  34 -174 l  34 -204 l 
91 -243 l  120 -243 l  120 -26 l  179 -26 l  179 0 l  27 0 l  p ef
212 0 m  212 -26 l  274 -26 l  274 -213 l  219 -174 l  219 -204 l  276 -243 l 
305 -243 l  305 -26 l  364 -26 l  364 0 l  212 0 l  p ef
pom
gr
gs
tm setmatrix
-12.99927 -12.99835 t 
0.99994 0.99987 s 
pum
7004 7649 t
0.003 0.003 0.003 c 27 0 m  27 -26 l  89 -26 l  89 -213 l  34 -174 l  34 -204 l 
91 -243 l  120 -243 l  120 -26 l  179 -26 l  179 0 l  27 0 l  p ef
203 0 m  203 -22 l  209 -35 216 -47 224 -58 ct 233 -68 242 -77 251 -85 ct 260 -94 269 -101 279 -109 ct 
288 -116 296 -123 303 -130 ct 311 -137 317 -145 321 -152 ct 326 -160 328 -169 328 -179 ct 
328 -192 324 -203 316 -210 ct 308 -217 298 -221 284 -221 ct 270 -221 259 -217 251 -210 ct 
242 -203 237 -193 236 -180 ct 204 -183 l  206 -202 215 -218 229 -229 ct 243 -241 261 -247 284 -247 ct 
308 -247 327 -241 340 -229 ct 353 -218 360 -201 360 -180 ct 360 -171 358 -161 353 -152 ct 
349 -143 343 -133 334 -124 ct 326 -115 309 -100 285 -81 ct 272 -70 262 -60 254 -51 ct 
246 -43 240 -34 237 -26 ct 364 -26 l  364 0 l  203 0 l  p ef
pom
gr
gs
tm setmatrix
-12.99927 -12.99835 t 
0.99994 0.99987 s 
pum
7476 7649 t
0.003 0.003 0.003 c 27 0 m  27 -26 l  89 -26 l  89 -213 l  34 -174 l  34 -204 l 
91 -243 l  120 -243 l  120 -26 l  179 -26 l  179 0 l  27 0 l  p ef
366 -68 m  366 -45 359 -28 344 -16 ct 330 -3 310 3 283 3 ct 259 3 239 -3 225 -14 ct 
210 -25 201 -41 198 -63 ct 231 -66 l  235 -37 252 -23 283 -23 ct 299 -23 311 -27 320 -34 ct 
329 -42 334 -54 334 -69 ct 334 -82 328 -92 318 -100 ct 308 -107 293 -111 274 -111 ct 
257 -111 l  257 -138 l  274 -138 l  291 -138 304 -142 313 -149 ct 323 -156 327 -167 327 -180 ct 
327 -193 323 -203 316 -210 ct 308 -218 297 -221 282 -221 ct 268 -221 257 -218 249 -211 ct 
240 -204 235 -194 234 -182 ct 203 -184 l  205 -204 213 -219 227 -230 ct 242 -241 260 -247 282 -247 ct 
306 -247 325 -241 339 -230 ct 352 -219 359 -203 359 -183 ct 359 -167 355 -155 346 -145 ct 
337 -135 325 -129 308 -125 ct 308 -125 l  326 -123 341 -117 351 -106 ct 361 -96 366 -83 366 -68 ct 
p ef
pom
gr
gs
tm setmatrix
-12.99927 -12.99835 t 
0.99994 0.99987 s 
pum
7949 7649 t
0.003 0.003 0.003 c 27 0 m  27 -26 l  89 -26 l  89 -213 l  34 -174 l  34 -204 l 
91 -243 l  120 -243 l  120 -26 l  179 -26 l  179 0 l  27 0 l  p ef
337 -55 m  337 0 l  308 0 l  308 -55 l  193 -55 l  193 -79 l  304 -243 l 
337 -243 l  337 -79 l  371 -79 l  371 -55 l  337 -55 l  p
308 -208 m  307 -207 306 -204 303 -199 ct 300 -193 298 -190 296 -187 ct 234 -96 l 
224 -83 l  222 -79 l  308 -79 l  308 -208 l  p ef
pom
gr
gs
tm setmatrix
-12.99927 -12.99835 t 
0.99994 0.99987 s 
pum
8422 7649 t
0.003 0.003 0.003 c 27 0 m  27 -26 l  89 -26 l  89 -213 l  34 -174 l  34 -204 l 
91 -243 l  120 -243 l  120 -26 l  179 -26 l  179 0 l  27 0 l  p ef
367 -80 m  367 -54 359 -34 344 -19 ct 328 -4 307 3 280 3 ct 258 3 239 -2 226 -12 ct 
212 -22 203 -36 199 -55 ct 231 -58 l  237 -34 254 -22 281 -22 ct 298 -22 311 -27 320 -37 ct 
330 -47 334 -61 334 -79 ct 334 -94 330 -106 320 -116 ct 311 -125 298 -130 282 -130 ct 
273 -130 265 -129 258 -126 ct 251 -123 244 -119 237 -113 ct 206 -113 l  214 -243 l 
352 -243 l  352 -217 l  243 -217 l  238 -140 l  251 -150 268 -155 288 -155 ct 
312 -155 331 -148 345 -134 ct 359 -120 367 -102 367 -80 ct p ef
pom
gr
gs
tm setmatrix
-12.99927 -12.99835 t 
0.99994 0.99987 s 
pum
8894 7649 t
0.003 0.003 0.003 c 27 0 m  27 -26 l  89 -26 l  89 -213 l  34 -174 l  34 -204 l 
91 -243 l  120 -243 l  120 -26 l  179 -26 l  179 0 l  27 0 l  p ef
366 -80 m  366 -54 359 -34 345 -19 ct 331 -4 312 3 287 3 ct 260 3 239 -7 225 -28 ct 
210 -48 203 -77 203 -116 ct 203 -158 210 -191 226 -213 ct 241 -236 262 -247 290 -247 ct 
326 -247 350 -231 359 -198 ct 329 -192 l  323 -212 310 -222 289 -222 ct 272 -222 258 -214 248 -197 ct 
239 -181 234 -157 234 -126 ct 239 -136 247 -144 258 -150 ct 268 -155 280 -158 293 -158 ct 
315 -158 333 -151 346 -137 ct 359 -123 366 -104 366 -80 ct p
334 -79 m  334 -96 330 -110 321 -120 ct 313 -129 301 -134 285 -134 ct 271 -134 259 -130 250 -121 ct 
241 -113 237 -101 237 -86 ct 237 -67 242 -52 251 -40 ct 260 -28 272 -22 286 -22 ct 
301 -22 313 -27 322 -37 ct 330 -47 334 -61 334 -79 ct p ef
pom
gr
gs
tm setmatrix
-12.99927 -12.99835 t 
0.99994 0.99987 s 
pum
9367 7649 t
0.003 0.003 0.003 c 27 0 m  27 -26 l  89 -26 l  89 -213 l  34 -174 l  34 -204 l 
91 -243 l  120 -243 l  120 -26 l  179 -26 l  179 0 l  27 0 l  p ef
364 -218 m  339 -180 321 -151 311 -129 ct 301 -108 293 -86 288 -65 ct 283 -45 280 -23 280 -1 ct 
248 -1 l  248 -32 254 -64 268 -98 ct 281 -133 303 -172 334 -217 ct 203 -217 l 
203 -243 l  364 -243 l  364 -218 l  p ef
pom
gr
gs
tm setmatrix
-12.99927 -12.99835 t 
0.99994 0.99987 s 
pum
9840 7649 t
0.003 0.003 0.003 c 27 0 m  27 -26 l  89 -26 l  89 -213 l  34 -174 l  34 -204 l 
91 -243 l  120 -243 l  120 -26 l  179 -26 l  179 0 l  27 0 l  p ef
366 -68 m  366 -46 359 -28 345 -16 ct 330 -3 310 3 283 3 ct 257 3 237 -3 222 -15 ct 
208 -28 200 -45 200 -68 ct 200 -84 205 -97 214 -108 ct 223 -119 235 -125 249 -128 ct 
249 -128 l  236 -131 225 -138 217 -148 ct 210 -159 206 -171 206 -185 ct 206 -203 213 -218 227 -230 ct 
241 -241 259 -247 283 -247 ct 306 -247 325 -241 339 -230 ct 353 -219 360 -204 360 -184 ct 
360 -171 356 -158 348 -148 ct 341 -138 330 -131 317 -129 ct 317 -128 l  332 -125 344 -119 353 -108 ct 
362 -98 366 -84 366 -68 ct p
328 -183 m  328 -210 313 -224 283 -224 ct 268 -224 257 -220 249 -214 ct 242 -207 238 -196 238 -183 ct 
238 -169 242 -158 250 -151 ct 257 -144 269 -140 283 -140 ct 298 -140 309 -143 316 -150 ct 
324 -157 328 -168 328 -183 ct p
334 -71 m  334 -86 329 -98 320 -105 ct 311 -113 299 -117 283 -117 ct 267 -117 255 -113 246 -104 ct 
237 -96 232 -85 232 -70 ct 232 -37 249 -20 284 -20 ct 300 -20 313 -24 321 -32 ct 
330 -41 334 -53 334 -71 ct p ef
pom
gr
gs
tm setmatrix
-12.99927 -12.99835 t 
0.99994 0.99987 s 
pum
10312 7649 t
0.003 0.003 0.003 c 27 0 m  27 -26 l  89 -26 l  89 -213 l  34 -174 l  34 -204 l 
91 -243 l  120 -243 l  120 -26 l  179 -26 l  179 0 l  27 0 l  p ef
365 -127 m  365 -85 357 -53 342 -31 ct 327 -8 305 3 277 3 ct 258 3 243 -1 231 -9 ct 
220 -17 211 -30 207 -48 ct 236 -52 l  242 -32 256 -22 277 -22 ct 295 -22 309 -30 319 -47 ct 
328 -63 333 -87 334 -118 ct 329 -107 321 -99 310 -93 ct 299 -87 287 -84 274 -84 ct 
252 -84 234 -91 221 -106 ct 208 -121 202 -141 202 -165 ct 202 -191 209 -211 223 -225 ct 
237 -240 257 -247 282 -247 ct 309 -247 330 -237 344 -217 ct 358 -197 365 -167 365 -127 ct 
p
331 -157 m  331 -176 326 -192 317 -204 ct 308 -216 296 -222 281 -222 ct 266 -222 255 -217 246 -207 ct 
237 -196 233 -183 233 -165 ct 233 -148 237 -134 246 -123 ct 255 -113 266 -108 281 -108 ct 
290 -108 298 -110 306 -114 ct 314 -118 320 -124 324 -131 ct 329 -139 331 -147 331 -157 ct 
p ef
pom
gr
gs
tm setmatrix
-12.99927 -12.99835 t 
0.99994 0.99987 s 
pum
10785 7649 t
0.003 0.003 0.003 c 18 0 m  18 -22 l  24 -35 31 -47 39 -58 ct 48 -68 57 -77 66 -85 ct 
75 -94 84 -101 94 -109 ct 103 -116 111 -123 118 -130 ct 126 -137 132 -145 136 -152 ct 
141 -160 143 -169 143 -179 ct 143 -192 139 -203 131 -210 ct 123 -217 113 -221 99 -221 ct 
85 -221 74 -217 66 -210 ct 57 -203 52 -193 51 -180 ct 19 -183 l  21 -202 30 -218 44 -229 ct 
58 -241 76 -247 99 -247 ct 123 -247 142 -241 155 -229 ct 168 -218 175 -201 175 -180 ct 
175 -171 173 -161 168 -152 ct 164 -143 158 -133 149 -124 ct 141 -115 124 -100 100 -81 ct 
87 -70 77 -60 69 -51 ct 61 -43 55 -34 52 -26 ct 179 -26 l  179 0 l  18 0 l  p ef
368 -122 m  368 -81 360 -50 346 -29 ct 332 -8 311 3 283 3 ct 255 3 234 -8 220 -29 ct 
206 -50 199 -81 199 -122 ct 199 -164 206 -195 219 -216 ct 233 -237 254 -247 284 -247 ct 
312 -247 334 -236 347 -215 ct 361 -194 368 -163 368 -122 ct p
336 -122 m  336 -157 332 -182 324 -198 ct 316 -214 302 -222 284 -222 ct 265 -222 251 -214 243 -199 ct 
234 -183 230 -158 230 -122 ct 230 -88 234 -62 243 -46 ct 251 -30 265 -22 283 -22 ct 
301 -22 315 -31 323 -47 ct 332 -63 336 -88 336 -122 ct p ef
pom
gr
gs
tm setmatrix
-12.99927 -12.99835 t 
0.99994 0.99987 s 
pum
11258 7649 t
0.003 0.003 0.003 c 18 0 m  18 -22 l  24 -35 31 -47 39 -58 ct 48 -68 57 -77 66 -85 ct 
75 -94 84 -101 94 -109 ct 103 -116 111 -123 118 -130 ct 126 -137 132 -145 136 -152 ct 
141 -160 143 -169 143 -179 ct 143 -192 139 -203 131 -210 ct 123 -217 113 -221 99 -221 ct 
85 -221 74 -217 66 -210 ct 57 -203 52 -193 51 -180 ct 19 -183 l  21 -202 30 -218 44 -229 ct 
58 -241 76 -247 99 -247 ct 123 -247 142 -241 155 -229 ct 168 -218 175 -201 175 -180 ct 
175 -171 173 -161 168 -152 ct 164 -143 158 -133 149 -124 ct 141 -115 124 -100 100 -81 ct 
87 -70 77 -60 69 -51 ct 61 -43 55 -34 52 -26 ct 179 -26 l  179 0 l  18 0 l  p ef
212 0 m  212 -26 l  274 -26 l  274 -213 l  219 -174 l  219 -204 l  276 -243 l 
305 -243 l  305 -26 l  364 -26 l  364 0 l  212 0 l  p ef
pom
gr
gs
tm setmatrix
-12.99927 -12.99835 t 
0.99994 0.99987 s 
pum
1555 7201 t
0.003 0.003 0.003 c 183 -122 m  183 -81 175 -50 161 -29 ct 147 -8 126 3 98 3 ct 
70 3 49 -8 35 -29 ct 21 -50 14 -81 14 -122 ct 14 -164 21 -195 34 -216 ct 48 -237 69 -247 99 -247 ct 
127 -247 149 -236 162 -215 ct 176 -194 183 -163 183 -122 ct p
151 -122 m  151 -157 147 -182 139 -198 ct 131 -214 117 -222 99 -222 ct 80 -222 66 -214 58 -199 ct 
49 -183 45 -158 45 -122 ct 45 -88 49 -62 58 -46 ct 66 -30 80 -22 98 -22 ct 116 -22 130 -31 138 -47 ct 
147 -63 151 -88 151 -122 ct p ef
pom
gr
gs
tm setmatrix
-12.99927 -12.99835 t 
0.99994 0.99987 s 
pum
1555 6635 t
0.003 0.003 0.003 c 182 -80 m  182 -54 174 -34 159 -19 ct 143 -4 122 3 95 3 ct 73 3 54 -2 41 -12 ct 
27 -22 18 -36 14 -55 ct 46 -58 l  52 -34 69 -22 96 -22 ct 113 -22 126 -27 135 -37 ct 
145 -47 149 -61 149 -79 ct 149 -94 145 -106 135 -116 ct 126 -125 113 -130 97 -130 ct 
88 -130 80 -129 73 -126 ct 66 -123 59 -119 52 -113 ct 21 -113 l  29 -243 l  167 -243 l 
167 -217 l  58 -217 l  53 -140 l  66 -150 83 -155 103 -155 ct 127 -155 146 -148 160 -134 ct 
174 -120 182 -102 182 -80 ct p ef
pom
gr
gs
tm setmatrix
-12.99927 -12.99835 t 
0.99994 0.99987 s 
pum
1370 6070 t
0.003 0.003 0.003 c 27 0 m  27 -26 l  89 -26 l  89 -213 l  34 -174 l  34 -204 l 
91 -243 l  120 -243 l  120 -26 l  179 -26 l  179 0 l  27 0 l  p ef
368 -122 m  368 -81 360 -50 346 -29 ct 332 -8 311 3 283 3 ct 255 3 234 -8 220 -29 ct 
206 -50 199 -81 199 -122 ct 199 -164 206 -195 219 -216 ct 233 -237 254 -247 284 -247 ct 
312 -247 334 -236 347 -215 ct 361 -194 368 -163 368 -122 ct p
336 -122 m  336 -157 332 -182 324 -198 ct 316 -214 302 -222 284 -222 ct 265 -222 251 -214 243 -199 ct 
234 -183 230 -158 230 -122 ct 230 -88 234 -62 243 -46 ct 251 -30 265 -22 283 -22 ct 
301 -22 315 -31 323 -47 ct 332 -63 336 -88 336 -122 ct p ef
pom
gr
gs
tm setmatrix
-12.99927 -12.99835 t 
0.99994 0.99987 s 
pum
1370 5504 t
0.003 0.003 0.003 c 27 0 m  27 -26 l  89 -26 l  89 -213 l  34 -174 l  34 -204 l 
91 -243 l  120 -243 l  120 -26 l  179 -26 l  179 0 l  27 0 l  p ef
367 -80 m  367 -54 359 -34 344 -19 ct 328 -4 307 3 280 3 ct 258 3 239 -2 226 -12 ct 
212 -22 203 -36 199 -55 ct 231 -58 l  237 -34 254 -22 281 -22 ct 298 -22 311 -27 320 -37 ct 
330 -47 334 -61 334 -79 ct 334 -94 330 -106 320 -116 ct 311 -125 298 -130 282 -130 ct 
273 -130 265 -129 258 -126 ct 251 -123 244 -119 237 -113 ct 206 -113 l  214 -243 l 
352 -243 l  352 -217 l  243 -217 l  238 -140 l  251 -150 268 -155 288 -155 ct 
312 -155 331 -148 345 -134 ct 359 -120 367 -102 367 -80 ct p ef
pom
gr
gs
tm setmatrix
-12.99927 -12.99835 t 
0.99994 0.99987 s 
pum
1370 4939 t
0.003 0.003 0.003 c 18 0 m  18 -22 l  24 -35 31 -47 39 -58 ct 48 -68 57 -77 66 -85 ct 
75 -94 84 -101 94 -109 ct 103 -116 111 -123 118 -130 ct 126 -137 132 -145 136 -152 ct 
141 -160 143 -169 143 -179 ct 143 -192 139 -203 131 -210 ct 123 -217 113 -221 99 -221 ct 
85 -221 74 -217 66 -210 ct 57 -203 52 -193 51 -180 ct 19 -183 l  21 -202 30 -218 44 -229 ct 
58 -241 76 -247 99 -247 ct 123 -247 142 -241 155 -229 ct 168 -218 175 -201 175 -180 ct 
175 -171 173 -161 168 -152 ct 164 -143 158 -133 149 -124 ct 141 -115 124 -100 100 -81 ct 
87 -70 77 -60 69 -51 ct 61 -43 55 -34 52 -26 ct 179 -26 l  179 0 l  18 0 l  p ef
368 -122 m  368 -81 360 -50 346 -29 ct 332 -8 311 3 283 3 ct 255 3 234 -8 220 -29 ct 
206 -50 199 -81 199 -122 ct 199 -164 206 -195 219 -216 ct 233 -237 254 -247 284 -247 ct 
312 -247 334 -236 347 -215 ct 361 -194 368 -163 368 -122 ct p
336 -122 m  336 -157 332 -182 324 -198 ct 316 -214 302 -222 284 -222 ct 265 -222 251 -214 243 -199 ct 
234 -183 230 -158 230 -122 ct 230 -88 234 -62 243 -46 ct 251 -30 265 -22 283 -22 ct 
301 -22 315 -31 323 -47 ct 332 -63 336 -88 336 -122 ct p ef
pom
gr
gs
tm setmatrix
-12.99927 -12.99835 t 
0.99994 0.99987 s 
pum
1370 4374 t
0.003 0.003 0.003 c 18 0 m  18 -22 l  24 -35 31 -47 39 -58 ct 48 -68 57 -77 66 -85 ct 
75 -94 84 -101 94 -109 ct 103 -116 111 -123 118 -130 ct 126 -137 132 -145 136 -152 ct 
141 -160 143 -169 143 -179 ct 143 -192 139 -203 131 -210 ct 123 -217 113 -221 99 -221 ct 
85 -221 74 -217 66 -210 ct 57 -203 52 -193 51 -180 ct 19 -183 l  21 -202 30 -218 44 -229 ct 
58 -241 76 -247 99 -247 ct 123 -247 142 -241 155 -229 ct 168 -218 175 -201 175 -180 ct 
175 -171 173 -161 168 -152 ct 164 -143 158 -133 149 -124 ct 141 -115 124 -100 100 -81 ct 
87 -70 77 -60 69 -51 ct 61 -43 55 -34 52 -26 ct 179 -26 l  179 0 l  18 0 l  p ef
367 -80 m  367 -54 359 -34 344 -19 ct 328 -4 307 3 280 3 ct 258 3 239 -2 226 -12 ct 
212 -22 203 -36 199 -55 ct 231 -58 l  237 -34 254 -22 281 -22 ct 298 -22 311 -27 320 -37 ct 
330 -47 334 -61 334 -79 ct 334 -94 330 -106 320 -116 ct 311 -125 298 -130 282 -130 ct 
273 -130 265 -129 258 -126 ct 251 -123 244 -119 237 -113 ct 206 -113 l  214 -243 l 
352 -243 l  352 -217 l  243 -217 l  238 -140 l  251 -150 268 -155 288 -155 ct 
312 -155 331 -148 345 -134 ct 359 -120 367 -102 367 -80 ct p ef
pom
gr
gs
tm setmatrix
-12.99927 -12.99835 t 
0.99994 0.99987 s 
pum
1370 3808 t
0.003 0.003 0.003 c 181 -68 m  181 -45 174 -28 159 -16 ct 145 -3 125 3 98 3 ct 74 3 54 -3 40 -14 ct 
25 -25 16 -41 13 -63 ct 46 -66 l  50 -37 67 -23 98 -23 ct 114 -23 126 -27 135 -34 ct 
144 -42 149 -54 149 -69 ct 149 -82 143 -92 133 -100 ct 123 -107 108 -111 89 -111 ct 
72 -111 l  72 -138 l  89 -138 l  106 -138 119 -142 128 -149 ct 138 -156 142 -167 142 -180 ct 
142 -193 138 -203 131 -210 ct 123 -218 112 -221 97 -221 ct 83 -221 72 -218 64 -211 ct 
55 -204 50 -194 49 -182 ct 18 -184 l  20 -204 28 -219 42 -230 ct 57 -241 75 -247 97 -247 ct 
121 -247 140 -241 154 -230 ct 167 -219 174 -203 174 -183 ct 174 -167 170 -155 161 -145 ct 
152 -135 140 -129 123 -125 ct 123 -125 l  141 -123 156 -117 166 -106 ct 176 -96 181 -83 181 -68 ct 
p ef
368 -122 m  368 -81 360 -50 346 -29 ct 332 -8 311 3 283 3 ct 255 3 234 -8 220 -29 ct 
206 -50 199 -81 199 -122 ct 199 -164 206 -195 219 -216 ct 233 -237 254 -247 284 -247 ct 
312 -247 334 -236 347 -215 ct 361 -194 368 -163 368 -122 ct p
336 -122 m  336 -157 332 -182 324 -198 ct 316 -214 302 -222 284 -222 ct 265 -222 251 -214 243 -199 ct 
234 -183 230 -158 230 -122 ct 230 -88 234 -62 243 -46 ct 251 -30 265 -22 283 -22 ct 
301 -22 315 -31 323 -47 ct 332 -63 336 -88 336 -122 ct p ef
pom
gr
gs
tm setmatrix
-12.99927 -12.99835 t 
0.99994 0.99987 s 
pum
1370 3243 t
0.003 0.003 0.003 c 181 -68 m  181 -45 174 -28 159 -16 ct 145 -3 125 3 98 3 ct 74 3 54 -3 40 -14 ct 
25 -25 16 -41 13 -63 ct 46 -66 l  50 -37 67 -23 98 -23 ct 114 -23 126 -27 135 -34 ct 
144 -42 149 -54 149 -69 ct 149 -82 143 -92 133 -100 ct 123 -107 108 -111 89 -111 ct 
72 -111 l  72 -138 l  89 -138 l  106 -138 119 -142 128 -149 ct 138 -156 142 -167 142 -180 ct 
142 -193 138 -203 131 -210 ct 123 -218 112 -221 97 -221 ct 83 -221 72 -218 64 -211 ct 
55 -204 50 -194 49 -182 ct 18 -184 l  20 -204 28 -219 42 -230 ct 57 -241 75 -247 97 -247 ct 
121 -247 140 -241 154 -230 ct 167 -219 174 -203 174 -183 ct 174 -167 170 -155 161 -145 ct 
152 -135 140 -129 123 -125 ct 123 -125 l  141 -123 156 -117 166 -106 ct 176 -96 181 -83 181 -68 ct 
p ef
367 -80 m  367 -54 359 -34 344 -19 ct 328 -4 307 3 280 3 ct 258 3 239 -2 226 -12 ct 
212 -22 203 -36 199 -55 ct 231 -58 l  237 -34 254 -22 281 -22 ct 298 -22 311 -27 320 -37 ct 
330 -47 334 -61 334 -79 ct 334 -94 330 -106 320 -116 ct 311 -125 298 -130 282 -130 ct 
273 -130 265 -129 258 -126 ct 251 -123 244 -119 237 -113 ct 206 -113 l  214 -243 l 
352 -243 l  352 -217 l  243 -217 l  238 -140 l  251 -150 268 -155 288 -155 ct 
312 -155 331 -148 345 -134 ct 359 -120 367 -102 367 -80 ct p ef
pom
gr
gs
tm setmatrix
-12.99927 -12.99835 t 
0.99994 0.99987 s 
pum
1370 2677 t
0.003 0.003 0.003 c 152 -55 m  152 0 l  123 0 l  123 -55 l  8 -55 l  8 -79 l 
119 -243 l  152 -243 l  152 -79 l  186 -79 l  186 -55 l  152 -55 l  p
123 -208 m  122 -207 121 -204 118 -199 ct 115 -193 113 -190 111 -187 ct 49 -96 l 
39 -83 l  37 -79 l  123 -79 l  123 -208 l  p ef
368 -122 m  368 -81 360 -50 346 -29 ct 332 -8 311 3 283 3 ct 255 3 234 -8 220 -29 ct 
206 -50 199 -81 199 -122 ct 199 -164 206 -195 219 -216 ct 233 -237 254 -247 284 -247 ct 
312 -247 334 -236 347 -215 ct 361 -194 368 -163 368 -122 ct p
336 -122 m  336 -157 332 -182 324 -198 ct 316 -214 302 -222 284 -222 ct 265 -222 251 -214 243 -199 ct 
234 -183 230 -158 230 -122 ct 230 -88 234 -62 243 -46 ct 251 -30 265 -22 283 -22 ct 
301 -22 315 -31 323 -47 ct 332 -63 336 -88 336 -122 ct p ef
pom
gr
gs
tm setmatrix
-12.99927 -12.99835 t 
0.99994 0.99987 s 
pum
1370 2112 t
0.003 0.003 0.003 c 152 -55 m  152 0 l  123 0 l  123 -55 l  8 -55 l  8 -79 l 
119 -243 l  152 -243 l  152 -79 l  186 -79 l  186 -55 l  152 -55 l  p
123 -208 m  122 -207 121 -204 118 -199 ct 115 -193 113 -190 111 -187 ct 49 -96 l 
39 -83 l  37 -79 l  123 -79 l  123 -208 l  p ef
367 -80 m  367 -54 359 -34 344 -19 ct 328 -4 307 3 280 3 ct 258 3 239 -2 226 -12 ct 
212 -22 203 -36 199 -55 ct 231 -58 l  237 -34 254 -22 281 -22 ct 298 -22 311 -27 320 -37 ct 
330 -47 334 -61 334 -79 ct 334 -94 330 -106 320 -116 ct 311 -125 298 -130 282 -130 ct 
273 -130 265 -129 258 -126 ct 251 -123 244 -119 237 -113 ct 206 -113 l  214 -243 l 
352 -243 l  352 -217 l  243 -217 l  238 -140 l  251 -150 268 -155 288 -155 ct 
312 -155 331 -148 345 -134 ct 359 -120 367 -102 367 -80 ct p ef
pom
gr
gs
tm setmatrix
-12.99927 -12.99835 t 
0.99994 0.99987 s 
pum
1370 1547 t
0.003 0.003 0.003 c 182 -80 m  182 -54 174 -34 159 -19 ct 143 -4 122 3 95 3 ct 73 3 54 -2 41 -12 ct 
27 -22 18 -36 14 -55 ct 46 -58 l  52 -34 69 -22 96 -22 ct 113 -22 126 -27 135 -37 ct 
145 -47 149 -61 149 -79 ct 149 -94 145 -106 135 -116 ct 126 -125 113 -130 97 -130 ct 
88 -130 80 -129 73 -126 ct 66 -123 59 -119 52 -113 ct 21 -113 l  29 -243 l  167 -243 l 
167 -217 l  58 -217 l  53 -140 l  66 -150 83 -155 103 -155 ct 127 -155 146 -148 160 -134 ct 
174 -120 182 -102 182 -80 ct p ef
368 -122 m  368 -81 360 -50 346 -29 ct 332 -8 311 3 283 3 ct 255 3 234 -8 220 -29 ct 
206 -50 199 -81 199 -122 ct 199 -164 206 -195 219 -216 ct 233 -237 254 -247 284 -247 ct 
312 -247 334 -236 347 -215 ct 361 -194 368 -163 368 -122 ct p
336 -122 m  336 -157 332 -182 324 -198 ct 316 -214 302 -222 284 -222 ct 265 -222 251 -214 243 -199 ct 
234 -183 230 -158 230 -122 ct 230 -88 234 -62 243 -46 ct 251 -30 265 -22 283 -22 ct 
301 -22 315 -31 323 -47 ct 332 -63 336 -88 336 -122 ct p ef
pom
gr
gs
tm setmatrix
-12.99927 -12.99835 t 
0.99994 0.99987 s 
pum
6431 828 t
0.003 0.003 0.003 c 80 -281 m  80 -163 l  257 -163 l  257 -128 l  80 -128 l 
80 0 l  38 0 l  38 -316 l  262 -316 l  262 -281 l  80 -281 l  p ef
501 -122 m  501 -80 492 -48 473 -27 ct 454 -6 427 4 392 4 ct 356 4 329 -7 311 -28 ct 
293 -50 284 -81 284 -122 ct 284 -206 321 -248 393 -248 ct 430 -248 457 -238 475 -217 ct 
492 -197 501 -165 501 -122 ct p
459 -122 m  459 -156 454 -180 444 -195 ct 434 -210 417 -218 394 -218 ct 370 -218 353 -210 342 -195 ct 
332 -179 327 -155 327 -122 ct 327 -90 332 -66 342 -50 ct 353 -34 369 -26 391 -26 ct 
415 -26 433 -34 443 -49 ct 453 -65 459 -89 459 -122 ct p ef
535 0 m  535 -186 l  535 -203 534 -222 533 -243 ct 572 -243 l  573 -215 573 -199 573 -193 ct 
574 -193 l  581 -214 588 -228 596 -236 ct 605 -243 617 -247 632 -247 ct 637 -247 643 -246 648 -245 ct 
648 -208 l  643 -209 636 -210 627 -210 ct 610 -210 597 -203 588 -188 ct 580 -174 575 -153 575 -126 ct 
575 0 l  535 0 l  p ef
845 -38 m  838 -23 828 -12 815 -5 ct 803 2 788 5 769 5 ct 739 5 716 -5 702 -26 ct 
687 -46 680 -78 680 -119 ct 680 -204 710 -246 769 -246 ct 788 -246 803 -243 815 -236 ct 
828 -229 838 -219 845 -204 ct 845 -204 l  845 -231 l  845 -332 l  885 -332 l 
885 -49 l  885 -24 886 -7 887 1 ct 848 1 l  848 -2 847 -7 847 -16 ct 846 -25 846 -32 846 -38 ct 
845 -38 l  p
723 -121 m  723 -87 727 -63 736 -48 ct 745 -33 760 -26 780 -26 ct 803 -26 819 -34 830 -50 ct 
840 -66 845 -90 845 -123 ct 845 -155 840 -179 830 -194 ct 819 -209 803 -216 780 -216 ct 
760 -216 745 -209 736 -194 ct 727 -179 723 -154 723 -121 ct p ef
962 -113 m  962 -85 968 -64 979 -49 ct 991 -34 1007 -26 1030 -26 ct 1047 -26 1061 -30 1072 -37 ct 
1082 -44 1089 -53 1093 -63 ct 1128 -53 l  1114 -15 1081 4 1030 4 ct 994 4 966 -7 948 -28 ct 
929 -49 920 -81 920 -123 ct 920 -164 929 -194 948 -216 ct 966 -237 993 -248 1028 -248 ct 
1099 -248 1135 -205 1135 -118 ct 1135 -113 l  962 -113 l  p
1093 -144 m  1091 -170 1084 -188 1074 -200 ct 1063 -212 1047 -218 1027 -218 ct 
1008 -218 992 -211 981 -198 ct 969 -185 963 -167 962 -144 ct 1093 -144 l  p ef
1195 1 m  1195 -332 l  1235 -332 l  1235 1 l  1195 1 l  p ef
1301 -293 m  1301 -332 l  1341 -332 l  1341 -293 l  1301 -293 l  p
1301 1 m  1301 -242 l  1341 -242 l  1341 1 l  1301 1 l  p ef
1534 0 m  1534 -154 l  1534 -170 1532 -182 1529 -191 ct 1526 -200 1521 -206 1514 -210 ct 
1507 -214 1497 -216 1484 -216 ct 1465 -216 1449 -209 1438 -196 ct 1427 -183 1421 -164 1421 -141 ct 
1421 0 l  1381 0 l  1381 -191 l  1381 -219 1380 -236 1379 -243 ct 1418 -243 l 
1418 -242 1418 -240 1418 -236 ct 1418 -233 1418 -229 1419 -225 ct 1419 -221 1419 -213 1419 -201 ct 
1420 -201 l  1429 -218 1440 -230 1452 -237 ct 1464 -244 1480 -247 1498 -247 ct 
1524 -247 1544 -240 1556 -227 ct 1568 -214 1574 -192 1574 -162 ct 1574 0 l  1534 0 l 
p ef
1737 95 m  1710 95 1689 90 1674 79 ct 1658 69 1648 54 1643 35 ct 1684 29 l  1687 41 1693 49 1702 55 ct 
1711 61 1723 64 1738 64 ct 1778 64 1798 41 1798 -6 ct 1798 -45 l  1798 -45 l 
1790 -30 1780 -18 1766 -10 ct 1753 -2 1738 2 1720 2 ct 1690 2 1668 -8 1654 -28 ct 
1640 -48 1633 -79 1633 -121 ct 1633 -164 1641 -196 1656 -216 ct 1671 -237 1694 -247 1724 -247 ct 
1741 -247 1756 -243 1769 -235 ct 1782 -227 1791 -216 1798 -202 ct 1799 -202 l 
1799 -206 1799 -214 1800 -225 ct 1800 -236 1801 -242 1801 -243 ct 1840 -243 l 
1839 -235 1838 -218 1838 -193 ct 1838 -7 l  1838 61 1805 95 1737 95 ct p
1798 -122 m  1798 -141 1796 -158 1790 -173 ct 1785 -187 1777 -198 1767 -206 ct 
1758 -213 1747 -217 1734 -217 ct 1714 -217 1699 -209 1689 -194 ct 1680 -179 1675 -155 1675 -122 ct 
1675 -88 1679 -64 1688 -50 ct 1697 -35 1712 -28 1733 -28 ct 1746 -28 1757 -32 1767 -39 ct 
1777 -47 1785 -58 1790 -72 ct 1796 -86 1798 -102 1798 -122 ct p ef
2077 4 m  2052 4 2034 -2 2022 -15 ct 2010 -28 2004 -46 2004 -68 ct 2004 -93 2012 -113 2028 -126 ct 
2045 -140 2071 -147 2108 -148 ct 2163 -149 l  2163 -162 l  2163 -182 2158 -196 2150 -204 ct 
2142 -213 2129 -217 2111 -217 ct 2093 -217 2079 -214 2071 -208 ct 2063 -202 2058 -192 2056 -178 ct 
2014 -182 l  2021 -226 2054 -248 2112 -248 ct 2142 -248 2165 -241 2180 -227 ct 
2196 -213 2203 -192 2203 -166 ct 2203 -61 l  2203 -49 2205 -40 2208 -34 ct 2211 -28 2217 -25 2226 -25 ct 
2230 -25 2234 -26 2239 -27 ct 2239 -2 l  2229 1 2219 2 2208 2 ct 2193 2 2182 -2 2176 -10 ct 
2169 -18 2165 -30 2164 -47 ct 2163 -47 l  2152 -28 2140 -15 2127 -8 ct 2113 0 2096 4 2077 4 ct 
p
2086 -26 m  2101 -26 2114 -30 2125 -36 ct 2137 -43 2146 -52 2153 -64 ct 2159 -76 2163 -88 2163 -100 ct 
2163 -120 l  2118 -119 l  2100 -119 2085 -117 2075 -114 ct 2066 -110 2058 -104 2053 -97 ct 
2048 -89 2045 -80 2045 -68 ct 2045 -54 2049 -44 2056 -37 ct 2063 -30 2073 -26 2086 -26 ct 
p ef
2386 0 m  2339 0 l  2251 -243 l  2294 -243 l  2347 -85 l  2349 -79 2354 -61 2362 -32 ct 
2370 -58 l  2379 -84 l  2434 -243 l  2477 -243 l  2386 0 l  p ef
2686 4 m  2661 4 2643 -2 2631 -15 ct 2619 -28 2613 -46 2613 -68 ct 2613 -93 2621 -113 2637 -126 ct 
2654 -140 2680 -147 2717 -148 ct 2772 -149 l  2772 -162 l  2772 -182 2767 -196 2759 -204 ct 
2751 -213 2738 -217 2720 -217 ct 2702 -217 2688 -214 2680 -208 ct 2672 -202 2667 -192 2665 -178 ct 
2623 -182 l  2630 -226 2663 -248 2721 -248 ct 2751 -248 2774 -241 2789 -227 ct 
2805 -213 2812 -192 2812 -166 ct 2812 -61 l  2812 -49 2814 -40 2817 -34 ct 2820 -28 2826 -25 2835 -25 ct 
2839 -25 2843 -26 2848 -27 ct 2848 -2 l  2838 1 2828 2 2817 2 ct 2802 2 2791 -2 2785 -10 ct 
2778 -18 2774 -30 2773 -47 ct 2772 -47 l  2761 -28 2749 -15 2736 -8 ct 2722 0 2705 4 2686 4 ct 
p
2695 -26 m  2710 -26 2723 -30 2734 -36 ct 2746 -43 2755 -52 2762 -64 ct 2768 -76 2772 -88 2772 -100 ct 
2772 -120 l  2727 -119 l  2709 -119 2694 -117 2684 -114 ct 2675 -110 2667 -104 2662 -97 ct 
2657 -89 2654 -80 2654 -68 ct 2654 -54 2658 -44 2665 -37 ct 2672 -30 2682 -26 2695 -26 ct 
p ef
2863 0 m  2863 -186 l  2863 -203 2862 -222 2861 -243 ct 2900 -243 l  2901 -215 2901 -199 2901 -193 ct 
2902 -193 l  2909 -214 2916 -228 2924 -236 ct 2933 -243 2945 -247 2960 -247 ct 
2965 -247 2971 -246 2976 -245 ct 2976 -208 l  2971 -209 2964 -210 2955 -210 ct 
2938 -210 2925 -203 2916 -188 ct 2908 -174 2903 -153 2903 -126 ct 2903 0 l  2863 0 l 
p ef
3226 -122 m  3226 -37 3196 5 3137 5 ct 3118 5 3103 2 3091 -5 ct 3079 -12 3069 -22 3061 -37 ct 
3061 -37 l  3061 -32 3061 -25 3060 -16 ct 3059 -6 3059 -1 3059 1 ct 3020 1 l 
3020 -8 3021 -24 3021 -49 ct 3021 -332 l  3061 -332 l  3061 -237 l  3061 -227 3061 -216 3060 -203 ct 
3061 -203 l  3069 -218 3079 -229 3091 -236 ct 3103 -243 3119 -246 3137 -246 ct 
3167 -246 3190 -236 3204 -215 ct 3219 -195 3226 -163 3226 -122 ct p
3184 -120 m  3184 -154 3179 -178 3170 -193 ct 3161 -208 3147 -215 3126 -215 ct 
3104 -215 3087 -207 3077 -192 ct 3066 -176 3061 -152 3061 -118 ct 3061 -86 3066 -63 3077 -48 ct 
3087 -32 3103 -25 3126 -25 ct 3146 -25 3161 -32 3170 -47 ct 3179 -62 3184 -87 3184 -120 ct 
p ef
3290 -113 m  3290 -85 3296 -64 3307 -49 ct 3319 -34 3335 -26 3358 -26 ct 3375 -26 3389 -30 3400 -37 ct 
3410 -44 3417 -53 3421 -63 ct 3456 -53 l  3442 -15 3409 4 3358 4 ct 3322 4 3294 -7 3276 -28 ct 
3257 -49 3248 -81 3248 -123 ct 3248 -164 3257 -194 3276 -216 ct 3294 -237 3321 -248 3356 -248 ct 
3427 -248 3463 -205 3463 -118 ct 3463 -113 l  3290 -113 l  p
3421 -144 m  3419 -170 3412 -188 3402 -200 ct 3391 -212 3375 -218 3355 -218 ct 
3336 -218 3320 -211 3309 -198 ct 3297 -185 3291 -167 3290 -144 ct 3421 -144 l 
p ef
3524 -293 m  3524 -332 l  3564 -332 l  3564 -293 l  3524 -293 l  p
3524 1 m  3524 -242 l  3564 -242 l  3564 1 l  3524 1 l  p ef
3782 -38 m  3775 -23 3765 -12 3752 -5 ct 3740 2 3725 5 3706 5 ct 3676 5 3653 -5 3639 -26 ct 
3624 -46 3617 -78 3617 -119 ct 3617 -204 3647 -246 3706 -246 ct 3725 -246 3740 -243 3752 -236 ct 
3765 -229 3775 -219 3782 -204 ct 3782 -204 l  3782 -231 l  3782 -332 l  3822 -332 l 
3822 -49 l  3822 -24 3823 -7 3824 1 ct 3785 1 l  3785 -2 3784 -7 3784 -16 ct 
3783 -25 3783 -32 3783 -38 ct 3782 -38 l  p
3660 -121 m  3660 -87 3664 -63 3673 -48 ct 3682 -33 3697 -26 3717 -26 ct 3740 -26 3756 -34 3767 -50 ct 
3777 -66 3782 -90 3782 -123 ct 3782 -155 3777 -179 3767 -194 ct 3756 -209 3740 -216 3717 -216 ct 
3697 -216 3682 -209 3673 -194 ct 3664 -179 3660 -154 3660 -121 ct p ef
4049 -68 m  4049 -45 4040 -27 4023 -15 ct 4006 -2 3982 4 3951 4 ct 3920 4 3897 -1 3881 -11 ct 
3864 -21 3854 -36 3849 -57 ct 3884 -64 l  3888 -51 3895 -42 3906 -36 ct 3916 -30 3931 -27 3951 -27 ct 
3971 -27 3986 -30 3995 -36 ct 4005 -42 4010 -52 4010 -64 ct 4010 -74 4006 -82 4000 -88 ct 
3993 -94 3983 -99 3968 -103 ct 3939 -110 l  3916 -116 3899 -122 3890 -128 ct 
3880 -134 3872 -141 3867 -149 ct 3861 -157 3858 -167 3858 -179 ct 3858 -201 3866 -218 3882 -230 ct 
3898 -241 3921 -247 3951 -247 ct 3978 -247 3999 -242 4015 -233 ct 4031 -223 4040 -208 4045 -188 ct 
4008 -183 l  4006 -194 4000 -202 3990 -208 ct 3981 -214 3967 -217 3951 -217 ct 
3933 -217 3919 -214 3911 -208 ct 3902 -203 3898 -194 3898 -183 ct 3898 -176 3899 -171 3903 -166 ct 
3907 -162 3912 -158 3919 -155 ct 3926 -151 3941 -147 3963 -142 ct 3985 -136 4000 -131 4009 -127 ct 
4019 -122 4026 -117 4032 -112 ct 4037 -106 4041 -100 4044 -92 ct 4047 -85 4049 -77 4049 -68 ct 
p ef
4199 -1 m  4186 2 4172 4 4158 4 ct 4126 4 4110 -14 4110 -51 ct 4110 -213 l  4082 -213 l 
4082 -242 l  4112 -242 l  4123 -297 l  4150 -297 l  4150 -242 l  4195 -242 l 
4195 -213 l  4150 -213 l  4150 -60 l  4150 -48 4152 -40 4156 -35 ct 4160 -30 4166 -28 4176 -28 ct 
4181 -28 4189 -29 4199 -31 ct 4199 -1 l  p ef
4211 -293 m  4211 -332 l  4251 -332 l  4251 -293 l  4211 -293 l  p
4211 1 m  4211 -242 l  4251 -242 l  4251 1 l  4211 1 l  p ef
4458 0 m  4458 -154 l  4458 -177 4455 -193 4448 -202 ct 4442 -211 4430 -216 4414 -216 ct 
4397 -216 4383 -209 4373 -196 ct 4363 -183 4358 -164 4358 -141 ct 4358 0 l  4318 0 l 
4318 -191 l  4318 -219 4317 -236 4316 -243 ct 4355 -243 l  4355 -242 4355 -240 4355 -236 ct 
4355 -233 4355 -229 4356 -225 ct 4356 -221 4356 -213 4356 -201 ct 4357 -201 l 
4366 -218 4376 -230 4387 -237 ct 4398 -244 4412 -247 4428 -247 ct 4446 -247 4461 -243 4471 -236 ct 
4482 -229 4490 -217 4494 -201 ct 4494 -201 l  4503 -217 4513 -229 4525 -236 ct 
4537 -243 4551 -247 4568 -247 ct 4592 -247 4610 -240 4621 -227 ct 4633 -214 4638 -192 4638 -162 ct 
4638 0 l  4598 0 l  4598 -154 l  4598 -177 4595 -193 4589 -202 ct 4582 -211 4571 -216 4554 -216 ct 
4536 -216 4522 -209 4513 -196 ct 4503 -183 4498 -165 4498 -141 ct 4498 0 l  4458 0 l 
p ef
4719 -113 m  4719 -85 4725 -64 4736 -49 ct 4748 -34 4764 -26 4787 -26 ct 4804 -26 4818 -30 4829 -37 ct 
4839 -44 4846 -53 4850 -63 ct 4885 -53 l  4871 -15 4838 4 4787 4 ct 4751 4 4723 -7 4705 -28 ct 
4686 -49 4677 -81 4677 -123 ct 4677 -164 4686 -194 4705 -216 ct 4723 -237 4750 -248 4785 -248 ct 
4856 -248 4892 -205 4892 -118 ct 4892 -113 l  4719 -113 l  p
4850 -144 m  4848 -170 4841 -188 4831 -200 ct 4820 -212 4804 -218 4784 -218 ct 
4765 -218 4749 -211 4738 -198 ct 4726 -185 4720 -167 4719 -144 ct 4850 -144 l 
p ef
4953 0 m  4953 -186 l  4953 -203 4952 -222 4951 -243 ct 4990 -243 l  4991 -215 4991 -199 4991 -193 ct 
4992 -193 l  4999 -214 5006 -228 5014 -236 ct 5023 -243 5035 -247 5050 -247 ct 
5055 -247 5061 -246 5066 -245 ct 5066 -208 l  5061 -209 5054 -210 5045 -210 ct 
5028 -210 5015 -203 5006 -188 ct 4998 -174 4993 -153 4993 -126 ct 4993 0 l  4953 0 l 
p ef
pom
gr
gs
79.99553 lw 1 lj 0.003 0.273 0.527 c 12103 3651 m  13703 3651 l  ps
gr
gs
0.003 0.273 0.527 c 12797 3546 m  12797 3757 l  13008 3757 l  13008 3546 l 
12797 3546 l  p ef
gr
gs
0 lw 1 lj 0.003 0.273 0.527 c 12797 3546 m  12797 3757 l  13008 3757 l  13008 3546 l 
12797 3546 l  pc
gr
gs
51 lw 1 lc 1 lj [ 100.49439 99.49444 ] 0 ld
0.003 0.273 0.527 c 12103 4149 m  13703 4149 l  ps
gr
gs
79.99553 lw 1 lj 1.000 0.261 0.058 c 12103 4646 m  13703 4646 l  ps
gr
gs
1.000 0.261 0.058 c 12797 4646 m  12903 4752 l  13008 4646 l  12903 4541 l 
12797 4646 l  p ef
gr
gs
0 lw 1 lj 1.000 0.261 0.058 c 12797 4646 m  12903 4752 l  13008 4646 l  12903 4541 l 
12797 4646 l  pc
gr
gs
51 lw 1 lc 1 lj [ 100.49439 99.49444 ] 0 ld
1.000 0.261 0.058 c 12103 5144 m  13703 5144 l  ps
gr
gs
tm setmatrix
-12.99927 -12.99835 t 
0.99994 0.99987 s 
pum
13804 3315 t
0.003 0.003 0.003 c 62 -216 m  62 -125 l  197 -125 l  197 -98 l  62 -98 l 
62 1 l  29 1 l  29 -243 l  202 -243 l  202 -216 l  62 -216 l  p ef
367 -94 m  367 -61 359 -37 345 -21 ct 331 -5 310 3 282 3 ct 255 3 235 -5 221 -22 ct 
207 -38 200 -62 200 -94 ct 200 -158 228 -190 283 -190 ct 312 -190 333 -182 346 -167 ct 
360 -151 367 -127 367 -94 ct p
334 -94 m  334 -119 330 -138 322 -150 ct 315 -161 302 -167 284 -167 ct 266 -167 253 -161 245 -149 ct 
236 -137 232 -119 232 -94 ct 232 -69 236 -51 244 -38 ct 252 -26 265 -20 282 -20 ct 
301 -20 314 -26 322 -38 ct 330 -50 334 -68 334 -94 ct p ef
421 0 m  421 -143 l  421 -156 421 -171 420 -187 ct 450 -187 l  451 -165 451 -153 451 -148 ct 
452 -148 l  457 -164 462 -175 469 -181 ct 475 -187 484 -190 496 -190 ct 500 -190 504 -189 509 -188 ct 
509 -160 l  505 -161 499 -162 492 -162 ct 479 -162 469 -156 463 -145 ct 456 -134 453 -118 453 -97 ct 
453 0 l  421 0 l  p ef
609 0 m  572 0 l  504 -187 l  537 -187 l  578 -65 l  580 -61 584 -47 590 -24 ct 
596 -44 l  603 -65 l  645 -187 l  678 -187 l  609 0 l  p ef
736 -87 m  736 -66 740 -49 749 -38 ct 758 -26 771 -20 788 -20 ct 801 -20 812 -23 820 -28 ct 
828 -34 834 -41 836 -49 ct 864 -41 l  853 -12 827 3 788 3 ct 760 3 739 -5 725 -22 ct 
710 -38 703 -62 703 -95 ct 703 -125 710 -149 725 -165 ct 739 -182 760 -190 786 -190 ct 
841 -190 869 -157 869 -91 ct 869 -87 l  736 -87 l  p
837 -111 m  835 -130 830 -145 822 -154 ct 813 -163 801 -167 786 -167 ct 771 -167 759 -162 750 -152 ct 
741 -142 737 -128 736 -111 ct 837 -111 l  p ef
1015 0 m  1015 -118 l  1015 -131 1014 -140 1012 -147 ct 1009 -154 1005 -159 1000 -162 ct 
995 -165 987 -166 977 -166 ct 962 -166 950 -161 941 -151 ct 933 -140 929 -126 929 -108 ct 
929 0 l  897 0 l  897 -147 l  897 -168 897 -182 896 -187 ct 926 -187 l  926 -186 926 -184 926 -182 ct 
926 -179 926 -176 927 -173 ct 927 -170 927 -164 927 -155 ct 928 -155 l  935 -168 943 -177 952 -182 ct 
962 -187 973 -190 987 -190 ct 1008 -190 1023 -185 1032 -175 ct 1042 -165 1046 -148 1046 -124 ct 
1046 0 l  1015 0 l  p ef
1153 -1 m  1143 2 1133 3 1122 3 ct 1097 3 1085 -11 1085 -39 ct 1085 -164 l  1063 -164 l 
1063 -187 l  1086 -187 l  1095 -228 l  1116 -228 l  1116 -187 l  1150 -187 l 
1150 -164 l  1116 -164 l  1116 -46 l  1116 -37 1117 -31 1120 -27 ct 1123 -23 1128 -22 1136 -22 ct 
1140 -22 1146 -22 1153 -24 ct 1153 -1 l  p ef
1212 -87 m  1212 -66 1216 -49 1225 -38 ct 1234 -26 1247 -20 1264 -20 ct 1277 -20 1288 -23 1296 -28 ct 
1304 -34 1310 -41 1312 -49 ct 1340 -41 l  1329 -12 1303 3 1264 3 ct 1236 3 1215 -5 1201 -22 ct 
1186 -38 1179 -62 1179 -95 ct 1179 -125 1186 -149 1201 -165 ct 1215 -182 1236 -190 1262 -190 ct 
1317 -190 1345 -157 1345 -91 ct 1345 -87 l  1212 -87 l  p
1313 -111 m  1311 -130 1306 -145 1298 -154 ct 1289 -163 1277 -167 1262 -167 ct 
1247 -167 1235 -162 1226 -152 ct 1217 -142 1213 -128 1212 -111 ct 1313 -111 l 
p ef
1444 -1 m  1434 2 1424 3 1413 3 ct 1388 3 1376 -11 1376 -39 ct 1376 -164 l  1354 -164 l 
1354 -187 l  1377 -187 l  1386 -228 l  1407 -228 l  1407 -187 l  1441 -187 l 
1441 -164 l  1407 -164 l  1407 -46 l  1407 -37 1408 -31 1411 -27 ct 1414 -23 1419 -22 1427 -22 ct 
1431 -22 1437 -22 1444 -24 ct 1444 -1 l  p ef
pom
gr
gs
tm setmatrix
-12.99927 -12.99835 t 
0.99994 0.99987 s 
pum
13804 3813 t
0.003 0.003 0.003 c 18 -123 m  18 -162 28 -193 49 -215 ct 71 -236 100 -247 139 -247 ct 
165 -247 187 -242 204 -233 ct 221 -224 234 -210 243 -190 ct 211 -180 l  205 -194 195 -204 183 -211 ct 
171 -217 156 -220 138 -220 ct 110 -220 88 -212 73 -195 ct 59 -178 51 -154 51 -123 ct 
51 -92 59 -68 75 -50 ct 91 -33 112 -24 140 -24 ct 156 -24 171 -26 185 -31 ct 198 -36 209 -42 218 -51 ct 
218 -94 l  145 -94 l  145 -122 l  248 -122 l  248 -38 l  235 -25 220 -15 201 -8 ct 
182 -1 162 3 140 3 ct 115 3 93 -2 74 -12 ct 56 -22 42 -37 32 -56 ct 23 -75 18 -97 18 -123 ct 
p ef
289 -226 m  289 -256 l  320 -256 l  320 -226 l  289 -226 l  p
320 23 m  320 40 316 53 309 61 ct 302 69 292 73 278 73 ct 269 73 262 72 256 71 ct 
256 47 l  267 49 l  275 49 281 46 284 42 ct 287 38 289 30 289 18 ct 289 -187 l 
320 -187 l  320 23 l  p ef
392 -87 m  392 -66 396 -49 405 -38 ct 414 -26 427 -20 444 -20 ct 457 -20 468 -23 476 -28 ct 
484 -34 490 -41 492 -49 ct 520 -41 l  509 -12 483 3 444 3 ct 416 3 395 -5 381 -22 ct 
366 -38 359 -62 359 -95 ct 359 -125 366 -149 381 -165 ct 395 -182 416 -190 442 -190 ct 
497 -190 525 -157 525 -91 ct 525 -87 l  392 -87 l  p
493 -111 m  491 -130 486 -145 478 -154 ct 469 -163 457 -167 442 -167 ct 427 -167 415 -162 406 -152 ct 
397 -142 393 -128 392 -111 ct 493 -111 l  p ef
671 0 m  671 -118 l  671 -131 670 -140 668 -147 ct 665 -154 661 -159 656 -162 ct 
651 -165 643 -166 633 -166 ct 618 -166 606 -161 597 -151 ct 589 -140 585 -126 585 -108 ct 
585 0 l  553 0 l  553 -147 l  553 -168 553 -182 552 -187 ct 582 -187 l  582 -186 582 -184 582 -182 ct 
582 -179 582 -176 583 -173 ct 583 -170 583 -164 583 -155 ct 584 -155 l  591 -168 599 -177 608 -182 ct 
618 -187 629 -190 643 -190 ct 664 -190 679 -185 688 -175 ct 698 -165 702 -148 702 -124 ct 
702 0 l  671 0 l  p ef
856 0 m  856 -118 l  856 -131 855 -140 853 -147 ct 850 -154 846 -159 841 -162 ct 
836 -165 828 -166 818 -166 ct 803 -166 791 -161 782 -151 ct 774 -140 770 -126 770 -108 ct 
770 0 l  738 0 l  738 -147 l  738 -168 738 -182 737 -187 ct 767 -187 l  767 -186 767 -184 767 -182 ct 
767 -179 767 -176 768 -173 ct 768 -170 768 -164 768 -155 ct 769 -155 l  776 -168 784 -177 793 -182 ct 
803 -187 814 -190 828 -190 ct 849 -190 864 -185 873 -175 ct 883 -165 887 -148 887 -124 ct 
887 0 l  856 0 l  p ef
1082 -94 m  1082 -61 1074 -37 1060 -21 ct 1046 -5 1025 3 997 3 ct 970 3 950 -5 936 -22 ct 
922 -38 915 -62 915 -94 ct 915 -158 943 -190 998 -190 ct 1027 -190 1048 -182 1061 -167 ct 
1075 -151 1082 -127 1082 -94 ct p
1049 -94 m  1049 -119 1045 -138 1037 -150 ct 1030 -161 1017 -167 999 -167 ct 
981 -167 968 -161 960 -149 ct 951 -137 947 -119 947 -94 ct 947 -69 951 -51 959 -38 ct 
967 -26 980 -20 997 -20 ct 1016 -20 1029 -26 1037 -38 ct 1045 -50 1049 -68 1049 -94 ct 
p ef
1217 0 m  1217 -118 l  1217 -136 1215 -149 1210 -156 ct 1205 -163 1196 -166 1183 -166 ct 
1170 -166 1160 -161 1152 -151 ct 1144 -141 1140 -127 1140 -108 ct 1140 0 l  1109 0 l 
1109 -147 l  1109 -168 1109 -182 1108 -187 ct 1138 -187 l  1138 -186 1138 -184 1138 -182 ct 
1138 -179 1138 -176 1139 -173 ct 1139 -170 1139 -164 1139 -155 ct 1140 -155 l 
1146 -168 1154 -177 1163 -182 ct 1171 -187 1182 -190 1194 -190 ct 1208 -190 1219 -187 1228 -182 ct 
1236 -176 1242 -167 1245 -155 ct 1245 -155 l  1252 -167 1260 -176 1269 -182 ct 
1278 -187 1289 -190 1302 -190 ct 1321 -190 1334 -185 1343 -175 ct 1352 -164 1356 -148 1356 -124 ct 
1356 0 l  1325 0 l  1325 -118 l  1325 -136 1323 -149 1318 -156 ct 1313 -163 1304 -166 1291 -166 ct 
1277 -166 1267 -161 1259 -151 ct 1252 -141 1248 -127 1248 -108 ct 1248 0 l  1217 0 l 
p ef
1540 -52 m  1540 -34 1533 -21 1520 -11 ct 1507 -2 1488 3 1464 3 ct 1441 3 1423 -1 1410 -8 ct 
1398 -16 1390 -28 1386 -44 ct 1413 -50 l  1416 -40 1421 -32 1430 -28 ct 1438 -23 1449 -21 1464 -21 ct 
1480 -21 1491 -23 1499 -28 ct 1506 -33 1510 -40 1510 -50 ct 1510 -57 1507 -63 1502 -68 ct 
1497 -72 1489 -76 1478 -79 ct 1455 -85 l  1437 -89 1425 -94 1417 -98 ct 1410 -103 1404 -108 1400 -114 ct 
1395 -121 1393 -129 1393 -138 ct 1393 -155 1399 -168 1411 -177 ct 1424 -186 1441 -190 1464 -190 ct 
1485 -190 1501 -186 1513 -179 ct 1526 -172 1533 -160 1536 -144 ct 1509 -141 l 
1507 -149 1502 -156 1495 -160 ct 1487 -164 1477 -167 1464 -167 ct 1450 -167 1440 -164 1433 -160 ct 
1427 -156 1423 -149 1423 -141 ct 1423 -136 1425 -131 1428 -128 ct 1430 -124 1434 -121 1440 -119 ct 
1445 -117 1457 -113 1474 -109 ct 1490 -105 1502 -101 1509 -97 ct 1517 -94 1522 -90 1527 -86 ct 
1531 -82 1534 -77 1536 -71 ct 1539 -66 1540 -59 1540 -52 ct p ef
1703 0 m  1703 -118 l  1703 -131 1702 -140 1700 -147 ct 1697 -154 1693 -159 1688 -162 ct 
1683 -165 1675 -166 1665 -166 ct 1650 -166 1638 -161 1629 -151 ct 1621 -140 1617 -126 1617 -108 ct 
1617 0 l  1585 0 l  1585 -147 l  1585 -168 1585 -182 1584 -187 ct 1614 -187 l 
1614 -186 1614 -184 1614 -182 ct 1614 -179 1614 -176 1615 -173 ct 1615 -170 1615 -164 1615 -155 ct 
1616 -155 l  1623 -168 1631 -177 1640 -182 ct 1650 -187 1661 -190 1675 -190 ct 
1696 -190 1711 -185 1720 -175 ct 1730 -165 1734 -148 1734 -124 ct 1734 0 l  1703 0 l 
p ef
1770 -226 m  1770 -256 l  1801 -256 l  1801 -226 l  1770 -226 l  p
1770 0 m  1770 -187 l  1801 -187 l  1801 0 l  1770 0 l  p ef
1921 -1 m  1911 2 1901 3 1890 3 ct 1865 3 1853 -11 1853 -39 ct 1853 -164 l  1831 -164 l 
1831 -187 l  1854 -187 l  1863 -228 l  1884 -228 l  1884 -187 l  1918 -187 l 
1918 -164 l  1884 -164 l  1884 -46 l  1884 -37 1885 -31 1888 -27 ct 1891 -23 1896 -22 1904 -22 ct 
1908 -22 1914 -22 1921 -24 ct 1921 -1 l  p ef
2000 -1 m  1990 2 1980 3 1969 3 ct 1944 3 1932 -11 1932 -39 ct 1932 -164 l  1910 -164 l 
1910 -187 l  1933 -187 l  1942 -228 l  1963 -228 l  1963 -187 l  1997 -187 l 
1997 -164 l  1963 -164 l  1963 -46 l  1963 -37 1964 -31 1967 -27 ct 1970 -23 1975 -22 1983 -22 ct 
1987 -22 1993 -22 2000 -24 ct 2000 -1 l  p ef
2139 -92 m  2139 -125 2144 -155 2154 -181 ct 2165 -208 2181 -233 2203 -256 ct 
2232 -256 l  2211 -232 2195 -207 2185 -180 ct 2175 -153 2170 -123 2170 -91 ct 
2170 -60 2175 -30 2185 -4 ct 2195 23 2211 49 2232 73 ct 2203 73 l  2181 50 2165 25 2154 -2 ct 
2144 -28 2139 -58 2139 -91 ct 2139 -92 l  p ef
2285 -216 m  2285 -125 l  2420 -125 l  2420 -98 l  2285 -98 l  2285 1 l 
2252 1 l  2252 -243 l  2425 -243 l  2425 -216 l  2285 -216 l  p ef
2616 -94 m  2616 -61 2608 -37 2594 -21 ct 2580 -5 2559 3 2531 3 ct 2504 3 2484 -5 2470 -22 ct 
2456 -38 2449 -62 2449 -94 ct 2449 -158 2477 -190 2532 -190 ct 2561 -190 2582 -182 2595 -167 ct 
2609 -151 2616 -127 2616 -94 ct p
2583 -94 m  2583 -119 2579 -138 2571 -150 ct 2564 -161 2551 -167 2533 -167 ct 
2515 -167 2502 -161 2494 -149 ct 2485 -137 2481 -119 2481 -94 ct 2481 -69 2485 -51 2493 -38 ct 
2501 -26 2514 -20 2531 -20 ct 2550 -20 2563 -26 2571 -38 ct 2579 -50 2583 -68 2583 -94 ct 
p ef
2643 0 m  2643 -143 l  2643 -156 2643 -171 2642 -187 ct 2672 -187 l  2673 -165 2673 -153 2673 -148 ct 
2674 -148 l  2679 -164 2684 -175 2691 -181 ct 2697 -187 2706 -190 2718 -190 ct 
2722 -190 2726 -189 2731 -188 ct 2731 -160 l  2727 -161 2721 -162 2714 -162 ct 
2701 -162 2691 -156 2685 -145 ct 2678 -134 2675 -118 2675 -97 ct 2675 0 l  2643 0 l 
p ef
2858 0 m  2821 0 l  2753 -187 l  2786 -187 l  2827 -65 l  2829 -61 2833 -47 2839 -24 ct 
2845 -44 l  2852 -65 l  2894 -187 l  2927 -187 l  2858 0 l  p ef
2958 -87 m  2958 -66 2962 -49 2971 -38 ct 2980 -26 2993 -20 3010 -20 ct 3023 -20 3034 -23 3042 -28 ct 
3050 -34 3056 -41 3058 -49 ct 3086 -41 l  3075 -12 3049 3 3010 3 ct 2982 3 2961 -5 2947 -22 ct 
2932 -38 2925 -62 2925 -95 ct 2925 -125 2932 -149 2947 -165 ct 2961 -182 2982 -190 3008 -190 ct 
3063 -190 3091 -157 3091 -91 ct 3091 -87 l  2958 -87 l  p
3059 -111 m  3057 -130 3052 -145 3044 -154 ct 3035 -163 3023 -167 3008 -167 ct 
2993 -167 2981 -162 2972 -152 ct 2963 -142 2959 -128 2958 -111 ct 3059 -111 l 
p ef
3238 0 m  3238 -118 l  3238 -131 3237 -140 3235 -147 ct 3232 -154 3228 -159 3223 -162 ct 
3218 -165 3210 -166 3200 -166 ct 3185 -166 3173 -161 3164 -151 ct 3156 -140 3152 -126 3152 -108 ct 
3152 0 l  3120 0 l  3120 -147 l  3120 -168 3120 -182 3119 -187 ct 3149 -187 l 
3149 -186 3149 -184 3149 -182 ct 3149 -179 3149 -176 3150 -173 ct 3150 -170 3150 -164 3150 -155 ct 
3151 -155 l  3158 -168 3166 -177 3175 -182 ct 3185 -187 3196 -190 3210 -190 ct 
3231 -190 3246 -185 3255 -175 ct 3265 -165 3269 -148 3269 -124 ct 3269 0 l  3238 0 l 
p ef
3376 -1 m  3366 2 3356 3 3345 3 ct 3320 3 3308 -11 3308 -39 ct 3308 -164 l  3286 -164 l 
3286 -187 l  3309 -187 l  3318 -228 l  3339 -228 l  3339 -187 l  3373 -187 l 
3373 -164 l  3339 -164 l  3339 -46 l  3339 -37 3340 -31 3343 -27 ct 3346 -23 3351 -22 3359 -22 ct 
3363 -22 3369 -22 3376 -24 ct 3376 -1 l  p ef
3435 -87 m  3435 -66 3439 -49 3448 -38 ct 3457 -26 3470 -20 3487 -20 ct 3500 -20 3511 -23 3519 -28 ct 
3527 -34 3533 -41 3535 -49 ct 3563 -41 l  3552 -12 3526 3 3487 3 ct 3459 3 3438 -5 3424 -22 ct 
3409 -38 3402 -62 3402 -95 ct 3402 -125 3409 -149 3424 -165 ct 3438 -182 3459 -190 3485 -190 ct 
3540 -190 3568 -157 3568 -91 ct 3568 -87 l  3435 -87 l  p
3536 -111 m  3534 -130 3529 -145 3521 -154 ct 3512 -163 3500 -167 3485 -167 ct 
3470 -167 3458 -162 3449 -152 ct 3440 -142 3436 -128 3435 -111 ct 3536 -111 l 
p ef
3667 -1 m  3657 2 3647 3 3636 3 ct 3611 3 3599 -11 3599 -39 ct 3599 -164 l  3577 -164 l 
3577 -187 l  3600 -187 l  3609 -228 l  3630 -228 l  3630 -187 l  3664 -187 l 
3664 -164 l  3630 -164 l  3630 -46 l  3630 -37 3631 -31 3634 -27 ct 3637 -23 3642 -22 3650 -22 ct 
3654 -22 3660 -22 3667 -24 ct 3667 -1 l  p ef
3774 -91 m  3774 -58 3768 -28 3758 -2 ct 3748 25 3732 50 3710 73 ct 3680 73 l 
3702 49 3717 23 3727 -3 ct 3737 -30 3742 -59 3742 -91 ct 3742 -124 3737 -153 3727 -180 ct 
3717 -207 3702 -232 3680 -256 ct 3710 -256 l  3732 -233 3748 -208 3758 -181 ct 
3768 -155 3774 -125 3774 -92 ct 3774 -91 l  p ef
pom
gr
gs
tm setmatrix
-12.99927 -12.99835 t 
0.99994 0.99987 s 
pum
13804 4311 t
0.003 0.003 0.003 c 62 -216 m  62 -125 l  197 -125 l  197 -98 l  62 -98 l 
62 1 l  29 1 l  29 -243 l  202 -243 l  202 -216 l  62 -216 l  p ef
256 3 m  238 3 224 -2 214 -12 ct 205 -22 200 -35 200 -53 ct 200 -72 206 -87 219 -97 ct 
232 -107 252 -113 280 -114 ct 322 -114 l  322 -125 l  322 -140 319 -151 313 -157 ct 
306 -164 296 -167 282 -167 ct 268 -167 258 -165 252 -160 ct 246 -155 242 -148 241 -137 ct 
208 -140 l  214 -174 239 -191 283 -191 ct 307 -191 324 -185 336 -175 ct 348 -164 354 -148 354 -128 ct 
354 -48 l  354 -38 355 -31 357 -27 ct 360 -22 364 -20 371 -20 ct 374 -20 378 -20 381 -21 ct 
381 -2 l  374 0 366 1 357 1 ct 346 1 338 -2 332 -8 ct 327 -14 324 -23 323 -36 ct 
322 -36 l  314 -22 305 -12 295 -6 ct 284 0 271 3 256 3 ct p
263 -20 m  275 -20 285 -23 294 -28 ct 303 -33 310 -40 315 -49 ct 320 -58 322 -67 322 -77 ct 
322 -92 l  288 -92 l  274 -92 263 -91 255 -88 ct 248 -85 242 -81 238 -75 ct 
234 -69 232 -62 232 -52 ct 232 -42 235 -34 240 -29 ct 246 -23 253 -20 263 -20 ct 
p ef
538 0 m  475 -85 l  452 -66 l  452 0 l  421 0 l  421 -256 l  452 -256 l 
452 -96 l  534 -187 l  570 -187 l  494 -106 l  574 0 l  538 0 l  p ef
651 -1 m  641 2 631 3 620 3 ct 595 3 583 -11 583 -39 ct 583 -164 l  561 -164 l 
561 -187 l  584 -187 l  593 -228 l  614 -228 l  614 -187 l  648 -187 l 
648 -164 l  614 -164 l  614 -46 l  614 -37 615 -31 618 -27 ct 621 -23 626 -22 634 -22 ct 
638 -22 644 -22 651 -24 ct 651 -1 l  p ef
685 -226 m  685 -256 l  716 -256 l  716 -226 l  685 -226 l  p
685 0 m  685 -187 l  716 -187 l  716 0 l  685 0 l  p ef
905 -52 m  905 -34 898 -21 885 -11 ct 872 -2 853 3 829 3 ct 806 3 788 -1 775 -8 ct 
763 -16 755 -28 751 -44 ct 778 -50 l  781 -40 786 -32 795 -28 ct 803 -23 814 -21 829 -21 ct 
845 -21 856 -23 864 -28 ct 871 -33 875 -40 875 -50 ct 875 -57 872 -63 867 -68 ct 
862 -72 854 -76 843 -79 ct 820 -85 l  802 -89 790 -94 782 -98 ct 775 -103 769 -108 765 -114 ct 
760 -121 758 -129 758 -138 ct 758 -155 764 -168 776 -177 ct 789 -186 806 -190 829 -190 ct 
850 -190 866 -186 878 -179 ct 891 -172 898 -160 901 -144 ct 874 -141 l  872 -149 867 -156 860 -160 ct 
852 -164 842 -167 829 -167 ct 815 -167 805 -164 798 -160 ct 792 -156 788 -149 788 -141 ct 
788 -136 790 -131 793 -128 ct 795 -124 799 -121 805 -119 ct 810 -117 822 -113 839 -109 ct 
855 -105 867 -101 874 -97 ct 882 -94 887 -90 892 -86 ct 896 -82 899 -77 901 -71 ct 
904 -66 905 -59 905 -52 ct p ef
1041 0 m  978 -85 l  955 -66 l  955 0 l  924 0 l  924 -256 l  955 -256 l 
955 -96 l  1037 -187 l  1073 -187 l  997 -106 l  1077 0 l  1041 0 l  p ef
pom
gr
gs
tm setmatrix
-12.99927 -12.99835 t 
0.99994 0.99987 s 
pum
13804 4809 t
0.003 0.003 0.003 c 18 -123 m  18 -162 28 -193 49 -215 ct 71 -236 100 -247 139 -247 ct 
165 -247 187 -242 204 -233 ct 221 -224 234 -210 243 -190 ct 211 -180 l  205 -194 195 -204 183 -211 ct 
171 -217 156 -220 138 -220 ct 110 -220 88 -212 73 -195 ct 59 -178 51 -154 51 -123 ct 
51 -92 59 -68 75 -50 ct 91 -33 112 -24 140 -24 ct 156 -24 171 -26 185 -31 ct 198 -36 209 -42 218 -51 ct 
218 -94 l  145 -94 l  145 -122 l  248 -122 l  248 -38 l  235 -25 220 -15 201 -8 ct 
182 -1 162 3 140 3 ct 115 3 93 -2 74 -12 ct 56 -22 42 -37 32 -56 ct 23 -75 18 -97 18 -123 ct 
p ef
289 -226 m  289 -256 l  320 -256 l  320 -226 l  289 -226 l  p
320 23 m  320 40 316 53 309 61 ct 302 69 292 73 278 73 ct 269 73 262 72 256 71 ct 
256 47 l  267 49 l  275 49 281 46 284 42 ct 287 38 289 30 289 18 ct 289 -187 l 
320 -187 l  320 23 l  p ef
392 -87 m  392 -66 396 -49 405 -38 ct 414 -26 427 -20 444 -20 ct 457 -20 468 -23 476 -28 ct 
484 -34 490 -41 492 -49 ct 520 -41 l  509 -12 483 3 444 3 ct 416 3 395 -5 381 -22 ct 
366 -38 359 -62 359 -95 ct 359 -125 366 -149 381 -165 ct 395 -182 416 -190 442 -190 ct 
497 -190 525 -157 525 -91 ct 525 -87 l  392 -87 l  p
493 -111 m  491 -130 486 -145 478 -154 ct 469 -163 457 -167 442 -167 ct 427 -167 415 -162 406 -152 ct 
397 -142 393 -128 392 -111 ct 493 -111 l  p ef
671 0 m  671 -118 l  671 -131 670 -140 668 -147 ct 665 -154 661 -159 656 -162 ct 
651 -165 643 -166 633 -166 ct 618 -166 606 -161 597 -151 ct 589 -140 585 -126 585 -108 ct 
585 0 l  553 0 l  553 -147 l  553 -168 553 -182 552 -187 ct 582 -187 l  582 -186 582 -184 582 -182 ct 
582 -179 582 -176 583 -173 ct 583 -170 583 -164 583 -155 ct 584 -155 l  591 -168 599 -177 608 -182 ct 
618 -187 629 -190 643 -190 ct 664 -190 679 -185 688 -175 ct 698 -165 702 -148 702 -124 ct 
702 0 l  671 0 l  p ef
856 0 m  856 -118 l  856 -131 855 -140 853 -147 ct 850 -154 846 -159 841 -162 ct 
836 -165 828 -166 818 -166 ct 803 -166 791 -161 782 -151 ct 774 -140 770 -126 770 -108 ct 
770 0 l  738 0 l  738 -147 l  738 -168 738 -182 737 -187 ct 767 -187 l  767 -186 767 -184 767 -182 ct 
767 -179 767 -176 768 -173 ct 768 -170 768 -164 768 -155 ct 769 -155 l  776 -168 784 -177 793 -182 ct 
803 -187 814 -190 828 -190 ct 849 -190 864 -185 873 -175 ct 883 -165 887 -148 887 -124 ct 
887 0 l  856 0 l  p ef
1082 -94 m  1082 -61 1074 -37 1060 -21 ct 1046 -5 1025 3 997 3 ct 970 3 950 -5 936 -22 ct 
922 -38 915 -62 915 -94 ct 915 -158 943 -190 998 -190 ct 1027 -190 1048 -182 1061 -167 ct 
1075 -151 1082 -127 1082 -94 ct p
1049 -94 m  1049 -119 1045 -138 1037 -150 ct 1030 -161 1017 -167 999 -167 ct 
981 -167 968 -161 960 -149 ct 951 -137 947 -119 947 -94 ct 947 -69 951 -51 959 -38 ct 
967 -26 980 -20 997 -20 ct 1016 -20 1029 -26 1037 -38 ct 1045 -50 1049 -68 1049 -94 ct 
p ef
1217 0 m  1217 -118 l  1217 -136 1215 -149 1210 -156 ct 1205 -163 1196 -166 1183 -166 ct 
1170 -166 1160 -161 1152 -151 ct 1144 -141 1140 -127 1140 -108 ct 1140 0 l  1109 0 l 
1109 -147 l  1109 -168 1109 -182 1108 -187 ct 1138 -187 l  1138 -186 1138 -184 1138 -182 ct 
1138 -179 1138 -176 1139 -173 ct 1139 -170 1139 -164 1139 -155 ct 1140 -155 l 
1146 -168 1154 -177 1163 -182 ct 1171 -187 1182 -190 1194 -190 ct 1208 -190 1219 -187 1228 -182 ct 
1236 -176 1242 -167 1245 -155 ct 1245 -155 l  1252 -167 1260 -176 1269 -182 ct 
1278 -187 1289 -190 1302 -190 ct 1321 -190 1334 -185 1343 -175 ct 1352 -164 1356 -148 1356 -124 ct 
1356 0 l  1325 0 l  1325 -118 l  1325 -136 1323 -149 1318 -156 ct 1313 -163 1304 -166 1291 -166 ct 
1277 -166 1267 -161 1259 -151 ct 1252 -141 1248 -127 1248 -108 ct 1248 0 l  1217 0 l 
p ef
1540 -52 m  1540 -34 1533 -21 1520 -11 ct 1507 -2 1488 3 1464 3 ct 1441 3 1423 -1 1410 -8 ct 
1398 -16 1390 -28 1386 -44 ct 1413 -50 l  1416 -40 1421 -32 1430 -28 ct 1438 -23 1449 -21 1464 -21 ct 
1480 -21 1491 -23 1499 -28 ct 1506 -33 1510 -40 1510 -50 ct 1510 -57 1507 -63 1502 -68 ct 
1497 -72 1489 -76 1478 -79 ct 1455 -85 l  1437 -89 1425 -94 1417 -98 ct 1410 -103 1404 -108 1400 -114 ct 
1395 -121 1393 -129 1393 -138 ct 1393 -155 1399 -168 1411 -177 ct 1424 -186 1441 -190 1464 -190 ct 
1485 -190 1501 -186 1513 -179 ct 1526 -172 1533 -160 1536 -144 ct 1509 -141 l 
1507 -149 1502 -156 1495 -160 ct 1487 -164 1477 -167 1464 -167 ct 1450 -167 1440 -164 1433 -160 ct 
1427 -156 1423 -149 1423 -141 ct 1423 -136 1425 -131 1428 -128 ct 1430 -124 1434 -121 1440 -119 ct 
1445 -117 1457 -113 1474 -109 ct 1490 -105 1502 -101 1509 -97 ct 1517 -94 1522 -90 1527 -86 ct 
1531 -82 1534 -77 1536 -71 ct 1539 -66 1540 -59 1540 -52 ct p ef
1703 0 m  1703 -118 l  1703 -131 1702 -140 1700 -147 ct 1697 -154 1693 -159 1688 -162 ct 
1683 -165 1675 -166 1665 -166 ct 1650 -166 1638 -161 1629 -151 ct 1621 -140 1617 -126 1617 -108 ct 
1617 0 l  1585 0 l  1585 -147 l  1585 -168 1585 -182 1584 -187 ct 1614 -187 l 
1614 -186 1614 -184 1614 -182 ct 1614 -179 1614 -176 1615 -173 ct 1615 -170 1615 -164 1615 -155 ct 
1616 -155 l  1623 -168 1631 -177 1640 -182 ct 1650 -187 1661 -190 1675 -190 ct 
1696 -190 1711 -185 1720 -175 ct 1730 -165 1734 -148 1734 -124 ct 1734 0 l  1703 0 l 
p ef
1770 -226 m  1770 -256 l  1801 -256 l  1801 -226 l  1770 -226 l  p
1770 0 m  1770 -187 l  1801 -187 l  1801 0 l  1770 0 l  p ef
1921 -1 m  1911 2 1901 3 1890 3 ct 1865 3 1853 -11 1853 -39 ct 1853 -164 l  1831 -164 l 
1831 -187 l  1854 -187 l  1863 -228 l  1884 -228 l  1884 -187 l  1918 -187 l 
1918 -164 l  1884 -164 l  1884 -46 l  1884 -37 1885 -31 1888 -27 ct 1891 -23 1896 -22 1904 -22 ct 
1908 -22 1914 -22 1921 -24 ct 1921 -1 l  p ef
2000 -1 m  1990 2 1980 3 1969 3 ct 1944 3 1932 -11 1932 -39 ct 1932 -164 l  1910 -164 l 
1910 -187 l  1933 -187 l  1942 -228 l  1963 -228 l  1963 -187 l  1997 -187 l 
1997 -164 l  1963 -164 l  1963 -46 l  1963 -37 1964 -31 1967 -27 ct 1970 -23 1975 -22 1983 -22 ct 
1987 -22 1993 -22 2000 -24 ct 2000 -1 l  p ef
2139 -92 m  2139 -125 2144 -155 2154 -181 ct 2165 -208 2181 -233 2203 -256 ct 
2232 -256 l  2211 -232 2195 -207 2185 -180 ct 2175 -153 2170 -123 2170 -91 ct 
2170 -60 2175 -30 2185 -4 ct 2195 23 2211 49 2232 73 ct 2203 73 l  2181 50 2165 25 2154 -2 ct 
2144 -28 2139 -58 2139 -91 ct 2139 -92 l  p ef
2285 -216 m  2285 -125 l  2420 -125 l  2420 -98 l  2285 -98 l  2285 1 l 
2252 1 l  2252 -243 l  2425 -243 l  2425 -216 l  2285 -216 l  p ef
2505 3 m  2487 3 2473 -2 2463 -12 ct 2454 -22 2449 -35 2449 -53 ct 2449 -72 2455 -87 2468 -97 ct 
2481 -107 2501 -113 2529 -114 ct 2571 -114 l  2571 -125 l  2571 -140 2568 -151 2562 -157 ct 
2555 -164 2545 -167 2531 -167 ct 2517 -167 2507 -165 2501 -160 ct 2495 -155 2491 -148 2490 -137 ct 
2457 -140 l  2463 -174 2488 -191 2532 -191 ct 2556 -191 2573 -185 2585 -175 ct 
2597 -164 2603 -148 2603 -128 ct 2603 -48 l  2603 -38 2604 -31 2606 -27 ct 2609 -22 2613 -20 2620 -20 ct 
2623 -20 2627 -20 2630 -21 ct 2630 -2 l  2623 0 2615 1 2606 1 ct 2595 1 2587 -2 2581 -8 ct 
2576 -14 2573 -23 2572 -36 ct 2571 -36 l  2563 -22 2554 -12 2544 -6 ct 2533 0 2520 3 2505 3 ct 
p
2512 -20 m  2524 -20 2534 -23 2543 -28 ct 2552 -33 2559 -40 2564 -49 ct 2569 -58 2571 -67 2571 -77 ct 
2571 -92 l  2537 -92 l  2523 -92 2512 -91 2504 -88 ct 2497 -85 2491 -81 2487 -75 ct 
2483 -69 2481 -62 2481 -52 ct 2481 -42 2484 -34 2489 -29 ct 2495 -23 2502 -20 2512 -20 ct 
p ef
2760 0 m  2697 -85 l  2674 -66 l  2674 0 l  2643 0 l  2643 -256 l  2674 -256 l 
2674 -96 l  2756 -187 l  2792 -187 l  2716 -106 l  2796 0 l  2760 0 l 
p ef
2900 -1 m  2890 2 2880 3 2869 3 ct 2844 3 2832 -11 2832 -39 ct 2832 -164 l  2810 -164 l 
2810 -187 l  2833 -187 l  2842 -228 l  2863 -228 l  2863 -187 l  2897 -187 l 
2897 -164 l  2863 -164 l  2863 -46 l  2863 -37 2864 -31 2867 -27 ct 2870 -23 2875 -22 2883 -22 ct 
2887 -22 2893 -22 2900 -24 ct 2900 -1 l  p ef
2908 -226 m  2908 -256 l  2939 -256 l  2939 -226 l  2908 -226 l  p
2908 0 m  2908 -187 l  2939 -187 l  2939 0 l  2908 0 l  p ef
3127 -52 m  3127 -34 3120 -21 3107 -11 ct 3094 -2 3075 3 3051 3 ct 3028 3 3010 -1 2997 -8 ct 
2985 -16 2977 -28 2973 -44 ct 3000 -50 l  3003 -40 3008 -32 3017 -28 ct 3025 -23 3036 -21 3051 -21 ct 
3067 -21 3078 -23 3086 -28 ct 3093 -33 3097 -40 3097 -50 ct 3097 -57 3094 -63 3089 -68 ct 
3084 -72 3076 -76 3065 -79 ct 3042 -85 l  3024 -89 3012 -94 3004 -98 ct 2997 -103 2991 -108 2987 -114 ct 
2982 -121 2980 -129 2980 -138 ct 2980 -155 2986 -168 2998 -177 ct 3011 -186 3028 -190 3051 -190 ct 
3072 -190 3088 -186 3100 -179 ct 3113 -172 3120 -160 3123 -144 ct 3096 -141 l 
3094 -149 3089 -156 3082 -160 ct 3074 -164 3064 -167 3051 -167 ct 3037 -167 3027 -164 3020 -160 ct 
3014 -156 3010 -149 3010 -141 ct 3010 -136 3012 -131 3015 -128 ct 3017 -124 3021 -121 3027 -119 ct 
3032 -117 3044 -113 3061 -109 ct 3077 -105 3089 -101 3096 -97 ct 3104 -94 3109 -90 3114 -86 ct 
3118 -82 3121 -77 3123 -71 ct 3126 -66 3127 -59 3127 -52 ct p ef
3290 0 m  3227 -85 l  3204 -66 l  3204 0 l  3173 0 l  3173 -256 l  3204 -256 l 
3204 -96 l  3286 -187 l  3322 -187 l  3246 -106 l  3326 0 l  3290 0 l 
p ef
3403 -91 m  3403 -58 3397 -28 3387 -2 ct 3377 25 3361 50 3339 73 ct 3309 73 l 
3331 49 3346 23 3356 -3 ct 3366 -30 3371 -59 3371 -91 ct 3371 -124 3366 -153 3356 -180 ct 
3346 -207 3331 -232 3309 -256 ct 3339 -256 l  3361 -233 3377 -208 3387 -181 ct 
3397 -155 3403 -125 3403 -92 ct 3403 -91 l  p ef
pom
gr
gs
tm setmatrix
-12.99927 -12.99835 t 
0.99994 0.99987 s 
pum
837 4822 t
90.0 r 0.003 0.003 0.003 c 86 -2 m  77 1 67 2 58 2 ct 35 2 24 -11 24 -36 ct 24 -148 l 
5 -148 l  5 -168 l  25 -168 l  34 -206 l  52 -206 l  52 -168 l  83 -168 l 
83 -148 l  52 -148 l  52 -42 l  52 -34 53 -28 56 -25 ct 59 -22 63 -20 70 -20 ct 
74 -20 79 -21 86 -22 ct 86 -2 l  p ef
100 -203 m  100 -230 l  128 -230 l  128 -203 l  100 -203 l  p
100 0 m  100 -168 l  128 -168 l  128 0 l  100 0 l  p ef
278 0 m  278 -106 l  278 -123 276 -134 272 -140 ct 267 -146 259 -149 248 -149 ct 
236 -149 226 -145 219 -136 ct 212 -127 209 -114 209 -97 ct 209 0 l  181 0 l 
181 -132 l  181 -152 181 -164 180 -168 ct 207 -168 l  207 -167 207 -166 207 -164 ct 
207 -161 207 -159 207 -156 ct 207 -153 208 -147 208 -139 ct 208 -139 l  214 -151 221 -159 229 -164 ct 
237 -169 246 -171 257 -171 ct 270 -171 280 -168 287 -163 ct 295 -158 300 -150 303 -139 ct 
303 -139 l  309 -150 316 -159 324 -164 ct 333 -169 343 -171 354 -171 ct 371 -171 384 -166 391 -157 ct 
399 -148 403 -133 403 -112 ct 403 0 l  375 0 l  375 -106 l  375 -123 373 -134 369 -140 ct 
364 -146 356 -149 345 -149 ct 332 -149 323 -145 316 -136 ct 309 -127 306 -114 306 -97 ct 
306 0 l  278 0 l  p ef
440 -78 m  440 -59 444 -44 452 -34 ct 460 -23 471 -18 487 -18 ct 499 -18 509 -20 516 -25 ct 
523 -30 528 -36 531 -44 ct 555 -37 l  545 -10 522 3 487 3 ct 462 3 443 -4 430 -19 ct 
417 -34 411 -56 411 -85 ct 411 -113 417 -134 430 -149 ct 443 -164 462 -171 486 -171 ct 
535 -171 560 -141 560 -82 ct 560 -78 l  440 -78 l  p
531 -99 m  529 -117 525 -130 517 -138 ct 510 -146 499 -150 485 -150 ct 472 -150 461 -146 453 -137 ct 
445 -128 441 -115 440 -99 ct 531 -99 l  p ef
604 0 m  604 -129 l  604 -141 604 -154 603 -168 ct 630 -168 l  630 -149 631 -137 631 -134 ct 
631 -134 l  636 -148 641 -158 647 -163 ct 653 -168 661 -171 671 -171 ct 675 -171 679 -170 683 -169 ct 
683 -144 l  679 -145 674 -145 668 -145 ct 656 -145 647 -140 641 -130 ct 635 -120 632 -106 632 -88 ct 
632 0 l  604 0 l  p ef
pom
gr
0 7886 t 
pom
count op_count sub {pop} repeat countdictstack dict_count sub {end} repeat b4_inc_state restore
%%PageTrailer
%%Trailer
%%EOF
