%!PS-Adobe-3.0 EPSF-3.0 
%%BoundingBox: 0 0 508 224
%%Pages: 0
%%Creator: LibreOffice 24.2
%%Title: none
%%CreationDate: none
%%LanguageLevel: 2
%%EndComments
%%BeginProlog
%%BeginResource: procset SDRes-Prolog 1.0 0
/b4_inc_state save def
/dict_count countdictstack def
/op_count count 1 sub def
userdict begin
0 setgray 0 setlinecap 1 setlinewidth 0 setlinejoin 10 setmiterlimit[] 0 setdash newpath
/languagelevel where {pop languagelevel 1 ne {false setstrokeadjust false setoverprint} if} if
/bdef {bind def} bind def
/c {setrgbcolor} bdef
/l {neg lineto} bdef
/rl {neg rlineto} bdef
/lc {setlinecap} bdef
/lj {setlinejoin} bdef
/lw {setlinewidth} bdef
/ml {setmiterlimit} bdef
/ld {setdash} bdef
/m {neg moveto} bdef
/ct {6 2 roll neg 6 2 roll neg 6 2 roll neg curveto} bdef
/r {rotate} bdef
/t {neg translate} bdef
/s {scale} bdef
/sw {show} bdef
/gs {gsave} bdef
/gr {grestore} bdef
/f {findfont dup length dict begin
{1 index /FID ne {def} {pop pop} ifelse} forall /Encoding ISOLatin1Encoding def
currentdict end /NFont exch definefont pop /NFont findfont} bdef
/p {closepath} bdef
/sf {scalefont setfont} bdef
/ef {eofill}bdef
/pc {closepath stroke}bdef
/ps {stroke}bdef
/pum {matrix currentmatrix}bdef
/pom {setmatrix}bdef
/bs {/aString exch def /nXOfs exch def /nWidth exch def currentpoint nXOfs 0 rmoveto pum nWidth aString stringwidth pop div 1 scale aString show pom moveto} bdef
%%EndResource
%%EndProlog
%%BeginSetup
%%EndSetup
%%Page: 1 1
%%BeginPageSetup
%%EndPageSetup
pum
0.02835 0.0284 s 
0 -7886 t
/tm matrix currentmatrix def
tm setmatrix
-13 -9679 t 
1 1 s 
gs
1.000 1.000 1.000 c 8958 17551 m  0 17551 l  0 9666 l  17915 9666 l  17915 17551 l 
8958 17551 l  p ef
gr
gs
0 lw 1 lj 0.703 0.703 0.703 c 7857 16747 m  2493 16747 l  2493 11094 l 
13221 11094 l  13221 16747 l  7857 16747 l  pc
gr
gs
0 lw 1 lj 0.703 0.703 0.703 c 13221 16746 m  2493 16746 l  ps
gr
gs
0 lw 1 lj 0.703 0.703 0.703 c 13221 16180 m  2493 16180 l  ps
gr
gs
0 lw 1 lj 0.703 0.703 0.703 c 13221 15615 m  2493 15615 l  ps
gr
gs
0 lw 1 lj 0.703 0.703 0.703 c 13221 15049 m  2493 15049 l  ps
gr
gs
0 lw 1 lj 0.703 0.703 0.703 c 13221 14484 m  2493 14484 l  ps
gr
gs
0 lw 1 lj 0.703 0.703 0.703 c 13221 13919 m  2493 13919 l  ps
gr
gs
0 lw 1 lj 0.703 0.703 0.703 c 13221 13354 m  2493 13354 l  ps
gr
gs
0 lw 1 lj 0.703 0.703 0.703 c 13221 12789 m  2493 12789 l  ps
gr
gs
0 lw 1 lj 0.703 0.703 0.703 c 13221 12223 m  2493 12223 l  ps
gr
gs
0 lw 1 lj 0.703 0.703 0.703 c 13221 11658 m  2493 11658 l  ps
gr
gs
0 lw 1 lj 0.703 0.703 0.703 c 13221 11093 m  2493 11093 l  ps
gr
gs
0 lw 1 lj 0.703 0.703 0.703 c 2493 16896 m  2493 16746 l  ps
gr
gs
0 lw 1 lj 0.703 0.703 0.703 c 2493 16896 m  2493 16746 l  ps
gr
gs
0 lw 1 lj 0.703 0.703 0.703 c 3029 16896 m  3029 16746 l  ps
gr
gs
0 lw 1 lj 0.703 0.703 0.703 c 3029 16896 m  3029 16746 l  ps
gr
gs
0 lw 1 lj 0.703 0.703 0.703 c 3565 16896 m  3565 16746 l  ps
gr
gs
0 lw 1 lj 0.703 0.703 0.703 c 3565 16896 m  3565 16746 l  ps
gr
gs
0 lw 1 lj 0.703 0.703 0.703 c 4102 16896 m  4102 16746 l  ps
gr
gs
0 lw 1 lj 0.703 0.703 0.703 c 4102 16896 m  4102 16746 l  ps
gr
gs
0 lw 1 lj 0.703 0.703 0.703 c 4638 16896 m  4638 16746 l  ps
gr
gs
0 lw 1 lj 0.703 0.703 0.703 c 4638 16896 m  4638 16746 l  ps
gr
gs
0 lw 1 lj 0.703 0.703 0.703 c 5175 16896 m  5175 16746 l  ps
gr
gs
0 lw 1 lj 0.703 0.703 0.703 c 5175 16896 m  5175 16746 l  ps
gr
gs
0 lw 1 lj 0.703 0.703 0.703 c 5711 16896 m  5711 16746 l  ps
gr
gs
0 lw 1 lj 0.703 0.703 0.703 c 5711 16896 m  5711 16746 l  ps
gr
gs
0 lw 1 lj 0.703 0.703 0.703 c 6248 16896 m  6248 16746 l  ps
gr
gs
0 lw 1 lj 0.703 0.703 0.703 c 6248 16896 m  6248 16746 l  ps
gr
gs
0 lw 1 lj 0.703 0.703 0.703 c 6784 16896 m  6784 16746 l  ps
gr
gs
0 lw 1 lj 0.703 0.703 0.703 c 6784 16896 m  6784 16746 l  ps
gr
gs
0 lw 1 lj 0.703 0.703 0.703 c 7321 16896 m  7321 16746 l  ps
gr
gs
0 lw 1 lj 0.703 0.703 0.703 c 7321 16896 m  7321 16746 l  ps
gr
gs
0 lw 1 lj 0.703 0.703 0.703 c 7857 16896 m  7857 16746 l  ps
gr
gs
0 lw 1 lj 0.703 0.703 0.703 c 7857 16896 m  7857 16746 l  ps
gr
gs
0 lw 1 lj 0.703 0.703 0.703 c 8393 16896 m  8393 16746 l  ps
gr
gs
0 lw 1 lj 0.703 0.703 0.703 c 8393 16896 m  8393 16746 l  ps
gr
gs
0 lw 1 lj 0.703 0.703 0.703 c 8930 16896 m  8930 16746 l  ps
gr
gs
0 lw 1 lj 0.703 0.703 0.703 c 8930 16896 m  8930 16746 l  ps
gr
gs
0 lw 1 lj 0.703 0.703 0.703 c 9465 16896 m  9465 16746 l  ps
gr
gs
0 lw 1 lj 0.703 0.703 0.703 c 9465 16896 m  9465 16746 l  ps
gr
gs
0 lw 1 lj 0.703 0.703 0.703 c 10002 16896 m  10002 16746 l  ps
gr
gs
0 lw 1 lj 0.703 0.703 0.703 c 10002 16896 m  10002 16746 l  ps
gr
gs
0 lw 1 lj 0.703 0.703 0.703 c 10538 16896 m  10538 16746 l  ps
gr
gs
0 lw 1 lj 0.703 0.703 0.703 c 10538 16896 m  10538 16746 l  ps
gr
gs
0 lw 1 lj 0.703 0.703 0.703 c 11075 16896 m  11075 16746 l  ps
gr
gs
0 lw 1 lj 0.703 0.703 0.703 c 11075 16896 m  11075 16746 l  ps
gr
gs
0 lw 1 lj 0.703 0.703 0.703 c 11611 16896 m  11611 16746 l  ps
gr
gs
0 lw 1 lj 0.703 0.703 0.703 c 11611 16896 m  11611 16746 l  ps
gr
gs
0 lw 1 lj 0.703 0.703 0.703 c 12148 16896 m  12148 16746 l  ps
gr
gs
0 lw 1 lj 0.703 0.703 0.703 c 12148 16896 m  12148 16746 l  ps
gr
gs
0 lw 1 lj 0.703 0.703 0.703 c 12684 16896 m  12684 16746 l  ps
gr
gs
0 lw 1 lj 0.703 0.703 0.703 c 12684 16896 m  12684 16746 l  ps
gr
gs
0 lw 1 lj 0.703 0.703 0.703 c 13221 16896 m  13221 16746 l  ps
gr
gs
0 lw 1 lj 0.703 0.703 0.703 c 13221 16896 m  13221 16746 l  ps
gr
gs
0 lw 1 lj 0.703 0.703 0.703 c 2493 16746 m  13221 16746 l  ps
gr
gs
0 lw 1 lj 0.703 0.703 0.703 c 2343 16746 m  2493 16746 l  ps
gr
gs
0 lw 1 lj 0.703 0.703 0.703 c 2343 16746 m  2493 16746 l  ps
gr
gs
0 lw 1 lj 0.703 0.703 0.703 c 2343 16180 m  2493 16180 l  ps
gr
gs
0 lw 1 lj 0.703 0.703 0.703 c 2343 16180 m  2493 16180 l  ps
gr
gs
0 lw 1 lj 0.703 0.703 0.703 c 2343 15615 m  2493 15615 l  ps
gr
gs
0 lw 1 lj 0.703 0.703 0.703 c 2343 15615 m  2493 15615 l  ps
gr
gs
0 lw 1 lj 0.703 0.703 0.703 c 2343 15049 m  2493 15049 l  ps
gr
gs
0 lw 1 lj 0.703 0.703 0.703 c 2343 15049 m  2493 15049 l  ps
gr
gs
0 lw 1 lj 0.703 0.703 0.703 c 2343 14484 m  2493 14484 l  ps
gr
gs
0 lw 1 lj 0.703 0.703 0.703 c 2343 14484 m  2493 14484 l  ps
gr
gs
0 lw 1 lj 0.703 0.703 0.703 c 2343 13919 m  2493 13919 l  ps
gr
gs
0 lw 1 lj 0.703 0.703 0.703 c 2343 13919 m  2493 13919 l  ps
gr
gs
0 lw 1 lj 0.703 0.703 0.703 c 2343 13354 m  2493 13354 l  ps
gr
gs
0 lw 1 lj 0.703 0.703 0.703 c 2343 13354 m  2493 13354 l  ps
gr
gs
0 lw 1 lj 0.703 0.703 0.703 c 2343 12789 m  2493 12789 l  ps
gr
gs
0 lw 1 lj 0.703 0.703 0.703 c 2343 12789 m  2493 12789 l  ps
gr
gs
0 lw 1 lj 0.703 0.703 0.703 c 2343 12223 m  2493 12223 l  ps
gr
gs
0 lw 1 lj 0.703 0.703 0.703 c 2343 12223 m  2493 12223 l  ps
gr
gs
0 lw 1 lj 0.703 0.703 0.703 c 2343 11658 m  2493 11658 l  ps
gr
gs
0 lw 1 lj 0.703 0.703 0.703 c 2343 11658 m  2493 11658 l  ps
gr
gs
0 lw 1 lj 0.703 0.703 0.703 c 2343 11093 m  2493 11093 l  ps
gr
gs
0 lw 1 lj 0.703 0.703 0.703 c 2343 11093 m  2493 11093 l  ps
gr
gs
0 lw 1 lj 0.703 0.703 0.703 c 2493 16746 m  2493 11093 l  ps
gr
gs
79.99553 lw 1 lj 0.003 0.273 0.527 c 2493 16476 m  3029 16207 l  3565 15938 l 
4102 15669 l  4638 15399 l  5175 15130 l  5711 14861 l  6248 14592 l  6784 14322 l 
7321 14053 l  7857 13784 l  8393 13516 l  8930 13246 l  9465 12977 l  10002 12708 l 
10538 12439 l  11075 12169 l  11611 11900 l  12148 11631 l  12684 11362 l 
13221 11093 l  ps
gr
gs
79.99553 lw 1 lj 1.000 0.261 0.058 c 2493 16463 m  3029 16406 l  3565 16406 l 
4102 16010 l  4638 15841 l  5175 15728 l  5711 15389 l  6248 15162 l  6784 14936 l 
7321 14597 l  7857 14371 l  8393 14032 l  8930 13636 l  9465 13467 l  10002 13241 l 
10538 13184 l  ps
gr
gs
tm setmatrix
-12.99927 -12.99835 t 
0.99994 0.99987 s 
pum
2400 7649 t
0.003 0.003 0.003 c 27 0 m  27 -26 l  89 -26 l  89 -213 l  34 -174 l  34 -204 l 
91 -243 l  120 -243 l  120 -26 l  179 -26 l  179 0 l  27 0 l  p ef
pom
gr
gs
tm setmatrix
-12.99927 -12.99835 t 
0.99994 0.99987 s 
pum
2936 7649 t
0.003 0.003 0.003 c 18 0 m  18 -22 l  24 -35 31 -47 39 -58 ct 48 -68 57 -77 66 -85 ct 
75 -94 84 -101 94 -109 ct 103 -116 111 -123 118 -130 ct 126 -137 132 -145 136 -152 ct 
141 -160 143 -169 143 -179 ct 143 -192 139 -203 131 -210 ct 123 -217 113 -221 99 -221 ct 
85 -221 74 -217 66 -210 ct 57 -203 52 -193 51 -180 ct 19 -183 l  21 -202 30 -218 44 -229 ct 
58 -241 76 -247 99 -247 ct 123 -247 142 -241 155 -229 ct 168 -218 175 -201 175 -180 ct 
175 -171 173 -161 168 -152 ct 164 -143 158 -133 149 -124 ct 141 -115 124 -100 100 -81 ct 
87 -70 77 -60 69 -51 ct 61 -43 55 -34 52 -26 ct 179 -26 l  179 0 l  18 0 l  p ef
pom
gr
gs
tm setmatrix
-12.99927 -12.99835 t 
0.99994 0.99987 s 
pum
3472 7649 t
0.003 0.003 0.003 c 181 -68 m  181 -45 174 -28 159 -16 ct 145 -3 125 3 98 3 ct 74 3 54 -3 40 -14 ct 
25 -25 16 -41 13 -63 ct 46 -66 l  50 -37 67 -23 98 -23 ct 114 -23 126 -27 135 -34 ct 
144 -42 149 -54 149 -69 ct 149 -82 143 -92 133 -100 ct 123 -107 108 -111 89 -111 ct 
72 -111 l  72 -138 l  89 -138 l  106 -138 119 -142 128 -149 ct 138 -156 142 -167 142 -180 ct 
142 -193 138 -203 131 -210 ct 123 -218 112 -221 97 -221 ct 83 -221 72 -218 64 -211 ct 
55 -204 50 -194 49 -182 ct 18 -184 l  20 -204 28 -219 42 -230 ct 57 -241 75 -247 97 -247 ct 
121 -247 140 -241 154 -230 ct 167 -219 174 -203 174 -183 ct 174 -167 170 -155 161 -145 ct 
152 -135 140 -129 123 -125 ct 123 -125 l  141 -123 156 -117 166 -106 ct 176 -96 181 -83 181 -68 ct 
p ef
pom
gr
gs
tm setmatrix
-12.99927 -12.99835 t 
0.99994 0.99987 s 
pum
4009 7649 t
0.003 0.003 0.003 c 152 -55 m  152 0 l  123 0 l  123 -55 l  8 -55 l  8 -79 l 
119 -243 l  152 -243 l  152 -79 l  186 -79 l  186 -55 l  152 -55 l  p
123 -208 m  122 -207 121 -204 118 -199 ct 115 -193 113 -190 111 -187 ct 49 -96 l 
39 -83 l  37 -79 l  123 -79 l  123 -208 l  p ef
pom
gr
gs
tm setmatrix
-12.99927 -12.99835 t 
0.99994 0.99987 s 
pum
4545 7649 t
0.003 0.003 0.003 c 182 -80 m  182 -54 174 -34 159 -19 ct 143 -4 122 3 95 3 ct 73 3 54 -2 41 -12 ct 
27 -22 18 -36 14 -55 ct 46 -58 l  52 -34 69 -22 96 -22 ct 113 -22 126 -27 135 -37 ct 
145 -47 149 -61 149 -79 ct 149 -94 145 -106 135 -116 ct 126 -125 113 -130 97 -130 ct 
88 -130 80 -129 73 -126 ct 66 -123 59 -119 52 -113 ct 21 -113 l  29 -243 l  167 -243 l 
167 -217 l  58 -217 l  53 -140 l  66 -150 83 -155 103 -155 ct 127 -155 146 -148 160 -134 ct 
174 -120 182 -102 182 -80 ct p ef
pom
gr
gs
tm setmatrix
-12.99927 -12.99835 t 
0.99994 0.99987 s 
pum
5082 7649 t
0.003 0.003 0.003 c 181 -80 m  181 -54 174 -34 160 -19 ct 146 -4 127 3 102 3 ct 
75 3 54 -7 40 -28 ct 25 -48 18 -77 18 -116 ct 18 -158 25 -191 41 -213 ct 56 -236 77 -247 105 -247 ct 
141 -247 165 -231 174 -198 ct 144 -192 l  138 -212 125 -222 104 -222 ct 87 -222 73 -214 63 -197 ct 
54 -181 49 -157 49 -126 ct 54 -136 62 -144 73 -150 ct 83 -155 95 -158 108 -158 ct 
130 -158 148 -151 161 -137 ct 174 -123 181 -104 181 -80 ct p
149 -79 m  149 -96 145 -110 136 -120 ct 128 -129 116 -134 100 -134 ct 86 -134 74 -130 65 -121 ct 
56 -113 52 -101 52 -86 ct 52 -67 57 -52 66 -40 ct 75 -28 87 -22 101 -22 ct 116 -22 128 -27 137 -37 ct 
145 -47 149 -61 149 -79 ct p ef
pom
gr
gs
tm setmatrix
-12.99927 -12.99835 t 
0.99994 0.99987 s 
pum
5618 7649 t
0.003 0.003 0.003 c 179 -218 m  154 -180 136 -151 126 -129 ct 116 -108 108 -86 103 -65 ct 
98 -45 95 -23 95 -1 ct 63 -1 l  63 -32 69 -64 83 -98 ct 96 -133 118 -172 149 -217 ct 
18 -217 l  18 -243 l  179 -243 l  179 -218 l  p ef
pom
gr
gs
tm setmatrix
-12.99927 -12.99835 t 
0.99994 0.99987 s 
pum
6155 7649 t
0.003 0.003 0.003 c 181 -68 m  181 -46 174 -28 160 -16 ct 145 -3 125 3 98 3 ct 72 3 52 -3 37 -15 ct 
23 -28 15 -45 15 -68 ct 15 -84 20 -97 29 -108 ct 38 -119 50 -125 64 -128 ct 64 -128 l 
51 -131 40 -138 32 -148 ct 25 -159 21 -171 21 -185 ct 21 -203 28 -218 42 -230 ct 
56 -241 74 -247 98 -247 ct 121 -247 140 -241 154 -230 ct 168 -219 175 -204 175 -184 ct 
175 -171 171 -158 163 -148 ct 156 -138 145 -131 132 -129 ct 132 -128 l  147 -125 159 -119 168 -108 ct 
177 -98 181 -84 181 -68 ct p
143 -183 m  143 -210 128 -224 98 -224 ct 83 -224 72 -220 64 -214 ct 57 -207 53 -196 53 -183 ct 
53 -169 57 -158 65 -151 ct 72 -144 84 -140 98 -140 ct 113 -140 124 -143 131 -150 ct 
139 -157 143 -168 143 -183 ct p
149 -71 m  149 -86 144 -98 135 -105 ct 126 -113 114 -117 98 -117 ct 82 -117 70 -113 61 -104 ct 
52 -96 47 -85 47 -70 ct 47 -37 64 -20 99 -20 ct 115 -20 128 -24 136 -32 ct 145 -41 149 -53 149 -71 ct 
p ef
pom
gr
gs
tm setmatrix
-12.99927 -12.99835 t 
0.99994 0.99987 s 
pum
6691 7649 t
0.003 0.003 0.003 c 180 -127 m  180 -85 172 -53 157 -31 ct 142 -8 120 3 92 3 ct 
73 3 58 -1 46 -9 ct 35 -17 26 -30 22 -48 ct 51 -52 l  57 -32 71 -22 92 -22 ct 110 -22 124 -30 134 -47 ct 
143 -63 148 -87 149 -118 ct 144 -107 136 -99 125 -93 ct 114 -87 102 -84 89 -84 ct 
67 -84 49 -91 36 -106 ct 23 -121 17 -141 17 -165 ct 17 -191 24 -211 38 -225 ct 
52 -240 72 -247 97 -247 ct 124 -247 145 -237 159 -217 ct 173 -197 180 -167 180 -127 ct 
p
146 -157 m  146 -176 141 -192 132 -204 ct 123 -216 111 -222 96 -222 ct 81 -222 70 -217 61 -207 ct 
52 -196 48 -183 48 -165 ct 48 -148 52 -134 61 -123 ct 70 -113 81 -108 96 -108 ct 
105 -108 113 -110 121 -114 ct 129 -118 135 -124 139 -131 ct 144 -139 146 -147 146 -157 ct 
p ef
pom
gr
gs
tm setmatrix
-12.99927 -12.99835 t 
0.99994 0.99987 s 
pum
7136 7649 t
0.003 0.003 0.003 c 27 0 m  27 -26 l  89 -26 l  89 -213 l  34 -174 l  34 -204 l 
91 -243 l  120 -243 l  120 -26 l  179 -26 l  179 0 l  27 0 l  p ef
368 -122 m  368 -81 360 -50 346 -29 ct 332 -8 311 3 283 3 ct 255 3 234 -8 220 -29 ct 
206 -50 199 -81 199 -122 ct 199 -164 206 -195 219 -216 ct 233 -237 254 -247 284 -247 ct 
312 -247 334 -236 347 -215 ct 361 -194 368 -163 368 -122 ct p
336 -122 m  336 -157 332 -182 324 -198 ct 316 -214 302 -222 284 -222 ct 265 -222 251 -214 243 -199 ct 
234 -183 230 -158 230 -122 ct 230 -88 234 -62 243 -46 ct 251 -30 265 -22 283 -22 ct 
301 -22 315 -31 323 -47 ct 332 -63 336 -88 336 -122 ct p ef
pom
gr
gs
tm setmatrix
-12.99927 -12.99835 t 
0.99994 0.99987 s 
pum
7672 7649 t
0.003 0.003 0.003 c 27 0 m  27 -26 l  89 -26 l  89 -213 l  34 -174 l  34 -204 l 
91 -243 l  120 -243 l  120 -26 l  179 -26 l  179 0 l  27 0 l  p ef
212 0 m  212 -26 l  274 -26 l  274 -213 l  219 -174 l  219 -204 l  276 -243 l 
305 -243 l  305 -26 l  364 -26 l  364 0 l  212 0 l  p ef
pom
gr
gs
tm setmatrix
-12.99927 -12.99835 t 
0.99994 0.99987 s 
pum
8208 7649 t
0.003 0.003 0.003 c 27 0 m  27 -26 l  89 -26 l  89 -213 l  34 -174 l  34 -204 l 
91 -243 l  120 -243 l  120 -26 l  179 -26 l  179 0 l  27 0 l  p ef
203 0 m  203 -22 l  209 -35 216 -47 224 -58 ct 233 -68 242 -77 251 -85 ct 260 -94 269 -101 279 -109 ct 
288 -116 296 -123 303 -130 ct 311 -137 317 -145 321 -152 ct 326 -160 328 -169 328 -179 ct 
328 -192 324 -203 316 -210 ct 308 -217 298 -221 284 -221 ct 270 -221 259 -217 251 -210 ct 
242 -203 237 -193 236 -180 ct 204 -183 l  206 -202 215 -218 229 -229 ct 243 -241 261 -247 284 -247 ct 
308 -247 327 -241 340 -229 ct 353 -218 360 -201 360 -180 ct 360 -171 358 -161 353 -152 ct 
349 -143 343 -133 334 -124 ct 326 -115 309 -100 285 -81 ct 272 -70 262 -60 254 -51 ct 
246 -43 240 -34 237 -26 ct 364 -26 l  364 0 l  203 0 l  p ef
pom
gr
gs
tm setmatrix
-12.99927 -12.99835 t 
0.99994 0.99987 s 
pum
8745 7649 t
0.003 0.003 0.003 c 27 0 m  27 -26 l  89 -26 l  89 -213 l  34 -174 l  34 -204 l 
91 -243 l  120 -243 l  120 -26 l  179 -26 l  179 0 l  27 0 l  p ef
366 -68 m  366 -45 359 -28 344 -16 ct 330 -3 310 3 283 3 ct 259 3 239 -3 225 -14 ct 
210 -25 201 -41 198 -63 ct 231 -66 l  235 -37 252 -23 283 -23 ct 299 -23 311 -27 320 -34 ct 
329 -42 334 -54 334 -69 ct 334 -82 328 -92 318 -100 ct 308 -107 293 -111 274 -111 ct 
257 -111 l  257 -138 l  274 -138 l  291 -138 304 -142 313 -149 ct 323 -156 327 -167 327 -180 ct 
327 -193 323 -203 316 -210 ct 308 -218 297 -221 282 -221 ct 268 -221 257 -218 249 -211 ct 
240 -204 235 -194 234 -182 ct 203 -184 l  205 -204 213 -219 227 -230 ct 242 -241 260 -247 282 -247 ct 
306 -247 325 -241 339 -230 ct 352 -219 359 -203 359 -183 ct 359 -167 355 -155 346 -145 ct 
337 -135 325 -129 308 -125 ct 308 -125 l  326 -123 341 -117 351 -106 ct 361 -96 366 -83 366 -68 ct 
p ef
pom
gr
gs
tm setmatrix
-12.99927 -12.99835 t 
0.99994 0.99987 s 
pum
9281 7649 t
0.003 0.003 0.003 c 27 0 m  27 -26 l  89 -26 l  89 -213 l  34 -174 l  34 -204 l 
91 -243 l  120 -243 l  120 -26 l  179 -26 l  179 0 l  27 0 l  p ef
337 -55 m  337 0 l  308 0 l  308 -55 l  193 -55 l  193 -79 l  304 -243 l 
337 -243 l  337 -79 l  371 -79 l  371 -55 l  337 -55 l  p
308 -208 m  307 -207 306 -204 303 -199 ct 300 -193 298 -190 296 -187 ct 234 -96 l 
224 -83 l  222 -79 l  308 -79 l  308 -208 l  p ef
pom
gr
gs
tm setmatrix
-12.99927 -12.99835 t 
0.99994 0.99987 s 
pum
9818 7649 t
0.003 0.003 0.003 c 27 0 m  27 -26 l  89 -26 l  89 -213 l  34 -174 l  34 -204 l 
91 -243 l  120 -243 l  120 -26 l  179 -26 l  179 0 l  27 0 l  p ef
367 -80 m  367 -54 359 -34 344 -19 ct 328 -4 307 3 280 3 ct 258 3 239 -2 226 -12 ct 
212 -22 203 -36 199 -55 ct 231 -58 l  237 -34 254 -22 281 -22 ct 298 -22 311 -27 320 -37 ct 
330 -47 334 -61 334 -79 ct 334 -94 330 -106 320 -116 ct 311 -125 298 -130 282 -130 ct 
273 -130 265 -129 258 -126 ct 251 -123 244 -119 237 -113 ct 206 -113 l  214 -243 l 
352 -243 l  352 -217 l  243 -217 l  238 -140 l  251 -150 268 -155 288 -155 ct 
312 -155 331 -148 345 -134 ct 359 -120 367 -102 367 -80 ct p ef
pom
gr
gs
tm setmatrix
-12.99927 -12.99835 t 
0.99994 0.99987 s 
pum
10354 7649 t
0.003 0.003 0.003 c 27 0 m  27 -26 l  89 -26 l  89 -213 l  34 -174 l  34 -204 l 
91 -243 l  120 -243 l  120 -26 l  179 -26 l  179 0 l  27 0 l  p ef
366 -80 m  366 -54 359 -34 345 -19 ct 331 -4 312 3 287 3 ct 260 3 239 -7 225 -28 ct 
210 -48 203 -77 203 -116 ct 203 -158 210 -191 226 -213 ct 241 -236 262 -247 290 -247 ct 
326 -247 350 -231 359 -198 ct 329 -192 l  323 -212 310 -222 289 -222 ct 272 -222 258 -214 248 -197 ct 
239 -181 234 -157 234 -126 ct 239 -136 247 -144 258 -150 ct 268 -155 280 -158 293 -158 ct 
315 -158 333 -151 346 -137 ct 359 -123 366 -104 366 -80 ct p
334 -79 m  334 -96 330 -110 321 -120 ct 313 -129 301 -134 285 -134 ct 271 -134 259 -130 250 -121 ct 
241 -113 237 -101 237 -86 ct 237 -67 242 -52 251 -40 ct 260 -28 272 -22 286 -22 ct 
301 -22 313 -27 322 -37 ct 330 -47 334 -61 334 -79 ct p ef
pom
gr
gs
tm setmatrix
-12.99927 -12.99835 t 
0.99994 0.99987 s 
pum
10891 7649 t
0.003 0.003 0.003 c 27 0 m  27 -26 l  89 -26 l  89 -213 l  34 -174 l  34 -204 l 
91 -243 l  120 -243 l  120 -26 l  179 -26 l  179 0 l  27 0 l  p ef
364 -218 m  339 -180 321 -151 311 -129 ct 301 -108 293 -86 288 -65 ct 283 -45 280 -23 280 -1 ct 
248 -1 l  248 -32 254 -64 268 -98 ct 281 -133 303 -172 334 -217 ct 203 -217 l 
203 -243 l  364 -243 l  364 -218 l  p ef
pom
gr
gs
tm setmatrix
-12.99927 -12.99835 t 
0.99994 0.99987 s 
pum
11427 7649 t
0.003 0.003 0.003 c 27 0 m  27 -26 l  89 -26 l  89 -213 l  34 -174 l  34 -204 l 
91 -243 l  120 -243 l  120 -26 l  179 -26 l  179 0 l  27 0 l  p ef
366 -68 m  366 -46 359 -28 345 -16 ct 330 -3 310 3 283 3 ct 257 3 237 -3 222 -15 ct 
208 -28 200 -45 200 -68 ct 200 -84 205 -97 214 -108 ct 223 -119 235 -125 249 -128 ct 
249 -128 l  236 -131 225 -138 217 -148 ct 210 -159 206 -171 206 -185 ct 206 -203 213 -218 227 -230 ct 
241 -241 259 -247 283 -247 ct 306 -247 325 -241 339 -230 ct 353 -219 360 -204 360 -184 ct 
360 -171 356 -158 348 -148 ct 341 -138 330 -131 317 -129 ct 317 -128 l  332 -125 344 -119 353 -108 ct 
362 -98 366 -84 366 -68 ct p
328 -183 m  328 -210 313 -224 283 -224 ct 268 -224 257 -220 249 -214 ct 242 -207 238 -196 238 -183 ct 
238 -169 242 -158 250 -151 ct 257 -144 269 -140 283 -140 ct 298 -140 309 -143 316 -150 ct 
324 -157 328 -168 328 -183 ct p
334 -71 m  334 -86 329 -98 320 -105 ct 311 -113 299 -117 283 -117 ct 267 -117 255 -113 246 -104 ct 
237 -96 232 -85 232 -70 ct 232 -37 249 -20 284 -20 ct 300 -20 313 -24 321 -32 ct 
330 -41 334 -53 334 -71 ct p ef
pom
gr
gs
tm setmatrix
-12.99927 -12.99835 t 
0.99994 0.99987 s 
pum
11964 7649 t
0.003 0.003 0.003 c 27 0 m  27 -26 l  89 -26 l  89 -213 l  34 -174 l  34 -204 l 
91 -243 l  120 -243 l  120 -26 l  179 -26 l  179 0 l  27 0 l  p ef
365 -127 m  365 -85 357 -53 342 -31 ct 327 -8 305 3 277 3 ct 258 3 243 -1 231 -9 ct 
220 -17 211 -30 207 -48 ct 236 -52 l  242 -32 256 -22 277 -22 ct 295 -22 309 -30 319 -47 ct 
328 -63 333 -87 334 -118 ct 329 -107 321 -99 310 -93 ct 299 -87 287 -84 274 -84 ct 
252 -84 234 -91 221 -106 ct 208 -121 202 -141 202 -165 ct 202 -191 209 -211 223 -225 ct 
237 -240 257 -247 282 -247 ct 309 -247 330 -237 344 -217 ct 358 -197 365 -167 365 -127 ct 
p
331 -157 m  331 -176 326 -192 317 -204 ct 308 -216 296 -222 281 -222 ct 266 -222 255 -217 246 -207 ct 
237 -196 233 -183 233 -165 ct 233 -148 237 -134 246 -123 ct 255 -113 266 -108 281 -108 ct 
290 -108 298 -110 306 -114 ct 314 -118 320 -124 324 -131 ct 329 -139 331 -147 331 -157 ct 
p ef
pom
gr
gs
tm setmatrix
-12.99927 -12.99835 t 
0.99994 0.99987 s 
pum
12500 7649 t
0.003 0.003 0.003 c 18 0 m  18 -22 l  24 -35 31 -47 39 -58 ct 48 -68 57 -77 66 -85 ct 
75 -94 84 -101 94 -109 ct 103 -116 111 -123 118 -130 ct 126 -137 132 -145 136 -152 ct 
141 -160 143 -169 143 -179 ct 143 -192 139 -203 131 -210 ct 123 -217 113 -221 99 -221 ct 
85 -221 74 -217 66 -210 ct 57 -203 52 -193 51 -180 ct 19 -183 l  21 -202 30 -218 44 -229 ct 
58 -241 76 -247 99 -247 ct 123 -247 142 -241 155 -229 ct 168 -218 175 -201 175 -180 ct 
175 -171 173 -161 168 -152 ct 164 -143 158 -133 149 -124 ct 141 -115 124 -100 100 -81 ct 
87 -70 77 -60 69 -51 ct 61 -43 55 -34 52 -26 ct 179 -26 l  179 0 l  18 0 l  p ef
368 -122 m  368 -81 360 -50 346 -29 ct 332 -8 311 3 283 3 ct 255 3 234 -8 220 -29 ct 
206 -50 199 -81 199 -122 ct 199 -164 206 -195 219 -216 ct 233 -237 254 -247 284 -247 ct 
312 -247 334 -236 347 -215 ct 361 -194 368 -163 368 -122 ct p
336 -122 m  336 -157 332 -182 324 -198 ct 316 -214 302 -222 284 -222 ct 265 -222 251 -214 243 -199 ct 
234 -183 230 -158 230 -122 ct 230 -88 234 -62 243 -46 ct 251 -30 265 -22 283 -22 ct 
301 -22 315 -31 323 -47 ct 332 -63 336 -88 336 -122 ct p ef
pom
gr
gs
tm setmatrix
-12.99927 -12.99835 t 
0.99994 0.99987 s 
pum
13037 7649 t
0.003 0.003 0.003 c 18 0 m  18 -22 l  24 -35 31 -47 39 -58 ct 48 -68 57 -77 66 -85 ct 
75 -94 84 -101 94 -109 ct 103 -116 111 -123 118 -130 ct 126 -137 132 -145 136 -152 ct 
141 -160 143 -169 143 -179 ct 143 -192 139 -203 131 -210 ct 123 -217 113 -221 99 -221 ct 
85 -221 74 -217 66 -210 ct 57 -203 52 -193 51 -180 ct 19 -183 l  21 -202 30 -218 44 -229 ct 
58 -241 76 -247 99 -247 ct 123 -247 142 -241 155 -229 ct 168 -218 175 -201 175 -180 ct 
175 -171 173 -161 168 -152 ct 164 -143 158 -133 149 -124 ct 141 -115 124 -100 100 -81 ct 
87 -70 77 -60 69 -51 ct 61 -43 55 -34 52 -26 ct 179 -26 l  179 0 l  18 0 l  p ef
212 0 m  212 -26 l  274 -26 l  274 -213 l  219 -174 l  219 -204 l  276 -243 l 
305 -243 l  305 -26 l  364 -26 l  364 0 l  212 0 l  p ef
pom
gr
gs
tm setmatrix
-12.99927 -12.99835 t 
0.99994 0.99987 s 
pum
1767 7201 t
0.003 0.003 0.003 c 183 -122 m  183 -81 175 -50 161 -29 ct 147 -8 126 3 98 3 ct 
70 3 49 -8 35 -29 ct 21 -50 14 -81 14 -122 ct 14 -164 21 -195 34 -216 ct 48 -237 69 -247 99 -247 ct 
127 -247 149 -236 162 -215 ct 176 -194 183 -163 183 -122 ct p
151 -122 m  151 -157 147 -182 139 -198 ct 131 -214 117 -222 99 -222 ct 80 -222 66 -214 58 -199 ct 
49 -183 45 -158 45 -122 ct 45 -88 49 -62 58 -46 ct 66 -30 80 -22 98 -22 ct 116 -22 130 -31 138 -47 ct 
147 -63 151 -88 151 -122 ct p ef
486 -75 m  486 -50 482 -31 472 -18 ct 463 -5 449 2 431 2 ct 413 2 400 -4 391 -17 ct 
381 -30 377 -50 377 -75 ct 377 -101 381 -121 390 -134 ct 399 -147 413 -153 432 -153 ct 
451 -153 464 -146 473 -133 ct 482 -120 486 -101 486 -75 ct p
276 0 m  249 0 l  408 -243 l  435 -243 l  276 0 l  p
253 -245 m  271 -245 285 -239 294 -226 ct 302 -213 307 -194 307 -168 ct 307 -143 302 -124 293 -111 ct 
284 -97 270 -91 252 -91 ct 234 -91 220 -97 211 -110 ct 202 -124 198 -143 198 -168 ct 
198 -194 202 -213 211 -226 ct 220 -239 234 -245 253 -245 ct p
461 -75 m  461 -96 459 -111 454 -120 ct 450 -129 442 -134 432 -134 ct 421 -134 414 -129 409 -120 ct 
405 -111 402 -96 402 -75 ct 402 -55 404 -41 409 -31 ct 414 -22 421 -17 431 -17 ct 
442 -17 449 -22 454 -31 ct 458 -41 461 -56 461 -75 ct p
282 -168 m  282 -188 279 -203 275 -212 ct 271 -222 263 -226 253 -226 ct 242 -226 234 -222 230 -213 ct 
225 -204 223 -189 223 -168 ct 223 -148 225 -134 230 -124 ct 234 -115 242 -110 253 -110 ct 
263 -110 270 -115 275 -124 ct 279 -134 282 -149 282 -168 ct p ef
pom
gr
gs
tm setmatrix
-12.99927 -12.99835 t 
0.99994 0.99987 s 
pum
1555 6635 t
0.003 0.003 0.003 c 27 0 m  27 -26 l  89 -26 l  89 -213 l  34 -174 l  34 -204 l 
91 -243 l  120 -243 l  120 -26 l  179 -26 l  179 0 l  27 0 l  p ef
368 -122 m  368 -81 360 -50 346 -29 ct 332 -8 311 3 283 3 ct 255 3 234 -8 220 -29 ct 
206 -50 199 -81 199 -122 ct 199 -164 206 -195 219 -216 ct 233 -237 254 -247 284 -247 ct 
312 -247 334 -236 347 -215 ct 361 -194 368 -163 368 -122 ct p
336 -122 m  336 -157 332 -182 324 -198 ct 316 -214 302 -222 284 -222 ct 265 -222 251 -214 243 -199 ct 
234 -183 230 -158 230 -122 ct 230 -88 234 -62 243 -46 ct 251 -30 265 -22 283 -22 ct 
301 -22 315 -31 323 -47 ct 332 -63 336 -88 336 -122 ct p ef
671 -75 m  671 -50 667 -31 657 -18 ct 648 -5 634 2 616 2 ct 598 2 585 -4 576 -17 ct 
566 -30 562 -50 562 -75 ct 562 -101 566 -121 575 -134 ct 584 -147 598 -153 617 -153 ct 
636 -153 649 -146 658 -133 ct 667 -120 671 -101 671 -75 ct p
461 0 m  434 0 l  593 -243 l  620 -243 l  461 0 l  p
438 -245 m  456 -245 470 -239 479 -226 ct 487 -213 492 -194 492 -168 ct 492 -143 487 -124 478 -111 ct 
469 -97 455 -91 437 -91 ct 419 -91 405 -97 396 -110 ct 387 -124 383 -143 383 -168 ct 
383 -194 387 -213 396 -226 ct 405 -239 419 -245 438 -245 ct p
646 -75 m  646 -96 644 -111 639 -120 ct 635 -129 627 -134 617 -134 ct 606 -134 599 -129 594 -120 ct 
590 -111 587 -96 587 -75 ct 587 -55 589 -41 594 -31 ct 599 -22 606 -17 616 -17 ct 
627 -17 634 -22 639 -31 ct 643 -41 646 -56 646 -75 ct p
467 -168 m  467 -188 464 -203 460 -212 ct 456 -222 448 -226 438 -226 ct 427 -226 419 -222 415 -213 ct 
410 -204 408 -189 408 -168 ct 408 -148 410 -134 415 -124 ct 419 -115 427 -110 438 -110 ct 
448 -110 455 -115 460 -124 ct 464 -134 467 -149 467 -168 ct p ef
pom
gr
gs
tm setmatrix
-12.99927 -12.99835 t 
0.99994 0.99987 s 
pum
1555 6070 t
0.003 0.003 0.003 c 18 0 m  18 -22 l  24 -35 31 -47 39 -58 ct 48 -68 57 -77 66 -85 ct 
75 -94 84 -101 94 -109 ct 103 -116 111 -123 118 -130 ct 126 -137 132 -145 136 -152 ct 
141 -160 143 -169 143 -179 ct 143 -192 139 -203 131 -210 ct 123 -217 113 -221 99 -221 ct 
85 -221 74 -217 66 -210 ct 57 -203 52 -193 51 -180 ct 19 -183 l  21 -202 30 -218 44 -229 ct 
58 -241 76 -247 99 -247 ct 123 -247 142 -241 155 -229 ct 168 -218 175 -201 175 -180 ct 
175 -171 173 -161 168 -152 ct 164 -143 158 -133 149 -124 ct 141 -115 124 -100 100 -81 ct 
87 -70 77 -60 69 -51 ct 61 -43 55 -34 52 -26 ct 179 -26 l  179 0 l  18 0 l  p ef
368 -122 m  368 -81 360 -50 346 -29 ct 332 -8 311 3 283 3 ct 255 3 234 -8 220 -29 ct 
206 -50 199 -81 199 -122 ct 199 -164 206 -195 219 -216 ct 233 -237 254 -247 284 -247 ct 
312 -247 334 -236 347 -215 ct 361 -194 368 -163 368 -122 ct p
336 -122 m  336 -157 332 -182 324 -198 ct 316 -214 302 -222 284 -222 ct 265 -222 251 -214 243 -199 ct 
234 -183 230 -158 230 -122 ct 230 -88 234 -62 243 -46 ct 251 -30 265 -22 283 -22 ct 
301 -22 315 -31 323 -47 ct 332 -63 336 -88 336 -122 ct p ef
671 -75 m  671 -50 667 -31 657 -18 ct 648 -5 634 2 616 2 ct 598 2 585 -4 576 -17 ct 
566 -30 562 -50 562 -75 ct 562 -101 566 -121 575 -134 ct 584 -147 598 -153 617 -153 ct 
636 -153 649 -146 658 -133 ct 667 -120 671 -101 671 -75 ct p
461 0 m  434 0 l  593 -243 l  620 -243 l  461 0 l  p
438 -245 m  456 -245 470 -239 479 -226 ct 487 -213 492 -194 492 -168 ct 492 -143 487 -124 478 -111 ct 
469 -97 455 -91 437 -91 ct 419 -91 405 -97 396 -110 ct 387 -124 383 -143 383 -168 ct 
383 -194 387 -213 396 -226 ct 405 -239 419 -245 438 -245 ct p
646 -75 m  646 -96 644 -111 639 -120 ct 635 -129 627 -134 617 -134 ct 606 -134 599 -129 594 -120 ct 
590 -111 587 -96 587 -75 ct 587 -55 589 -41 594 -31 ct 599 -22 606 -17 616 -17 ct 
627 -17 634 -22 639 -31 ct 643 -41 646 -56 646 -75 ct p
467 -168 m  467 -188 464 -203 460 -212 ct 456 -222 448 -226 438 -226 ct 427 -226 419 -222 415 -213 ct 
410 -204 408 -189 408 -168 ct 408 -148 410 -134 415 -124 ct 419 -115 427 -110 438 -110 ct 
448 -110 455 -115 460 -124 ct 464 -134 467 -149 467 -168 ct p ef
pom
gr
gs
tm setmatrix
-12.99927 -12.99835 t 
0.99994 0.99987 s 
pum
1555 5504 t
0.003 0.003 0.003 c 181 -68 m  181 -45 174 -28 159 -16 ct 145 -3 125 3 98 3 ct 74 3 54 -3 40 -14 ct 
25 -25 16 -41 13 -63 ct 46 -66 l  50 -37 67 -23 98 -23 ct 114 -23 126 -27 135 -34 ct 
144 -42 149 -54 149 -69 ct 149 -82 143 -92 133 -100 ct 123 -107 108 -111 89 -111 ct 
72 -111 l  72 -138 l  89 -138 l  106 -138 119 -142 128 -149 ct 138 -156 142 -167 142 -180 ct 
142 -193 138 -203 131 -210 ct 123 -218 112 -221 97 -221 ct 83 -221 72 -218 64 -211 ct 
55 -204 50 -194 49 -182 ct 18 -184 l  20 -204 28 -219 42 -230 ct 57 -241 75 -247 97 -247 ct 
121 -247 140 -241 154 -230 ct 167 -219 174 -203 174 -183 ct 174 -167 170 -155 161 -145 ct 
152 -135 140 -129 123 -125 ct 123 -125 l  141 -123 156 -117 166 -106 ct 176 -96 181 -83 181 -68 ct 
p ef
368 -122 m  368 -81 360 -50 346 -29 ct 332 -8 311 3 283 3 ct 255 3 234 -8 220 -29 ct 
206 -50 199 -81 199 -122 ct 199 -164 206 -195 219 -216 ct 233 -237 254 -247 284 -247 ct 
312 -247 334 -236 347 -215 ct 361 -194 368 -163 368 -122 ct p
336 -122 m  336 -157 332 -182 324 -198 ct 316 -214 302 -222 284 -222 ct 265 -222 251 -214 243 -199 ct 
234 -183 230 -158 230 -122 ct 230 -88 234 -62 243 -46 ct 251 -30 265 -22 283 -22 ct 
301 -22 315 -31 323 -47 ct 332 -63 336 -88 336 -122 ct p ef
671 -75 m  671 -50 667 -31 657 -18 ct 648 -5 634 2 616 2 ct 598 2 585 -4 576 -17 ct 
566 -30 562 -50 562 -75 ct 562 -101 566 -121 575 -134 ct 584 -147 598 -153 617 -153 ct 
636 -153 649 -146 658 -133 ct 667 -120 671 -101 671 -75 ct p
461 0 m  434 0 l  593 -243 l  620 -243 l  461 0 l  p
438 -245 m  456 -245 470 -239 479 -226 ct 487 -213 492 -194 492 -168 ct 492 -143 487 -124 478 -111 ct 
469 -97 455 -91 437 -91 ct 419 -91 405 -97 396 -110 ct 387 -124 383 -143 383 -168 ct 
383 -194 387 -213 396 -226 ct 405 -239 419 -245 438 -245 ct p
646 -75 m  646 -96 644 -111 639 -120 ct 635 -129 627 -134 617 -134 ct 606 -134 599 -129 594 -120 ct 
590 -111 587 -96 587 -75 ct 587 -55 589 -41 594 -31 ct 599 -22 606 -17 616 -17 ct 
627 -17 634 -22 639 -31 ct 643 -41 646 -56 646 -75 ct p
467 -168 m  467 -188 464 -203 460 -212 ct 456 -222 448 -226 438 -226 ct 427 -226 419 -222 415 -213 ct 
410 -204 408 -189 408 -168 ct 408 -148 410 -134 415 -124 ct 419 -115 427 -110 438 -110 ct 
448 -110 455 -115 460 -124 ct 464 -134 467 -149 467 -168 ct p ef
pom
gr
gs
tm setmatrix
-12.99927 -12.99835 t 
0.99994 0.99987 s 
pum
1555 4939 t
0.003 0.003 0.003 c 152 -55 m  152 0 l  123 0 l  123 -55 l  8 -55 l  8 -79 l 
119 -243 l  152 -243 l  152 -79 l  186 -79 l  186 -55 l  152 -55 l  p
123 -208 m  122 -207 121 -204 118 -199 ct 115 -193 113 -190 111 -187 ct 49 -96 l 
39 -83 l  37 -79 l  123 -79 l  123 -208 l  p ef
368 -122 m  368 -81 360 -50 346 -29 ct 332 -8 311 3 283 3 ct 255 3 234 -8 220 -29 ct 
206 -50 199 -81 199 -122 ct 199 -164 206 -195 219 -216 ct 233 -237 254 -247 284 -247 ct 
312 -247 334 -236 347 -215 ct 361 -194 368 -163 368 -122 ct p
336 -122 m  336 -157 332 -182 324 -198 ct 316 -214 302 -222 284 -222 ct 265 -222 251 -214 243 -199 ct 
234 -183 230 -158 230 -122 ct 230 -88 234 -62 243 -46 ct 251 -30 265 -22 283 -22 ct 
301 -22 315 -31 323 -47 ct 332 -63 336 -88 336 -122 ct p ef
671 -75 m  671 -50 667 -31 657 -18 ct 648 -5 634 2 616 2 ct 598 2 585 -4 576 -17 ct 
566 -30 562 -50 562 -75 ct 562 -101 566 -121 575 -134 ct 584 -147 598 -153 617 -153 ct 
636 -153 649 -146 658 -133 ct 667 -120 671 -101 671 -75 ct p
461 0 m  434 0 l  593 -243 l  620 -243 l  461 0 l  p
438 -245 m  456 -245 470 -239 479 -226 ct 487 -213 492 -194 492 -168 ct 492 -143 487 -124 478 -111 ct 
469 -97 455 -91 437 -91 ct 419 -91 405 -97 396 -110 ct 387 -124 383 -143 383 -168 ct 
383 -194 387 -213 396 -226 ct 405 -239 419 -245 438 -245 ct p
646 -75 m  646 -96 644 -111 639 -120 ct 635 -129 627 -134 617 -134 ct 606 -134 599 -129 594 -120 ct 
590 -111 587 -96 587 -75 ct 587 -55 589 -41 594 -31 ct 599 -22 606 -17 616 -17 ct 
627 -17 634 -22 639 -31 ct 643 -41 646 -56 646 -75 ct p
467 -168 m  467 -188 464 -203 460 -212 ct 456 -222 448 -226 438 -226 ct 427 -226 419 -222 415 -213 ct 
410 -204 408 -189 408 -168 ct 408 -148 410 -134 415 -124 ct 419 -115 427 -110 438 -110 ct 
448 -110 455 -115 460 -124 ct 464 -134 467 -149 467 -168 ct p ef
pom
gr
gs
tm setmatrix
-12.99927 -12.99835 t 
0.99994 0.99987 s 
pum
1555 4374 t
0.003 0.003 0.003 c 182 -80 m  182 -54 174 -34 159 -19 ct 143 -4 122 3 95 3 ct 73 3 54 -2 41 -12 ct 
27 -22 18 -36 14 -55 ct 46 -58 l  52 -34 69 -22 96 -22 ct 113 -22 126 -27 135 -37 ct 
145 -47 149 -61 149 -79 ct 149 -94 145 -106 135 -116 ct 126 -125 113 -130 97 -130 ct 
88 -130 80 -129 73 -126 ct 66 -123 59 -119 52 -113 ct 21 -113 l  29 -243 l  167 -243 l 
167 -217 l  58 -217 l  53 -140 l  66 -150 83 -155 103 -155 ct 127 -155 146 -148 160 -134 ct 
174 -120 182 -102 182 -80 ct p ef
368 -122 m  368 -81 360 -50 346 -29 ct 332 -8 311 3 283 3 ct 255 3 234 -8 220 -29 ct 
206 -50 199 -81 199 -122 ct 199 -164 206 -195 219 -216 ct 233 -237 254 -247 284 -247 ct 
312 -247 334 -236 347 -215 ct 361 -194 368 -163 368 -122 ct p
336 -122 m  336 -157 332 -182 324 -198 ct 316 -214 302 -222 284 -222 ct 265 -222 251 -214 243 -199 ct 
234 -183 230 -158 230 -122 ct 230 -88 234 -62 243 -46 ct 251 -30 265 -22 283 -22 ct 
301 -22 315 -31 323 -47 ct 332 -63 336 -88 336 -122 ct p ef
671 -75 m  671 -50 667 -31 657 -18 ct 648 -5 634 2 616 2 ct 598 2 585 -4 576 -17 ct 
566 -30 562 -50 562 -75 ct 562 -101 566 -121 575 -134 ct 584 -147 598 -153 617 -153 ct 
636 -153 649 -146 658 -133 ct 667 -120 671 -101 671 -75 ct p
461 0 m  434 0 l  593 -243 l  620 -243 l  461 0 l  p
438 -245 m  456 -245 470 -239 479 -226 ct 487 -213 492 -194 492 -168 ct 492 -143 487 -124 478 -111 ct 
469 -97 455 -91 437 -91 ct 419 -91 405 -97 396 -110 ct 387 -124 383 -143 383 -168 ct 
383 -194 387 -213 396 -226 ct 405 -239 419 -245 438 -245 ct p
646 -75 m  646 -96 644 -111 639 -120 ct 635 -129 627 -134 617 -134 ct 606 -134 599 -129 594 -120 ct 
590 -111 587 -96 587 -75 ct 587 -55 589 -41 594 -31 ct 599 -22 606 -17 616 -17 ct 
627 -17 634 -22 639 -31 ct 643 -41 646 -56 646 -75 ct p
467 -168 m  467 -188 464 -203 460 -212 ct 456 -222 448 -226 438 -226 ct 427 -226 419 -222 415 -213 ct 
410 -204 408 -189 408 -168 ct 408 -148 410 -134 415 -124 ct 419 -115 427 -110 438 -110 ct 
448 -110 455 -115 460 -124 ct 464 -134 467 -149 467 -168 ct p ef
pom
gr
gs
tm setmatrix
-12.99927 -12.99835 t 
0.99994 0.99987 s 
pum
1555 3808 t
0.003 0.003 0.003 c 181 -80 m  181 -54 174 -34 160 -19 ct 146 -4 127 3 102 3 ct 
75 3 54 -7 40 -28 ct 25 -48 18 -77 18 -116 ct 18 -158 25 -191 41 -213 ct 56 -236 77 -247 105 -247 ct 
141 -247 165 -231 174 -198 ct 144 -192 l  138 -212 125 -222 104 -222 ct 87 -222 73 -214 63 -197 ct 
54 -181 49 -157 49 -126 ct 54 -136 62 -144 73 -150 ct 83 -155 95 -158 108 -158 ct 
130 -158 148 -151 161 -137 ct 174 -123 181 -104 181 -80 ct p
149 -79 m  149 -96 145 -110 136 -120 ct 128 -129 116 -134 100 -134 ct 86 -134 74 -130 65 -121 ct 
56 -113 52 -101 52 -86 ct 52 -67 57 -52 66 -40 ct 75 -28 87 -22 101 -22 ct 116 -22 128 -27 137 -37 ct 
145 -47 149 -61 149 -79 ct p ef
368 -122 m  368 -81 360 -50 346 -29 ct 332 -8 311 3 283 3 ct 255 3 234 -8 220 -29 ct 
206 -50 199 -81 199 -122 ct 199 -164 206 -195 219 -216 ct 233 -237 254 -247 284 -247 ct 
312 -247 334 -236 347 -215 ct 361 -194 368 -163 368 -122 ct p
336 -122 m  336 -157 332 -182 324 -198 ct 316 -214 302 -222 284 -222 ct 265 -222 251 -214 243 -199 ct 
234 -183 230 -158 230 -122 ct 230 -88 234 -62 243 -46 ct 251 -30 265 -22 283 -22 ct 
301 -22 315 -31 323 -47 ct 332 -63 336 -88 336 -122 ct p ef
671 -75 m  671 -50 667 -31 657 -18 ct 648 -5 634 2 616 2 ct 598 2 585 -4 576 -17 ct 
566 -30 562 -50 562 -75 ct 562 -101 566 -121 575 -134 ct 584 -147 598 -153 617 -153 ct 
636 -153 649 -146 658 -133 ct 667 -120 671 -101 671 -75 ct p
461 0 m  434 0 l  593 -243 l  620 -243 l  461 0 l  p
438 -245 m  456 -245 470 -239 479 -226 ct 487 -213 492 -194 492 -168 ct 492 -143 487 -124 478 -111 ct 
469 -97 455 -91 437 -91 ct 419 -91 405 -97 396 -110 ct 387 -124 383 -143 383 -168 ct 
383 -194 387 -213 396 -226 ct 405 -239 419 -245 438 -245 ct p
646 -75 m  646 -96 644 -111 639 -120 ct 635 -129 627 -134 617 -134 ct 606 -134 599 -129 594 -120 ct 
590 -111 587 -96 587 -75 ct 587 -55 589 -41 594 -31 ct 599 -22 606 -17 616 -17 ct 
627 -17 634 -22 639 -31 ct 643 -41 646 -56 646 -75 ct p
467 -168 m  467 -188 464 -203 460 -212 ct 456 -222 448 -226 438 -226 ct 427 -226 419 -222 415 -213 ct 
410 -204 408 -189 408 -168 ct 408 -148 410 -134 415 -124 ct 419 -115 427 -110 438 -110 ct 
448 -110 455 -115 460 -124 ct 464 -134 467 -149 467 -168 ct p ef
pom
gr
gs
tm setmatrix
-12.99927 -12.99835 t 
0.99994 0.99987 s 
pum
1555 3243 t
0.003 0.003 0.003 c 179 -218 m  154 -180 136 -151 126 -129 ct 116 -108 108 -86 103 -65 ct 
98 -45 95 -23 95 -1 ct 63 -1 l  63 -32 69 -64 83 -98 ct 96 -133 118 -172 149 -217 ct 
18 -217 l  18 -243 l  179 -243 l  179 -218 l  p ef
368 -122 m  368 -81 360 -50 346 -29 ct 332 -8 311 3 283 3 ct 255 3 234 -8 220 -29 ct 
206 -50 199 -81 199 -122 ct 199 -164 206 -195 219 -216 ct 233 -237 254 -247 284 -247 ct 
312 -247 334 -236 347 -215 ct 361 -194 368 -163 368 -122 ct p
336 -122 m  336 -157 332 -182 324 -198 ct 316 -214 302 -222 284 -222 ct 265 -222 251 -214 243 -199 ct 
234 -183 230 -158 230 -122 ct 230 -88 234 -62 243 -46 ct 251 -30 265 -22 283 -22 ct 
301 -22 315 -31 323 -47 ct 332 -63 336 -88 336 -122 ct p ef
671 -75 m  671 -50 667 -31 657 -18 ct 648 -5 634 2 616 2 ct 598 2 585 -4 576 -17 ct 
566 -30 562 -50 562 -75 ct 562 -101 566 -121 575 -134 ct 584 -147 598 -153 617 -153 ct 
636 -153 649 -146 658 -133 ct 667 -120 671 -101 671 -75 ct p
461 0 m  434 0 l  593 -243 l  620 -243 l  461 0 l  p
438 -245 m  456 -245 470 -239 479 -226 ct 487 -213 492 -194 492 -168 ct 492 -143 487 -124 478 -111 ct 
469 -97 455 -91 437 -91 ct 419 -91 405 -97 396 -110 ct 387 -124 383 -143 383 -168 ct 
383 -194 387 -213 396 -226 ct 405 -239 419 -245 438 -245 ct p
646 -75 m  646 -96 644 -111 639 -120 ct 635 -129 627 -134 617 -134 ct 606 -134 599 -129 594 -120 ct 
590 -111 587 -96 587 -75 ct 587 -55 589 -41 594 -31 ct 599 -22 606 -17 616 -17 ct 
627 -17 634 -22 639 -31 ct 643 -41 646 -56 646 -75 ct p
467 -168 m  467 -188 464 -203 460 -212 ct 456 -222 448 -226 438 -226 ct 427 -226 419 -222 415 -213 ct 
410 -204 408 -189 408 -168 ct 408 -148 410 -134 415 -124 ct 419 -115 427 -110 438 -110 ct 
448 -110 455 -115 460 -124 ct 464 -134 467 -149 467 -168 ct p ef
pom
gr
gs
tm setmatrix
-12.99927 -12.99835 t 
0.99994 0.99987 s 
pum
1555 2677 t
0.003 0.003 0.003 c 181 -68 m  181 -46 174 -28 160 -16 ct 145 -3 125 3 98 3 ct 72 3 52 -3 37 -15 ct 
23 -28 15 -45 15 -68 ct 15 -84 20 -97 29 -108 ct 38 -119 50 -125 64 -128 ct 64 -128 l 
51 -131 40 -138 32 -148 ct 25 -159 21 -171 21 -185 ct 21 -203 28 -218 42 -230 ct 
56 -241 74 -247 98 -247 ct 121 -247 140 -241 154 -230 ct 168 -219 175 -204 175 -184 ct 
175 -171 171 -158 163 -148 ct 156 -138 145 -131 132 -129 ct 132 -128 l  147 -125 159 -119 168 -108 ct 
177 -98 181 -84 181 -68 ct p
143 -183 m  143 -210 128 -224 98 -224 ct 83 -224 72 -220 64 -214 ct 57 -207 53 -196 53 -183 ct 
53 -169 57 -158 65 -151 ct 72 -144 84 -140 98 -140 ct 113 -140 124 -143 131 -150 ct 
139 -157 143 -168 143 -183 ct p
149 -71 m  149 -86 144 -98 135 -105 ct 126 -113 114 -117 98 -117 ct 82 -117 70 -113 61 -104 ct 
52 -96 47 -85 47 -70 ct 47 -37 64 -20 99 -20 ct 115 -20 128 -24 136 -32 ct 145 -41 149 -53 149 -71 ct 
p ef
368 -122 m  368 -81 360 -50 346 -29 ct 332 -8 311 3 283 3 ct 255 3 234 -8 220 -29 ct 
206 -50 199 -81 199 -122 ct 199 -164 206 -195 219 -216 ct 233 -237 254 -247 284 -247 ct 
312 -247 334 -236 347 -215 ct 361 -194 368 -163 368 -122 ct p
336 -122 m  336 -157 332 -182 324 -198 ct 316 -214 302 -222 284 -222 ct 265 -222 251 -214 243 -199 ct 
234 -183 230 -158 230 -122 ct 230 -88 234 -62 243 -46 ct 251 -30 265 -22 283 -22 ct 
301 -22 315 -31 323 -47 ct 332 -63 336 -88 336 -122 ct p ef
671 -75 m  671 -50 667 -31 657 -18 ct 648 -5 634 2 616 2 ct 598 2 585 -4 576 -17 ct 
566 -30 562 -50 562 -75 ct 562 -101 566 -121 575 -134 ct 584 -147 598 -153 617 -153 ct 
636 -153 649 -146 658 -133 ct 667 -120 671 -101 671 -75 ct p
461 0 m  434 0 l  593 -243 l  620 -243 l  461 0 l  p
438 -245 m  456 -245 470 -239 479 -226 ct 487 -213 492 -194 492 -168 ct 492 -143 487 -124 478 -111 ct 
469 -97 455 -91 437 -91 ct 419 -91 405 -97 396 -110 ct 387 -124 383 -143 383 -168 ct 
383 -194 387 -213 396 -226 ct 405 -239 419 -245 438 -245 ct p
646 -75 m  646 -96 644 -111 639 -120 ct 635 -129 627 -134 617 -134 ct 606 -134 599 -129 594 -120 ct 
590 -111 587 -96 587 -75 ct 587 -55 589 -41 594 -31 ct 599 -22 606 -17 616 -17 ct 
627 -17 634 -22 639 -31 ct 643 -41 646 -56 646 -75 ct p
467 -168 m  467 -188 464 -203 460 -212 ct 456 -222 448 -226 438 -226 ct 427 -226 419 -222 415 -213 ct 
410 -204 408 -189 408 -168 ct 408 -148 410 -134 415 -124 ct 419 -115 427 -110 438 -110 ct 
448 -110 455 -115 460 -124 ct 464 -134 467 -149 467 -168 ct p ef
pom
gr
gs
tm setmatrix
-12.99927 -12.99835 t 
0.99994 0.99987 s 
pum
1555 2112 t
0.003 0.003 0.003 c 180 -127 m  180 -85 172 -53 157 -31 ct 142 -8 120 3 92 3 ct 
73 3 58 -1 46 -9 ct 35 -17 26 -30 22 -48 ct 51 -52 l  57 -32 71 -22 92 -22 ct 110 -22 124 -30 134 -47 ct 
143 -63 148 -87 149 -118 ct 144 -107 136 -99 125 -93 ct 114 -87 102 -84 89 -84 ct 
67 -84 49 -91 36 -106 ct 23 -121 17 -141 17 -165 ct 17 -191 24 -211 38 -225 ct 
52 -240 72 -247 97 -247 ct 124 -247 145 -237 159 -217 ct 173 -197 180 -167 180 -127 ct 
p
146 -157 m  146 -176 141 -192 132 -204 ct 123 -216 111 -222 96 -222 ct 81 -222 70 -217 61 -207 ct 
52 -196 48 -183 48 -165 ct 48 -148 52 -134 61 -123 ct 70 -113 81 -108 96 -108 ct 
105 -108 113 -110 121 -114 ct 129 -118 135 -124 139 -131 ct 144 -139 146 -147 146 -157 ct 
p ef
368 -122 m  368 -81 360 -50 346 -29 ct 332 -8 311 3 283 3 ct 255 3 234 -8 220 -29 ct 
206 -50 199 -81 199 -122 ct 199 -164 206 -195 219 -216 ct 233 -237 254 -247 284 -247 ct 
312 -247 334 -236 347 -215 ct 361 -194 368 -163 368 -122 ct p
336 -122 m  336 -157 332 -182 324 -198 ct 316 -214 302 -222 284 -222 ct 265 -222 251 -214 243 -199 ct 
234 -183 230 -158 230 -122 ct 230 -88 234 -62 243 -46 ct 251 -30 265 -22 283 -22 ct 
301 -22 315 -31 323 -47 ct 332 -63 336 -88 336 -122 ct p ef
671 -75 m  671 -50 667 -31 657 -18 ct 648 -5 634 2 616 2 ct 598 2 585 -4 576 -17 ct 
566 -30 562 -50 562 -75 ct 562 -101 566 -121 575 -134 ct 584 -147 598 -153 617 -153 ct 
636 -153 649 -146 658 -133 ct 667 -120 671 -101 671 -75 ct p
461 0 m  434 0 l  593 -243 l  620 -243 l  461 0 l  p
438 -245 m  456 -245 470 -239 479 -226 ct 487 -213 492 -194 492 -168 ct 492 -143 487 -124 478 -111 ct 
469 -97 455 -91 437 -91 ct 419 -91 405 -97 396 -110 ct 387 -124 383 -143 383 -168 ct 
383 -194 387 -213 396 -226 ct 405 -239 419 -245 438 -245 ct p
646 -75 m  646 -96 644 -111 639 -120 ct 635 -129 627 -134 617 -134 ct 606 -134 599 -129 594 -120 ct 
590 -111 587 -96 587 -75 ct 587 -55 589 -41 594 -31 ct 599 -22 606 -17 616 -17 ct 
627 -17 634 -22 639 -31 ct 643 -41 646 -56 646 -75 ct p
467 -168 m  467 -188 464 -203 460 -212 ct 456 -222 448 -226 438 -226 ct 427 -226 419 -222 415 -213 ct 
410 -204 408 -189 408 -168 ct 408 -148 410 -134 415 -124 ct 419 -115 427 -110 438 -110 ct 
448 -110 455 -115 460 -124 ct 464 -134 467 -149 467 -168 ct p ef
pom
gr
gs
tm setmatrix
-12.99927 -12.99835 t 
0.99994 0.99987 s 
pum
1370 1547 t
0.003 0.003 0.003 c 27 0 m  27 -26 l  89 -26 l  89 -213 l  34 -174 l  34 -204 l 
91 -243 l  120 -243 l  120 -26 l  179 -26 l  179 0 l  27 0 l  p ef
368 -122 m  368 -81 360 -50 346 -29 ct 332 -8 311 3 283 3 ct 255 3 234 -8 220 -29 ct 
206 -50 199 -81 199 -122 ct 199 -164 206 -195 219 -216 ct 233 -237 254 -247 284 -247 ct 
312 -247 334 -236 347 -215 ct 361 -194 368 -163 368 -122 ct p
336 -122 m  336 -157 332 -182 324 -198 ct 316 -214 302 -222 284 -222 ct 265 -222 251 -214 243 -199 ct 
234 -183 230 -158 230 -122 ct 230 -88 234 -62 243 -46 ct 251 -30 265 -22 283 -22 ct 
301 -22 315 -31 323 -47 ct 332 -63 336 -88 336 -122 ct p ef
553 -122 m  553 -81 545 -50 531 -29 ct 517 -8 496 3 468 3 ct 440 3 419 -8 405 -29 ct 
391 -50 384 -81 384 -122 ct 384 -164 391 -195 404 -216 ct 418 -237 439 -247 469 -247 ct 
497 -247 519 -236 532 -215 ct 546 -194 553 -163 553 -122 ct p
521 -122 m  521 -157 517 -182 509 -198 ct 501 -214 487 -222 469 -222 ct 450 -222 436 -214 428 -199 ct 
419 -183 415 -158 415 -122 ct 415 -88 419 -62 428 -46 ct 436 -30 450 -22 468 -22 ct 
486 -22 500 -31 508 -47 ct 517 -63 521 -88 521 -122 ct p ef
857 -75 m  857 -50 853 -31 843 -18 ct 834 -5 820 2 802 2 ct 784 2 771 -4 762 -17 ct 
752 -30 748 -50 748 -75 ct 748 -101 752 -121 761 -134 ct 770 -147 784 -153 803 -153 ct 
822 -153 835 -146 844 -133 ct 853 -120 857 -101 857 -75 ct p
647 0 m  620 0 l  779 -243 l  806 -243 l  647 0 l  p
624 -245 m  642 -245 656 -239 665 -226 ct 673 -213 678 -194 678 -168 ct 678 -143 673 -124 664 -111 ct 
655 -97 641 -91 623 -91 ct 605 -91 591 -97 582 -110 ct 573 -124 569 -143 569 -168 ct 
569 -194 573 -213 582 -226 ct 591 -239 605 -245 624 -245 ct p
832 -75 m  832 -96 830 -111 825 -120 ct 821 -129 813 -134 803 -134 ct 792 -134 785 -129 780 -120 ct 
776 -111 773 -96 773 -75 ct 773 -55 775 -41 780 -31 ct 785 -22 792 -17 802 -17 ct 
813 -17 820 -22 825 -31 ct 829 -41 832 -56 832 -75 ct p
653 -168 m  653 -188 650 -203 646 -212 ct 642 -222 634 -226 624 -226 ct 613 -226 605 -222 601 -213 ct 
596 -204 594 -189 594 -168 ct 594 -148 596 -134 601 -124 ct 605 -115 613 -110 624 -110 ct 
634 -110 641 -115 646 -124 ct 650 -134 653 -149 653 -168 ct p ef
pom
gr
gs
tm setmatrix
-12.99927 -12.99835 t 
0.99994 0.99987 s 
pum
8190 828 t
0.003 0.003 0.003 c 285 -88 m  285 -59 274 -36 251 -20 ct 228 -4 196 4 155 4 ct 
78 4 33 -23 21 -76 ct 62 -85 l  67 -66 77 -52 93 -43 ct 108 -34 129 -29 156 -29 ct 
184 -29 205 -34 220 -44 ct 235 -53 243 -67 243 -85 ct 243 -96 240 -104 236 -111 ct 
231 -117 224 -122 216 -126 ct 207 -131 197 -134 185 -137 ct 174 -140 160 -143 146 -146 ct 
121 -152 102 -157 89 -163 ct 76 -168 66 -174 59 -181 ct 51 -188 46 -196 42 -205 ct 
38 -214 36 -225 36 -237 ct 36 -264 46 -284 67 -299 ct 87 -314 117 -321 156 -321 ct 
191 -321 219 -316 238 -305 ct 257 -294 270 -275 278 -248 ct 236 -241 l  231 -258 222 -270 209 -277 ct 
196 -285 178 -289 155 -289 ct 130 -289 111 -285 97 -276 ct 84 -268 77 -255 77 -239 ct 
77 -229 80 -221 85 -215 ct 90 -208 98 -203 107 -199 ct 117 -194 136 -189 165 -182 ct 
175 -180 185 -178 194 -175 ct 204 -173 213 -170 222 -167 ct 231 -164 239 -160 247 -156 ct 
255 -151 261 -146 267 -140 ct 273 -134 277 -126 280 -118 ct 283 -109 285 -99 285 -88 ct 
p ef
311 -104 m  311 -140 l  423 -140 l  423 -104 l  311 -104 l  p ef
633 1 m  551 -110 l  521 -86 l  521 1 l  481 1 l  481 -332 l  521 -332 l 
521 -124 l  628 -242 l  675 -242 l  577 -138 l  680 1 l  633 1 l  p ef
731 -243 m  731 -89 l  731 -73 733 -61 736 -52 ct 739 -43 744 -37 751 -33 ct 
758 -29 768 -27 781 -27 ct 801 -27 816 -34 827 -47 ct 839 -60 844 -79 844 -102 ct 
844 -243 l  884 -243 l  884 -52 l  884 -24 885 -7 886 0 ct 848 0 l  848 -1 847 -3 847 -7 ct 
847 -10 847 -14 847 -18 ct 846 -22 846 -30 846 -42 ct 845 -42 l  836 -25 825 -13 813 -6 ct 
801 1 786 4 768 4 ct 741 4 722 -3 709 -16 ct 697 -29 691 -51 691 -81 ct 691 -243 l 
731 -243 l  p ef
932 0 m  932 -186 l  932 -203 931 -222 930 -243 ct 969 -243 l  970 -215 970 -199 970 -193 ct 
971 -193 l  978 -214 985 -228 993 -236 ct 1002 -243 1014 -247 1029 -247 ct 1034 -247 1040 -246 1045 -245 ct 
1045 -208 l  1040 -209 1033 -210 1024 -210 ct 1007 -210 994 -203 985 -188 ct 
977 -174 972 -153 972 -126 ct 972 0 l  932 0 l  p ef
1195 0 m  1148 0 l  1060 -243 l  1103 -243 l  1156 -85 l  1158 -79 1163 -61 1171 -32 ct 
1179 -58 l  1188 -84 l  1243 -243 l  1286 -243 l  1195 0 l  p ef
1358 -113 m  1358 -85 1364 -64 1375 -49 ct 1387 -34 1403 -26 1426 -26 ct 1443 -26 1457 -30 1468 -37 ct 
1478 -44 1485 -53 1489 -63 ct 1524 -53 l  1510 -15 1477 4 1426 4 ct 1390 4 1362 -7 1344 -28 ct 
1325 -49 1316 -81 1316 -123 ct 1316 -164 1325 -194 1344 -216 ct 1362 -237 1389 -248 1424 -248 ct 
1495 -248 1531 -205 1531 -118 ct 1531 -113 l  1358 -113 l  p
1489 -144 m  1487 -170 1480 -188 1470 -200 ct 1459 -212 1443 -218 1423 -218 ct 
1404 -218 1388 -211 1377 -198 ct 1365 -185 1359 -167 1358 -144 ct 1489 -144 l 
p ef
pom
gr
gs
79.99553 lw 1 lj 0.003 0.273 0.527 c 13882 13359 m  14682 13359 l  ps
gr
gs
79.99553 lw 1 lj 1.000 0.261 0.058 c 13882 13856 m  14682 13856 l  ps
gr
gs
tm setmatrix
-12.99927 -12.99835 t 
0.99994 0.99987 s 
pum
14783 3813 t
0.003 0.003 0.003 c 62 -216 m  62 -125 l  197 -125 l  197 -98 l  62 -98 l 
62 1 l  29 1 l  29 -243 l  202 -243 l  202 -216 l  62 -216 l  p ef
367 -94 m  367 -61 359 -37 345 -21 ct 331 -5 310 3 282 3 ct 255 3 235 -5 221 -22 ct 
207 -38 200 -62 200 -94 ct 200 -158 228 -190 283 -190 ct 312 -190 333 -182 346 -167 ct 
360 -151 367 -127 367 -94 ct p
334 -94 m  334 -119 330 -138 322 -150 ct 315 -161 302 -167 284 -167 ct 266 -167 253 -161 245 -149 ct 
236 -137 232 -119 232 -94 ct 232 -69 236 -51 244 -38 ct 252 -26 265 -20 282 -20 ct 
301 -20 314 -26 322 -38 ct 330 -50 334 -68 334 -94 ct p ef
421 0 m  421 -143 l  421 -156 421 -171 420 -187 ct 450 -187 l  451 -165 451 -153 451 -148 ct 
452 -148 l  457 -164 462 -175 469 -181 ct 475 -187 484 -190 496 -190 ct 500 -190 504 -189 509 -188 ct 
509 -160 l  505 -161 499 -162 492 -162 ct 479 -162 469 -156 463 -145 ct 456 -134 453 -118 453 -97 ct 
453 0 l  421 0 l  p ef
609 0 m  572 0 l  504 -187 l  537 -187 l  578 -65 l  580 -61 584 -47 590 -24 ct 
596 -44 l  603 -65 l  645 -187 l  678 -187 l  609 0 l  p ef
736 -87 m  736 -66 740 -49 749 -38 ct 758 -26 771 -20 788 -20 ct 801 -20 812 -23 820 -28 ct 
828 -34 834 -41 836 -49 ct 864 -41 l  853 -12 827 3 788 3 ct 760 3 739 -5 725 -22 ct 
710 -38 703 -62 703 -95 ct 703 -125 710 -149 725 -165 ct 739 -182 760 -190 786 -190 ct 
841 -190 869 -157 869 -91 ct 869 -87 l  736 -87 l  p
837 -111 m  835 -130 830 -145 822 -154 ct 813 -163 801 -167 786 -167 ct 771 -167 759 -162 750 -152 ct 
741 -142 737 -128 736 -111 ct 837 -111 l  p ef
1015 0 m  1015 -118 l  1015 -131 1014 -140 1012 -147 ct 1009 -154 1005 -159 1000 -162 ct 
995 -165 987 -166 977 -166 ct 962 -166 950 -161 941 -151 ct 933 -140 929 -126 929 -108 ct 
929 0 l  897 0 l  897 -147 l  897 -168 897 -182 896 -187 ct 926 -187 l  926 -186 926 -184 926 -182 ct 
926 -179 926 -176 927 -173 ct 927 -170 927 -164 927 -155 ct 928 -155 l  935 -168 943 -177 952 -182 ct 
962 -187 973 -190 987 -190 ct 1008 -190 1023 -185 1032 -175 ct 1042 -165 1046 -148 1046 -124 ct 
1046 0 l  1015 0 l  p ef
1153 -1 m  1143 2 1133 3 1122 3 ct 1097 3 1085 -11 1085 -39 ct 1085 -164 l  1063 -164 l 
1063 -187 l  1086 -187 l  1095 -228 l  1116 -228 l  1116 -187 l  1150 -187 l 
1150 -164 l  1116 -164 l  1116 -46 l  1116 -37 1117 -31 1120 -27 ct 1123 -23 1128 -22 1136 -22 ct 
1140 -22 1146 -22 1153 -24 ct 1153 -1 l  p ef
1212 -87 m  1212 -66 1216 -49 1225 -38 ct 1234 -26 1247 -20 1264 -20 ct 1277 -20 1288 -23 1296 -28 ct 
1304 -34 1310 -41 1312 -49 ct 1340 -41 l  1329 -12 1303 3 1264 3 ct 1236 3 1215 -5 1201 -22 ct 
1186 -38 1179 -62 1179 -95 ct 1179 -125 1186 -149 1201 -165 ct 1215 -182 1236 -190 1262 -190 ct 
1317 -190 1345 -157 1345 -91 ct 1345 -87 l  1212 -87 l  p
1313 -111 m  1311 -130 1306 -145 1298 -154 ct 1289 -163 1277 -167 1262 -167 ct 
1247 -167 1235 -162 1226 -152 ct 1217 -142 1213 -128 1212 -111 ct 1313 -111 l 
p ef
1444 -1 m  1434 2 1424 3 1413 3 ct 1388 3 1376 -11 1376 -39 ct 1376 -164 l  1354 -164 l 
1354 -187 l  1377 -187 l  1386 -228 l  1407 -228 l  1407 -187 l  1441 -187 l 
1441 -164 l  1407 -164 l  1407 -46 l  1407 -37 1408 -31 1411 -27 ct 1414 -23 1419 -22 1427 -22 ct 
1431 -22 1437 -22 1444 -24 ct 1444 -1 l  p ef
1597 -164 m  1597 -1 l  1566 -1 l  1566 -164 l  1540 -164 l  1540 -187 l 
1566 -187 l  1566 -208 l  1566 -225 1570 -237 1577 -245 ct 1585 -252 1596 -256 1612 -256 ct 
1620 -256 1628 -255 1634 -254 ct 1634 -230 l  1628 -231 1624 -232 1620 -232 ct 
1612 -232 1606 -230 1603 -226 ct 1599 -222 1597 -214 1597 -204 ct 1597 -187 l 
1634 -187 l  1634 -164 l  1597 -164 l  p ef
1664 0 m  1664 -143 l  1664 -156 1664 -171 1663 -187 ct 1693 -187 l  1694 -165 1694 -153 1694 -148 ct 
1695 -148 l  1700 -164 1705 -175 1712 -181 ct 1718 -187 1727 -190 1739 -190 ct 
1743 -190 1747 -189 1752 -188 ct 1752 -160 l  1748 -161 1742 -162 1735 -162 ct 
1722 -162 1712 -156 1706 -145 ct 1699 -134 1696 -118 1696 -97 ct 1696 0 l  1664 0 l 
p ef
1794 -87 m  1794 -66 1798 -49 1807 -38 ct 1816 -26 1829 -20 1846 -20 ct 1859 -20 1870 -23 1878 -28 ct 
1886 -34 1892 -41 1894 -49 ct 1922 -41 l  1911 -12 1885 3 1846 3 ct 1818 3 1797 -5 1783 -22 ct 
1768 -38 1761 -62 1761 -95 ct 1761 -125 1768 -149 1783 -165 ct 1797 -182 1818 -190 1844 -190 ct 
1899 -190 1927 -157 1927 -91 ct 1927 -87 l  1794 -87 l  p
1895 -111 m  1893 -130 1888 -145 1880 -154 ct 1871 -163 1859 -167 1844 -167 ct 
1829 -167 1817 -162 1808 -152 ct 1799 -142 1795 -128 1794 -111 ct 1895 -111 l 
p ef
2063 0 m  2063 -118 l  2063 -136 2061 -149 2056 -156 ct 2051 -163 2042 -166 2029 -166 ct 
2016 -166 2006 -161 1998 -151 ct 1990 -141 1986 -127 1986 -108 ct 1986 0 l  1955 0 l 
1955 -147 l  1955 -168 1955 -182 1954 -187 ct 1984 -187 l  1984 -186 1984 -184 1984 -182 ct 
1984 -179 1984 -176 1985 -173 ct 1985 -170 1985 -164 1985 -155 ct 1986 -155 l 
1992 -168 2000 -177 2009 -182 ct 2017 -187 2028 -190 2040 -190 ct 2054 -190 2065 -187 2074 -182 ct 
2082 -176 2088 -167 2091 -155 ct 2091 -155 l  2098 -167 2106 -176 2115 -182 ct 
2124 -187 2135 -190 2148 -190 ct 2167 -190 2180 -185 2189 -175 ct 2198 -164 2202 -148 2202 -124 ct 
2202 0 l  2171 0 l  2171 -118 l  2171 -136 2169 -149 2164 -156 ct 2159 -163 2150 -166 2137 -166 ct 
2123 -166 2113 -161 2105 -151 ct 2098 -141 2094 -127 2094 -108 ct 2094 0 l  2063 0 l 
p ef
2365 -30 m  2359 -18 2351 -10 2342 -5 ct 2332 0 2320 3 2306 3 ct 2283 3 2266 -5 2254 -21 ct 
2243 -37 2238 -61 2238 -93 ct 2238 -158 2261 -190 2306 -190 ct 2321 -190 2332 -187 2342 -182 ct 
2351 -177 2359 -169 2365 -158 ct 2365 -158 l  2365 -179 l  2365 -256 l  2396 -256 l 
2396 -39 l  2396 -19 2396 -7 2397 0 ct 2367 0 l  2367 -2 2366 -7 2366 -13 ct 
2365 -20 2365 -26 2365 -30 ct 2365 -30 l  p
2270 -94 m  2270 -68 2274 -49 2281 -38 ct 2288 -27 2299 -21 2314 -21 ct 2332 -21 2345 -27 2353 -39 ct 
2361 -51 2365 -70 2365 -96 ct 2365 -120 2361 -138 2353 -150 ct 2345 -161 2332 -167 2315 -167 ct 
2299 -167 2288 -161 2281 -150 ct 2274 -138 2270 -120 2270 -94 ct p ef
2432 0 m  2432 -143 l  2432 -156 2432 -171 2431 -187 ct 2461 -187 l  2462 -165 2462 -153 2462 -148 ct 
2463 -148 l  2468 -164 2473 -175 2480 -181 ct 2486 -187 2495 -190 2507 -190 ct 
2511 -190 2515 -189 2520 -188 ct 2520 -160 l  2516 -161 2510 -162 2503 -162 ct 
2490 -162 2480 -156 2474 -145 ct 2467 -134 2464 -118 2464 -97 ct 2464 0 l  2432 0 l 
p ef
2564 -226 m  2564 -256 l  2595 -256 l  2595 -226 l  2564 -226 l  p
2564 0 m  2564 -187 l  2595 -187 l  2595 0 l  2564 0 l  p ef
2655 -164 m  2655 -1 l  2624 -1 l  2624 -164 l  2598 -164 l  2598 -187 l 
2624 -187 l  2624 -208 l  2624 -225 2628 -237 2635 -245 ct 2643 -252 2654 -256 2670 -256 ct 
2678 -256 2686 -255 2692 -254 ct 2692 -230 l  2686 -231 2682 -232 2678 -232 ct 
2670 -232 2664 -230 2661 -226 ct 2657 -222 2655 -214 2655 -204 ct 2655 -187 l 
2692 -187 l  2692 -164 l  2655 -164 l  p ef
2794 -1 m  2784 2 2774 3 2763 3 ct 2738 3 2726 -11 2726 -39 ct 2726 -164 l  2704 -164 l 
2704 -187 l  2727 -187 l  2736 -228 l  2757 -228 l  2757 -187 l  2791 -187 l 
2791 -164 l  2757 -164 l  2757 -46 l  2757 -37 2758 -31 2761 -27 ct 2764 -23 2769 -22 2777 -22 ct 
2781 -22 2787 -22 2794 -24 ct 2794 -1 l  p ef
pom
gr
gs
tm setmatrix
-12.99927 -12.99835 t 
0.99994 0.99987 s 
pum
14783 4311 t
0.003 0.003 0.003 c 62 -216 m  62 -125 l  197 -125 l  197 -98 l  62 -98 l 
62 1 l  29 1 l  29 -243 l  202 -243 l  202 -216 l  62 -216 l  p ef
256 3 m  238 3 224 -2 214 -12 ct 205 -22 200 -35 200 -53 ct 200 -72 206 -87 219 -97 ct 
232 -107 252 -113 280 -114 ct 322 -114 l  322 -125 l  322 -140 319 -151 313 -157 ct 
306 -164 296 -167 282 -167 ct 268 -167 258 -165 252 -160 ct 246 -155 242 -148 241 -137 ct 
208 -140 l  214 -174 239 -191 283 -191 ct 307 -191 324 -185 336 -175 ct 348 -164 354 -148 354 -128 ct 
354 -48 l  354 -38 355 -31 357 -27 ct 360 -22 364 -20 371 -20 ct 374 -20 378 -20 381 -21 ct 
381 -2 l  374 0 366 1 357 1 ct 346 1 338 -2 332 -8 ct 327 -14 324 -23 323 -36 ct 
322 -36 l  314 -22 305 -12 295 -6 ct 284 0 271 3 256 3 ct p
263 -20 m  275 -20 285 -23 294 -28 ct 303 -33 310 -40 315 -49 ct 320 -58 322 -67 322 -77 ct 
322 -92 l  288 -92 l  274 -92 263 -91 255 -88 ct 248 -85 242 -81 238 -75 ct 
234 -69 232 -62 232 -52 ct 232 -42 235 -34 240 -29 ct 246 -23 253 -20 263 -20 ct 
p ef
538 0 m  475 -85 l  452 -66 l  452 0 l  421 0 l  421 -256 l  452 -256 l 
452 -96 l  534 -187 l  570 -187 l  494 -106 l  574 0 l  538 0 l  p ef
651 -1 m  641 2 631 3 620 3 ct 595 3 583 -11 583 -39 ct 583 -164 l  561 -164 l 
561 -187 l  584 -187 l  593 -228 l  614 -228 l  614 -187 l  648 -187 l 
648 -164 l  614 -164 l  614 -46 l  614 -37 615 -31 618 -27 ct 621 -23 626 -22 634 -22 ct 
638 -22 644 -22 651 -24 ct 651 -1 l  p ef
685 -226 m  685 -256 l  716 -256 l  716 -226 l  685 -226 l  p
685 0 m  685 -187 l  716 -187 l  716 0 l  685 0 l  p ef
905 -52 m  905 -34 898 -21 885 -11 ct 872 -2 853 3 829 3 ct 806 3 788 -1 775 -8 ct 
763 -16 755 -28 751 -44 ct 778 -50 l  781 -40 786 -32 795 -28 ct 803 -23 814 -21 829 -21 ct 
845 -21 856 -23 864 -28 ct 871 -33 875 -40 875 -50 ct 875 -57 872 -63 867 -68 ct 
862 -72 854 -76 843 -79 ct 820 -85 l  802 -89 790 -94 782 -98 ct 775 -103 769 -108 765 -114 ct 
760 -121 758 -129 758 -138 ct 758 -155 764 -168 776 -177 ct 789 -186 806 -190 829 -190 ct 
850 -190 866 -186 878 -179 ct 891 -172 898 -160 901 -144 ct 874 -141 l  872 -149 867 -156 860 -160 ct 
852 -164 842 -167 829 -167 ct 815 -167 805 -164 798 -160 ct 792 -156 788 -149 788 -141 ct 
788 -136 790 -131 793 -128 ct 795 -124 799 -121 805 -119 ct 810 -117 822 -113 839 -109 ct 
855 -105 867 -101 874 -97 ct 882 -94 887 -90 892 -86 ct 896 -82 899 -77 901 -71 ct 
904 -66 905 -59 905 -52 ct p ef
1041 0 m  978 -85 l  955 -66 l  955 0 l  924 0 l  924 -256 l  955 -256 l 
955 -96 l  1037 -187 l  1073 -187 l  997 -106 l  1077 0 l  1041 0 l  p ef
1226 -164 m  1226 -1 l  1195 -1 l  1195 -164 l  1169 -164 l  1169 -187 l 
1195 -187 l  1195 -208 l  1195 -225 1199 -237 1206 -245 ct 1214 -252 1225 -256 1241 -256 ct 
1249 -256 1257 -255 1263 -254 ct 1263 -230 l  1257 -231 1253 -232 1249 -232 ct 
1241 -232 1235 -230 1232 -226 ct 1228 -222 1226 -214 1226 -204 ct 1226 -187 l 
1263 -187 l  1263 -164 l  1226 -164 l  p ef
1294 0 m  1294 -143 l  1294 -156 1294 -171 1293 -187 ct 1323 -187 l  1324 -165 1324 -153 1324 -148 ct 
1325 -148 l  1330 -164 1335 -175 1342 -181 ct 1348 -187 1357 -190 1369 -190 ct 
1373 -190 1377 -189 1382 -188 ct 1382 -160 l  1378 -161 1372 -162 1365 -162 ct 
1352 -162 1342 -156 1336 -145 ct 1329 -134 1326 -118 1326 -97 ct 1326 0 l  1294 0 l 
p ef
1424 -87 m  1424 -66 1428 -49 1437 -38 ct 1446 -26 1459 -20 1476 -20 ct 1489 -20 1500 -23 1508 -28 ct 
1516 -34 1522 -41 1524 -49 ct 1552 -41 l  1541 -12 1515 3 1476 3 ct 1448 3 1427 -5 1413 -22 ct 
1398 -38 1391 -62 1391 -95 ct 1391 -125 1398 -149 1413 -165 ct 1427 -182 1448 -190 1474 -190 ct 
1529 -190 1557 -157 1557 -91 ct 1557 -87 l  1424 -87 l  p
1525 -111 m  1523 -130 1518 -145 1510 -154 ct 1501 -163 1489 -167 1474 -167 ct 
1459 -167 1447 -162 1438 -152 ct 1429 -142 1425 -128 1424 -111 ct 1525 -111 l 
p ef
1693 0 m  1693 -118 l  1693 -136 1691 -149 1686 -156 ct 1681 -163 1672 -166 1659 -166 ct 
1646 -166 1636 -161 1628 -151 ct 1620 -141 1616 -127 1616 -108 ct 1616 0 l  1585 0 l 
1585 -147 l  1585 -168 1585 -182 1584 -187 ct 1614 -187 l  1614 -186 1614 -184 1614 -182 ct 
1614 -179 1614 -176 1615 -173 ct 1615 -170 1615 -164 1615 -155 ct 1616 -155 l 
1622 -168 1630 -177 1639 -182 ct 1647 -187 1658 -190 1670 -190 ct 1684 -190 1695 -187 1704 -182 ct 
1712 -176 1718 -167 1721 -155 ct 1721 -155 l  1728 -167 1736 -176 1745 -182 ct 
1754 -187 1765 -190 1778 -190 ct 1797 -190 1810 -185 1819 -175 ct 1828 -164 1832 -148 1832 -124 ct 
1832 0 l  1801 0 l  1801 -118 l  1801 -136 1799 -149 1794 -156 ct 1789 -163 1780 -166 1767 -166 ct 
1753 -166 1743 -161 1735 -151 ct 1728 -141 1724 -127 1724 -108 ct 1724 0 l  1693 0 l 
p ef
1994 -30 m  1988 -18 1980 -10 1971 -5 ct 1961 0 1949 3 1935 3 ct 1912 3 1895 -5 1883 -21 ct 
1872 -37 1867 -61 1867 -93 ct 1867 -158 1890 -190 1935 -190 ct 1950 -190 1961 -187 1971 -182 ct 
1980 -177 1988 -169 1994 -158 ct 1994 -158 l  1994 -179 l  1994 -256 l  2025 -256 l 
2025 -39 l  2025 -19 2025 -7 2026 0 ct 1996 0 l  1996 -2 1995 -7 1995 -13 ct 
1994 -20 1994 -26 1994 -30 ct 1994 -30 l  p
1899 -94 m  1899 -68 1903 -49 1910 -38 ct 1917 -27 1928 -21 1943 -21 ct 1961 -21 1974 -27 1982 -39 ct 
1990 -51 1994 -70 1994 -96 ct 1994 -120 1990 -138 1982 -150 ct 1974 -161 1961 -167 1944 -167 ct 
1928 -167 1917 -161 1910 -150 ct 1903 -138 1899 -120 1899 -94 ct p ef
2088 0 m  2088 -143 l  2088 -156 2088 -171 2087 -187 ct 2117 -187 l  2118 -165 2118 -153 2118 -148 ct 
2119 -148 l  2124 -164 2129 -175 2136 -181 ct 2142 -187 2151 -190 2163 -190 ct 
2167 -190 2171 -189 2176 -188 ct 2176 -160 l  2172 -161 2166 -162 2159 -162 ct 
2146 -162 2136 -156 2130 -145 ct 2123 -134 2120 -118 2120 -97 ct 2120 0 l  2088 0 l 
p ef
2194 -226 m  2194 -256 l  2225 -256 l  2225 -226 l  2194 -226 l  p
2194 0 m  2194 -187 l  2225 -187 l  2225 0 l  2194 0 l  p ef
2311 -164 m  2311 -1 l  2280 -1 l  2280 -164 l  2254 -164 l  2254 -187 l 
2280 -187 l  2280 -208 l  2280 -225 2284 -237 2291 -245 ct 2299 -252 2310 -256 2326 -256 ct 
2334 -256 2342 -255 2348 -254 ct 2348 -230 l  2342 -231 2338 -232 2334 -232 ct 
2326 -232 2320 -230 2317 -226 ct 2313 -222 2311 -214 2311 -204 ct 2311 -187 l 
2348 -187 l  2348 -164 l  2311 -164 l  p ef
2423 -1 m  2413 2 2403 3 2392 3 ct 2367 3 2355 -11 2355 -39 ct 2355 -164 l  2333 -164 l 
2333 -187 l  2356 -187 l  2365 -228 l  2386 -228 l  2386 -187 l  2420 -187 l 
2420 -164 l  2386 -164 l  2386 -46 l  2386 -37 2387 -31 2390 -27 ct 2393 -23 2398 -22 2406 -22 ct 
2410 -22 2416 -22 2423 -24 ct 2423 -1 l  p ef
pom
gr
gs
tm setmatrix
-12.99927 -12.99835 t 
0.99994 0.99987 s 
pum
837 5060 t
90.0 r 0.003 0.003 0.003 c 56 -148 m  56 0 l  28 0 l  28 -148 l  5 -148 l  5 -168 l 
28 -168 l  28 -187 l  28 -202 31 -213 38 -220 ct 45 -227 55 -230 69 -230 ct 
77 -230 83 -229 89 -228 ct 89 -207 l  84 -208 80 -208 76 -208 ct 69 -208 64 -206 61 -203 ct 
58 -199 56 -193 56 -183 ct 56 -168 l  89 -168 l  89 -148 l  56 -148 l  p ef
101 0 m  101 -129 l  101 -141 101 -154 100 -168 ct 127 -168 l  127 -149 128 -137 128 -134 ct 
128 -134 l  133 -148 138 -158 144 -163 ct 150 -168 158 -171 168 -171 ct 172 -171 176 -170 180 -169 ct 
180 -144 l  176 -145 171 -145 165 -145 ct 153 -145 144 -140 138 -130 ct 132 -120 129 -106 129 -88 ct 
129 0 l  101 0 l  p ef
228 -78 m  228 -59 232 -44 240 -34 ct 248 -23 259 -18 275 -18 ct 287 -18 297 -20 304 -25 ct 
311 -30 316 -36 319 -44 ct 343 -37 l  333 -10 310 3 275 3 ct 250 3 231 -4 218 -19 ct 
205 -34 199 -56 199 -85 ct 199 -113 205 -134 218 -149 ct 231 -164 250 -171 274 -171 ct 
323 -171 348 -141 348 -82 ct 348 -78 l  228 -78 l  p
319 -99 m  317 -117 313 -130 305 -138 ct 298 -146 287 -150 273 -150 ct 260 -150 249 -146 241 -137 ct 
233 -128 229 -115 228 -99 ct 319 -99 l  p ef
489 0 m  489 -106 l  489 -123 487 -134 483 -140 ct 478 -146 470 -149 459 -149 ct 
447 -149 437 -145 430 -136 ct 423 -127 420 -114 420 -97 ct 420 0 l  392 0 l 
392 -132 l  392 -152 392 -164 391 -168 ct 418 -168 l  418 -167 418 -166 418 -164 ct 
418 -161 418 -159 418 -156 ct 418 -153 419 -147 419 -139 ct 419 -139 l  425 -151 432 -159 440 -164 ct 
448 -169 457 -171 468 -171 ct 481 -171 491 -168 498 -163 ct 506 -158 511 -150 514 -139 ct 
514 -139 l  520 -150 527 -159 535 -164 ct 544 -169 554 -171 565 -171 ct 582 -171 595 -166 602 -157 ct 
610 -148 614 -133 614 -112 ct 614 0 l  586 0 l  586 -106 l  586 -123 584 -134 580 -140 ct 
575 -146 567 -149 556 -149 ct 543 -149 534 -145 527 -136 ct 520 -127 517 -114 517 -97 ct 
517 0 l  489 0 l  p ef
762 -27 m  757 -16 750 -8 742 -3 ct 733 1 723 4 710 4 ct 689 4 673 -4 663 -18 ct 
653 -32 648 -54 648 -83 ct 648 -141 669 -171 710 -171 ct 723 -171 734 -168 742 -164 ct 
750 -159 757 -152 762 -141 ct 763 -141 l  762 -160 l  762 -230 l  790 -230 l 
790 -34 l  790 -17 791 -5 791 0 ct 765 0 l  764 -1 764 -5 764 -11 ct 763 -17 763 -22 763 -27 ct 
762 -27 l  p
678 -84 m  678 -60 681 -43 687 -33 ct 693 -23 703 -18 717 -18 ct 733 -18 745 -23 752 -34 ct 
759 -45 762 -62 762 -86 ct 762 -108 759 -124 752 -134 ct 745 -145 733 -150 718 -150 ct 
704 -150 693 -145 687 -134 ct 681 -124 678 -107 678 -84 ct p ef
816 0 m  816 -129 l  816 -141 816 -154 815 -168 ct 842 -168 l  842 -149 843 -137 843 -134 ct 
843 -134 l  848 -148 853 -158 859 -163 ct 865 -168 873 -171 883 -171 ct 887 -171 891 -170 895 -169 ct 
895 -144 l  891 -145 886 -145 880 -145 ct 868 -145 859 -140 853 -130 ct 847 -120 844 -106 844 -88 ct 
844 0 l  816 0 l  p ef
921 -203 m  921 -230 l  949 -230 l  949 -203 l  921 -203 l  p
921 0 m  921 -168 l  949 -168 l  949 0 l  921 0 l  p ef
1035 -148 m  1035 0 l  1007 0 l  1007 -148 l  984 -148 l  984 -168 l  1007 -168 l 
1007 -187 l  1007 -202 1010 -213 1017 -220 ct 1024 -227 1034 -230 1048 -230 ct 
1056 -230 1062 -229 1068 -228 ct 1068 -207 l  1063 -208 1059 -208 1055 -208 ct 
1048 -208 1043 -206 1040 -203 ct 1037 -199 1035 -193 1035 -183 ct 1035 -168 l 
1068 -168 l  1068 -148 l  1035 -148 l  p ef
1144 -2 m  1135 1 1125 2 1116 2 ct 1093 2 1082 -11 1082 -36 ct 1082 -148 l  1063 -148 l 
1063 -168 l  1083 -168 l  1092 -206 l  1110 -206 l  1110 -168 l  1141 -168 l 
1141 -148 l  1110 -148 l  1110 -42 l  1110 -34 1111 -28 1114 -25 ct 1117 -22 1121 -20 1128 -20 ct 
1132 -20 1137 -21 1144 -22 ct 1144 -2 l  p ef
pom
gr
0 7886 t 
pom
count op_count sub {pop} repeat countdictstack dict_count sub {end} repeat b4_inc_state restore
%%PageTrailer
%%Trailer
%%EOF
